sim/alu.vcd
$date
  Sat Nov 15 18:41:56 2025
$end
$version
  GHDL v0
$end
$timescale
  1 fs
$end
$scope module standard $end
$upscope $end
$scope module textio $end
$upscope $end
$scope module std_logic_1164 $end
$upscope $end
$scope module numeric_std $end
$upscope $end
$scope module std_logic_arith $end
$upscope $end
$scope module std_logic_signed $end
$upscope $end
$scope module std_logic_unsigned $end
$upscope $end
$scope module tb_alu $end
$var reg 3 ! alu_cont[2:0] $end
$var reg 32 " a[31:0] $end
$var reg 32 # b[31:0] $end
$var reg 32 $ alu_result[31:0] $end
$var reg 1 % zero $end
$scope module uut $end
$var reg 3 & alu_cont[2:0] $end
$var reg 32 ' a[31:0] $end
$var reg 32 ( b[31:0] $end
$var reg 32 ) alu_result[31:0] $end
$var reg 1 * zero $end
$var reg 33 + int_res[32:0] $end
$var reg 32 , float_res[31:0] $end
$var reg 32 - result[31:0] $end
$var reg 32 . fadd_x[31:0] $end
$var reg 32 / fadd_y[31:0] $end
$scope module u_fadd $end
$var reg 32 0 x[31:0] $end
$var reg 32 1 y[31:0] $end
$var reg 32 2 r[31:0] $end
$var reg 31 3 expfracx[30:0] $end
$var reg 31 4 expfracy[30:0] $end
$var reg 9 5 expxmexpy[8:0] $end
$var reg 9 6 expymexpx[8:0] $end
$var reg 1 7 swap $end
$var reg 32 8 newx[31:0] $end
$var reg 32 9 newy[31:0] $end
$var reg 9 : expdiff[8:0] $end
$var reg 8 ; expnewx[7:0] $end
$var reg 8 < expnewy[7:0] $end
$var reg 1 = signnewx $end
$var reg 1 > signnewy $end
$var reg 1 ? effsub $end
$var reg 1 @ xexpfieldzero $end
$var reg 1 A yexpfieldzero $end
$var reg 1 B xexpfieldallones $end
$var reg 1 C yexpfieldallones $end
$var reg 1 D xsigfieldzero $end
$var reg 1 E ysigfieldzero $end
$var reg 1 F xisnan $end
$var reg 1 G yisnan $end
$var reg 1 H xisinfinity $end
$var reg 1 I yisinfinity $end
$var reg 1 J xiszero $end
$var reg 1 K yiszero $end
$var reg 1 L bothsubnormals $end
$var reg 1 M resultisnan $end
$var reg 24 N significandnewx[23:0] $end
$var reg 24 O significandnewy[23:0] $end
$var reg 1 P allshiftedout $end
$var reg 5 Q rightshiftvalue[4:0] $end
$var reg 1 R shiftcorrection $end
$var reg 5 S finalrightshiftvalue[4:0] $end
$var reg 26 T significandy00[25:0] $end
$var reg 26 U shiftedsignificandy[25:0] $end
$var reg 1 V stickylow $end
$var reg 27 W summandy[26:0] $end
$var reg 27 X summandx[26:0] $end
$var reg 1 Y carryin $end
$var reg 27 Z significandz[26:0] $end
$var reg 1 [ z1 $end
$var reg 1 \ z0 $end
$var reg 26 ] lzczinput[25:0] $end
$var reg 5 ^ lzc[4:0] $end
$var reg 5 _ leftshiftval[4:0] $end
$var reg 53 ` normalizedsignificand[52:0] $end
$var reg 23 a significandpreround[22:0] $end
$var reg 1 b lsb $end
$var reg 1 c roundbit $end
$var reg 1 d stickybit $end
$var reg 8 e deltaexp[7:0] $end
$var reg 1 f fullcancellation $end
$var reg 8 g exppreround[7:0] $end
$var reg 31 h expsigpreround[30:0] $end
$var reg 1 i roundupbit $end
$var reg 31 j expsigr[30:0] $end
$var reg 1 k resultiszero $end
$var reg 1 l resultisinf $end
$var reg 31 m constinf[30:0] $end
$var reg 31 n constnan[30:0] $end
$var reg 31 o expsigr2[30:0] $end
$var reg 1 p signr $end
$var reg 32 q computedr[31:0] $end
$scope module rightshiftercomponent $end
$var reg 26 r x[25:0] $end
$var reg 5 s s[4:0] $end
$var reg 26 t r[25:0] $end
$var reg 1 u sticky $end
$var reg 5 v ps[4:0] $end
$var reg 26 w xpadded[25:0] $end
$var reg 26 x level5[25:0] $end
$var reg 1 y stk4 $end
$var reg 26 z level4[25:0] $end
$var reg 1 { stk3 $end
$var reg 26 | level3[25:0] $end
$var reg 1 } stk2 $end
$var reg 26 !" level2[25:0] $end
$var reg 1 "" stk1 $end
$var reg 26 #" level1[25:0] $end
$var reg 1 $" stk0 $end
$var reg 26 %" level0[25:0] $end
$var reg 1 &" stk $end
$upscope $end
$scope module fracadder $end
$var reg 27 '" x[26:0] $end
$var reg 27 (" y[26:0] $end
$var reg 1 )" cin $end
$var reg 27 *" r[26:0] $end
$var reg 27 +" rtmp[26:0] $end
$upscope $end
$scope module ieeefpadd_8_23_comb_uid2leadingzerocounter $end
$var reg 26 ," i[25:0] $end
$var reg 5 -" o[4:0] $end
$var reg 31 ." level5[30:0] $end
$var reg 1 /" digit4 $end
$var reg 15 0" level4[14:0] $end
$var reg 1 1" digit3 $end
$var reg 7 2" level3[6:0] $end
$var reg 1 3" digit2 $end
$var reg 3 4" level2[2:0] $end
$var reg 2 5" lowbits[1:0] $end
$var reg 3 6" outhighbits[2:0] $end
$upscope $end
$scope module leftshiftercomponent $end
$var reg 27 7" x[26:0] $end
$var reg 5 8" s[4:0] $end
$var reg 53 9" r[52:0] $end
$var reg 5 :" ps[4:0] $end
$var reg 27 ;" level0[26:0] $end
$var reg 28 <" level1[27:0] $end
$var reg 30 =" level2[29:0] $end
$var reg 34 >" level3[33:0] $end
$var reg 42 ?" level4[41:0] $end
$var reg 58 @" level5[57:0] $end
$upscope $end
$scope module roundingadder $end
$var reg 31 A" x[30:0] $end
$var reg 31 B" y[30:0] $end
$var reg 1 C" cin $end
$var reg 31 D" r[30:0] $end
$var reg 31 E" rtmp[30:0] $end
$upscope $end
$upscope $end
$upscope $end
$upscope $end
$enddefinitions $end
#0
b000 !
b00000000000000000000000000000001 "
b00000000000000000000000000000001 #
b00000000000000000000000000000010 $
0%
b000 &
b00000000000000000000000000000001 '
b00000000000000000000000000000001 (
b00000000000000000000000000000010 )
0*
bUUUUUUUUUUUUUUUUUUUUUUUUUUUUUUUUU +
b00000000000000000000000000000000 ,
b00000000000000000000000000000010 -
b00000000000000000000000000000000 .
b00000000000000000000000000000000 /
b00000000000000000000000000000000 0
b00000000000000000000000000000000 1
b00000000000000000000000000000000 2
b0000000000000000000000000000000 3
b0000000000000000000000000000000 4
b000000000 5
b000000000 6
07
b00000000000000000000000000000000 8
b00000000000000000000000000000000 9
b000000000 :
b00000000 ;
b00000000 <
0=
0>
0?
1@
1A
0B
0C
1D
1E
0F
0G
0H
0I
1J
1K
1L
0M
b000000000000000000000000 N
b000000000000000000000000 O
0P
b00000 Q
0R
b00000 S
b00000000000000000000000000 T
b00000000000000000000000000 U
0V
b000000000000000000000000000 W
b000000000000000000000000000 X
0Y
b000000000000000000000000000 Z
0[
0\
b00000000000000000000000000 ]
b11010 ^
b00001 _
b00000000000000000000000000000000000000000000000000000 `
b00000000000000000000000 a
0b
0c
0d
b00000000 e
1f
b00000000 g
b0000000000000000000000000000000 h
0i
b0000000000000000000000000000000 j
1k
0l
b1111111100000000000000000000000 m
b1111111111111111111111111111111 n
b0000000000000000000000000000000 o
0p
b00000000000000000000000000000000 q
b00000000000000000000000000 r
b00000 s
b00000000000000000000000000 t
0u
b00000 v
b00000000000000000000000000 w
b00000000000000000000000000 x
0y
b00000000000000000000000000 z
0{
b00000000000000000000000000 |
0}
b00000000000000000000000000 !"
0""
b00000000000000000000000000 #"
0$"
b00000000000000000000000000 %"
0&"
b000000000000000000000000000 '"
b000000000000000000000000000 ("
0)"
b000000000000000000000000000 *"
b000000000000000000000000000 +"
b00000000000000000000000000 ,"
b11010 -"
b0000000000000000000000000011111 ."
1/"
b000000000011111 0"
11"
b0011111 2"
03"
b001 4"
b10 5"
b110 6"
b000000000000000000000000000 7"
b00001 8"
b00000000000000000000000000000000000000000000000000000 9"
b00001 :"
b000000000000000000000000000 ;"
b0000000000000000000000000000 <"
b000000000000000000000000000000 ="
b0000000000000000000000000000000000 >"
b000000000000000000000000000000000000000000 ?"
b0000000000000000000000000000000000000000000000000000000000 @"
b0000000000000000000000000000000 A"
b0000000000000000000000000000000 B"
0C"
b0000000000000000000000000000000 D"
b0000000000000000000000000000000 E"
#30000000
b00000000000000000000000000000101 "
b11111111111111111111111111111111 #
b00000000000000000000000000000100 $
b00000000000000000000000000000101 '
b11111111111111111111111111111111 (
b00000000000000000000000000000100 )
b00000000000000000000000000000100 -
#60000000
b001 !
b00000000000000000000000000001000 "
b00000000000000000000000000000001 #
b00000000000000000000000000000111 $
b001 &
b00000000000000000000000000001000 '
b00000000000000000000000000000001 (
b00000000000000000000000000000111 )
b00000000000000000000000000000111 -
#90000000
b00000000000000000000000000000000 "
b11111111111111111111111111111111 $
b00000000000000000000000000000000 '
b11111111111111111111111111111111 )
b11111111111111111111111111111111 -
#120000000
b010 !
b00111111100000000000000000000000 "
b00111111100000000000000000000000 #
b01000000000000000000000000000000 $
0%
b010 &
b00111111100000000000000000000000 '
b00111111100000000000000000000000 (
b01000000000000000000000000000000 )
0*
b01000000000000000000000000000000 ,
b01000000000000000000000000000000 -
b00111111100000000000000000000000 .
b00111111100000000000000000000000 /
b00111111100000000000000000000000 0
b00111111100000000000000000000000 1
b01000000000000000000000000000000 2
b0111111100000000000000000000000 3
b0111111100000000000000000000000 4
b00111111100000000000000000000000 8
b00111111100000000000000000000000 9
b01111111 ;
b01111111 <
0@
0A
0J
0K
0L
b100000000000000000000000 N
b100000000000000000000000 O
b10000000000000000000000000 T
b10000000000000000000000000 U
b010000000000000000000000000 W
b010000000000000000000000000 X
b100000000000000000000000000 Z
1[
0\
b10000000000000000000000000 ]
b00000 ^
b00000 _
b00000000000000000000000000100000000000000000000000000 `
b00000000000000000000000 a
b11111111 e
0f
b10000000 g
b1000000000000000000000000000000 h
b1000000000000000000000000000000 j
0k
b1000000000000000000000000000000 o
b01000000000000000000000000000000 q
b10000000000000000000000000 r
b10000000000000000000000000 t
b10000000000000000000000000 w
b10000000000000000000000000 x
b10000000000000000000000000 z
b10000000000000000000000000 |
b10000000000000000000000000 !"
b10000000000000000000000000 #"
b10000000000000000000000000 %"
b010000000000000000000000000 '"
b010000000000000000000000000 ("
b100000000000000000000000000 *"
b100000000000000000000000000 +"
b10000000000000000000000000 ,"
b00000 -"
b1000000000000000000000000011111 ."
0/"
b100000000000000 0"
01"
b1000000 2"
03"
b100 4"
b00 5"
b000 6"
b100000000000000000000000000 7"
b00000 8"
b00000000000000000000000000100000000000000000000000000 9"
b00000 :"
b100000000000000000000000000 ;"
b0100000000000000000000000000 <"
b000100000000000000000000000000 ="
b0000000100000000000000000000000000 >"
b000000000000000100000000000000000000000000 ?"
b0000000000000000000000000000000100000000000000000000000000 @"
b1000000000000000000000000000000 A"
b1000000000000000000000000000000 D"
b1000000000000000000000000000000 E"
#150000000
b01000000100000000000000000000000 "
b01000000100000000000000000000000 #
b01000001000000000000000000000000 $
b01000000100000000000000000000000 '
b01000000100000000000000000000000 (
b01000001000000000000000000000000 )
b01000001000000000000000000000000 ,
b01000001000000000000000000000000 -
b01000000100000000000000000000000 .
b01000000100000000000000000000000 /
b01000000100000000000000000000000 0
b01000000100000000000000000000000 1
b01000001000000000000000000000000 2
b1000000100000000000000000000000 3
b1000000100000000000000000000000 4
b01000000100000000000000000000000 8
b01000000100000000000000000000000 9
b10000001 ;
b10000001 <
b10000010 g
b1000001000000000000000000000000 h
b1000001000000000000000000000000 j
b1000001000000000000000000000000 o
b01000001000000000000000000000000 q
b1000001000000000000000000000000 A"
b1000001000000000000000000000000 D"
b1000001000000000000000000000000 E"
#180000000
b011 !
b01000001000000000000000000000000 "
b01000000000000000000000000000000 #
b01000000110000000000000000000000 $
0%
b011 &
b01000001000000000000000000000000 '
b01000000000000000000000000000000 (
b01000000110000000000000000000000 )
0*
b01000000110000000000000000000000 ,
b01000000110000000000000000000000 -
b01000001000000000000000000000000 .
b11000000000000000000000000000000 /
b01000001000000000000000000000000 0
b11000000000000000000000000000000 1
b01000000110000000000000000000000 2
b1000001000000000000000000000000 3
b1000000000000000000000000000000 4
b000000010 5
b111111110 6
b01000001000000000000000000000000 8
b11000000000000000000000000000000 9
b000000010 :
b10000010 ;
b10000000 <
1>
1?
b00010 Q
b00010 S
b00100000000000000000000000 U
b111011111111111111111111111 W
1Y
b001100000000000000000000000 Z
0[
b00110000000000000000000000 ]
b00010 ^
b00010 _
b00000000000000000000000000110000000000000000000000000 `
b10000000000000000000000 a
b00000001 e
0f
b10000001 g
b1000000110000000000000000000000 h
b1000000110000000000000000000000 j
b1000000110000000000000000000000 o
b01000000110000000000000000000000 q
b00010 s
b00100000000000000000000000 t
b00010 v
b00100000000000000000000000 #"
b00100000000000000000000000 %"
b111011111111111111111111111 ("
1)"
b001100000000000000000000000 *"
b001100000000000000000000000 +"
b00110000000000000000000000 ,"
b00010 -"
b0011000000000000000000000011111 ."
0/"
b001100000000000 0"
01"
b0011000 2"
03"
b001 4"
b10 5"
b000 6"
b001100000000000000000000000 7"
b00010 8"
b00000000000000000000000000110000000000000000000000000 9"
b00010 :"
b001100000000000000000000000 ;"
b0001100000000000000000000000 <"
b000110000000000000000000000000 ="
b0000000110000000000000000000000000 >"
b000000000000000110000000000000000000000000 ?"
b0000000000000000000000000000000110000000000000000000000000 @"
b1000000110000000000000000000000 A"
b1000000110000000000000000000000 D"
b1000000110000000000000000000000 E"
#210000000
b00111111100000000000000000000000 "
b10111111100000000000000000000000 $
b00111111100000000000000000000000 '
b10111111100000000000000000000000 )
b10111111100000000000000000000000 ,
b10111111100000000000000000000000 -
b00111111100000000000000000000000 .
b00111111100000000000000000000000 0
b10111111100000000000000000000000 2
b0111111100000000000000000000000 3
b111111111 5
b000000001 6
17
b11000000000000000000000000000000 8
b00111111100000000000000000000000 9
b000000001 :
b10000000 ;
b01111111 <
1=
0>
0P
b00001 Q
b00001 S
b01000000000000000000000000 U
b110111111111111111111111111 W
b001000000000000000000000000 Z
b00100000000000000000000000 ]
b00000000000000000000000000100000000000000000000000000 `
b00000000000000000000000 a
0b
0c
b01111111 g
b0111111100000000000000000000000 h
0i
b0111111100000000000000000000000 j
b0111111100000000000000000000000 o
1p
b10111111100000000000000000000000 q
b00001 s
b01000000000000000000000000 t
b00001 v
b10000000000000000000000000 z
b10000000000000000000000000 |
b10000000000000000000000000 !"
b10000000000000000000000000 #"
b01000000000000000000000000 %"
b110111111111111111111111111 ("
b001000000000000000000000000 *"
b001000000000000000000000000 +"
b00100000000000000000000000 ,"
b0010000000000000000000000011111 ."
b001000000000000 0"
b0010000 2"
b001000000000000000000000000 7"
b00000000000000000000000000100000000000000000000000000 9"
b001000000000000000000000000 ;"
b0001000000000000000000000000 <"
b000100000000000000000000000000 ="
b0000000100000000000000000000000000 >"
b000000000000000100000000000000000000000000 ?"
b0000000000000000000000000000000100000000000000000000000000 @"
b0111111100000000000000000000000 A"
0C"
b0111111100000000000000000000000 D"
b0111111100000000000000000000000 E"
#240000000
b100 !
b10101010101010101010101010101010 "
b11110000111100001111000011110000 #
b10100000101000001010000010100000 $
b100 &
b10101010101010101010101010101010 '
b11110000111100001111000011110000 (
b10100000101000001010000010100000 )
b00000000000000000000000000000000 ,
b10100000101000001010000010100000 -
b00000000000000000000000000000000 .
b00000000000000000000000000000000 /
b00000000000000000000000000000000 0
b00000000000000000000000000000000 1
b00000000000000000000000000000000 2
b0000000000000000000000000000000 3
b0000000000000000000000000000000 4
b000000000 5
b000000000 6
07
b00000000000000000000000000000000 8
b00000000000000000000000000000000 9
b000000000 :
b00000000 ;
b00000000 <
0=
0?
1@
1A
1J
1K
1L
b000000000000000000000000 N
b000000000000000000000000 O
b00000 Q
b00000 S
b00000000000000000000000000 T
b00000000000000000000000000 U
b000000000000000000000000000 W
b000000000000000000000000000 X
0Y
b000000000000000000000000000 Z
0\
b00000000000000000000000000 ]
b11010 ^
b00001 _
b00000000000000000000000000000000000000000000000000000 `
b00000000000000000000000 a
b00000000 e
1f
b00000000 g
b0000000000000000000000000000000 h
b0000000000000000000000000000000 j
1k
0l
b0000000000000000000000000000000 o
0p
b00000000000000000000000000000000 q
b00000000000000000000000000 r
b00000 s
b00000000000000000000000000 t
b00000 v
b00000000000000000000000000 w
b00000000000000000000000000 x
b00000000000000000000000000 z
b00000000000000000000000000 |
b00000000000000000000000000 !"
b00000000000000000000000000 #"
b00000000000000000000000000 %"
b000000000000000000000000000 '"
b000000000000000000000000000 ("
0)"
b000000000000000000000000000 *"
b000000000000000000000000000 +"
b00000000000000000000000000 ,"
b11010 -"
b0000000000000000000000000011111 ."
1/"
b000000000011111 0"
11"
b0011111 2"
03"
b001 4"
b10 5"
b110 6"
b000000000000000000000000000 7"
b00001 8"
b00000000000000000000000000000000000000000000000000000 9"
b00001 :"
b000000000000000000000000000 ;"
b0000000000000000000000000000 <"
b000000000000000000000000000000 ="
b0000000000000000000000000000000000 >"
b000000000000000000000000000000000000000000 ?"
b0000000000000000000000000000000000000000000000000000000000 @"
b0000000000000000000000000000000 A"
b0000000000000000000000000000000 D"
b0000000000000000000000000000000 E"
#270000000
b101 !
b01010101010101010101010101010101 #
b11111111111111111111111111111111 $
b101 &
b01010101010101010101010101010101 (
b11111111111111111111111111111111 )
b11111111111111111111111111111111 -
