sim/alu.vcd
$date
  Sat Nov  1 23:52:53 2025
$end
$version
  GHDL v0
$end
$timescale
  1 fs
$end
$scope module standard $end
$upscope $end
$scope module std_logic_1164 $end
$upscope $end
$scope module numeric_std $end
$upscope $end
$scope module textio $end
$upscope $end
$scope module std_logic_arith $end
$upscope $end
$scope module std_logic_unsigned $end
$upscope $end
$scope module tb_alu $end
$var reg 1 ! clk $end
$var reg 4 " op_code[3:0] $end
$var reg 32 # a[31:0] $end
$var reg 32 $ b[31:0] $end
$var reg 33 % result[32:0] $end
$var reg 1 & done $end
$scope module uut $end
$var reg 1 ' clk $end
$var reg 4 ( op_code[3:0] $end
$var reg 32 ) a[31:0] $end
$var reg 32 * b[31:0] $end
$var reg 33 + result[32:0] $end
$var reg 1 , done $end
$var reg 33 - int_sum[32:0] $end
$var reg 32 . float_res[31:0] $end
$var reg 33 / int_res[32:0] $end
$var reg 32 0 r_logic[31:0] $end
$var reg 1 1 neg_y $end
$var reg 32 2 fadd_x[31:0] $end
$var reg 32 3 fadd_y[31:0] $end
$var reg 1 4 done_reg $end
$scope module u_intaddsub $end
$var reg 32 5 x[31:0] $end
$var reg 32 6 y[31:0] $end
$var reg 1 7 negy $end
$var reg 33 8 r[32:0] $end
$var reg 33 9 x_int[32:0] $end
$var reg 33 : y_int[32:0] $end
$upscope $end
$scope module u_fadd $end
$var reg 32 ; x[31:0] $end
$var reg 32 < y[31:0] $end
$var reg 32 = r[31:0] $end
$var reg 31 > expfracx[30:0] $end
$var reg 31 ? expfracy[30:0] $end
$var reg 9 @ expxmexpy[8:0] $end
$var reg 9 A expymexpx[8:0] $end
$var reg 1 B swap $end
$var reg 32 C newx[31:0] $end
$var reg 32 D newy[31:0] $end
$var reg 9 E expdiff[8:0] $end
$var reg 8 F expnewx[7:0] $end
$var reg 8 G expnewy[7:0] $end
$var reg 1 H signnewx $end
$var reg 1 I signnewy $end
$var reg 1 J effsub $end
$var reg 1 K xexpfieldzero $end
$var reg 1 L yexpfieldzero $end
$var reg 1 M xexpfieldallones $end
$var reg 1 N yexpfieldallones $end
$var reg 1 O xsigfieldzero $end
$var reg 1 P ysigfieldzero $end
$var reg 1 Q xisnan $end
$var reg 1 R yisnan $end
$var reg 1 S xisinfinity $end
$var reg 1 T yisinfinity $end
$var reg 1 U xiszero $end
$var reg 1 V yiszero $end
$var reg 1 W bothsubnormals $end
$var reg 1 X resultisnan $end
$var reg 24 Y significandnewx[23:0] $end
$var reg 24 Z significandnewy[23:0] $end
$var reg 1 [ allshiftedout $end
$var reg 5 \ rightshiftvalue[4:0] $end
$var reg 1 ] shiftcorrection $end
$var reg 5 ^ finalrightshiftvalue[4:0] $end
$var reg 26 _ significandy00[25:0] $end
$var reg 26 ` shiftedsignificandy[25:0] $end
$var reg 1 a stickylow $end
$var reg 27 b summandy[26:0] $end
$var reg 27 c summandx[26:0] $end
$var reg 1 d carryin $end
$var reg 27 e significandz[26:0] $end
$var reg 1 f z1 $end
$var reg 1 g z0 $end
$var reg 26 h lzczinput[25:0] $end
$var reg 5 i lzc[4:0] $end
$var reg 5 j leftshiftval[4:0] $end
$var reg 53 k normalizedsignificand[52:0] $end
$var reg 23 l significandpreround[22:0] $end
$var reg 1 m lsb $end
$var reg 1 n roundbit $end
$var reg 1 o stickybit $end
$var reg 8 p deltaexp[7:0] $end
$var reg 1 q fullcancellation $end
$var reg 8 r exppreround[7:0] $end
$var reg 31 s expsigpreround[30:0] $end
$var reg 1 t roundupbit $end
$var reg 31 u expsigr[30:0] $end
$var reg 1 v resultiszero $end
$var reg 1 w resultisinf $end
$var reg 31 x constinf[30:0] $end
$var reg 31 y constnan[30:0] $end
$var reg 31 z expsigr2[30:0] $end
$var reg 1 { signr $end
$var reg 32 | computedr[31:0] $end
$scope module rightshiftercomponent $end
$var reg 26 } x[25:0] $end
$var reg 5 !" s[4:0] $end
$var reg 26 "" r[25:0] $end
$var reg 1 #" sticky $end
$var reg 5 $" ps[4:0] $end
$var reg 26 %" xpadded[25:0] $end
$var reg 26 &" level5[25:0] $end
$var reg 1 '" stk4 $end
$var reg 26 (" level4[25:0] $end
$var reg 1 )" stk3 $end
$var reg 26 *" level3[25:0] $end
$var reg 1 +" stk2 $end
$var reg 26 ," level2[25:0] $end
$var reg 1 -" stk1 $end
$var reg 26 ." level1[25:0] $end
$var reg 1 /" stk0 $end
$var reg 26 0" level0[25:0] $end
$var reg 1 1" stk $end
$upscope $end
$scope module fracadder $end
$var reg 27 2" x[26:0] $end
$var reg 27 3" y[26:0] $end
$var reg 1 4" cin $end
$var reg 27 5" r[26:0] $end
$var reg 27 6" rtmp[26:0] $end
$upscope $end
$scope module ieeefpadd_8_23_comb_uid2leadingzerocounter $end
$var reg 26 7" i[25:0] $end
$var reg 5 8" o[4:0] $end
$var reg 31 9" level5[30:0] $end
$var reg 1 :" digit4 $end
$var reg 15 ;" level4[14:0] $end
$var reg 1 <" digit3 $end
$var reg 7 =" level3[6:0] $end
$var reg 1 >" digit2 $end
$var reg 3 ?" level2[2:0] $end
$var reg 2 @" lowbits[1:0] $end
$var reg 3 A" outhighbits[2:0] $end
$upscope $end
$scope module leftshiftercomponent $end
$var reg 27 B" x[26:0] $end
$var reg 5 C" s[4:0] $end
$var reg 53 D" r[52:0] $end
$var reg 5 E" ps[4:0] $end
$var reg 27 F" level0[26:0] $end
$var reg 28 G" level1[27:0] $end
$var reg 30 H" level2[29:0] $end
$var reg 34 I" level3[33:0] $end
$var reg 42 J" level4[41:0] $end
$var reg 58 K" level5[57:0] $end
$upscope $end
$scope module roundingadder $end
$var reg 31 L" x[30:0] $end
$var reg 31 M" y[30:0] $end
$var reg 1 N" cin $end
$var reg 31 O" r[30:0] $end
$var reg 31 P" rtmp[30:0] $end
$upscope $end
$upscope $end
$upscope $end
$upscope $end
$enddefinitions $end
#0
0!
b0000 "
b00000000000000000000000000001010 #
b00000000000000000000000000000011 $
bUUUUUUUUUUUUUUUUUUUUUUUUUUUUUUUUU %
0&
0'
b0000 (
b00000000000000000000000000001010 )
b00000000000000000000000000000011 *
bUUUUUUUUUUUUUUUUUUUUUUUUUUUUUUUUU +
0,
b000000000000000000000000000001101 -
bUXXXXXXXXXXXXXXXXXXXXXXXXXXXXXXX .
bUUUUUUUUUUUUUUUUUUUUUUUUUUUUUUUUU /
bUUUUUUUUUUUUUUUUUUUUUUUUUUUUUUUU 0
U1
bUUUUUUUUUUUUUUUUUUUUUUUUUUUUUUUU 2
bUUUUUUUUUUUUUUUUUUUUUUUUUUUUUUUU 3
04
b00000000000000000000000000001010 5
b00000000000000000000000000000011 6
U7
b000000000000000000000000000001101 8
b000000000000000000000000000001010 9
b000000000000000000000000000000011 :
bUUUUUUUUUUUUUUUUUUUUUUUUUUUUUUUU ;
bUUUUUUUUUUUUUUUUUUUUUUUUUUUUUUUU <
bUXXXXXXXXXXXXXXXXXXXXXXXXXXXXXXX =
bUUUUUUUUUUUUUUUUUUUUUUUUUUUUUUU >
bUUUUUUUUUUUUUUUUUUUUUUUUUUUUUUU ?
bXXXXXXXXX @
bXXXXXXXXX A
1B
bUUUUUUUUUUUUUUUUUUUUUUUUUUUUUUUU C
bUUUUUUUUUUUUUUUUUUUUUUUUUUUUUUUU D
bXXXXXXXXX E
bUUUUUUUU F
bUUUUUUUU G
UH
UI
UJ
0K
0L
0M
0N
0O
0P
0Q
0R
0S
0T
0U
0V
0W
0X
b1UUUUUUUUUUUUUUUUUUUUUUU Y
b1UUUUUUUUUUUUUUUUUUUUUUU Z
0[
bXXXXX \
0]
bXXXXX ^
b1UUUUUUUUUUUUUUUUUUUUUUU00 _
b00000000000000000000000000 `
0a
bUUUUUUUUUUUUUUUUUUUUUUUUUUU b
b01UUUUUUUUUUUUUUUUUUUUUUU00 c
Ud
bXXXXXXXXXXXXXXXXXXXXXXXXXXX e
Xf
Xg
bXXXXXXXXXXXXXXXXXXXXXXXXXX h
b00000 i
b00001 j
b0000000000000000000000000XXXXXXXXXXXXXXXXXXXXXXXXXXX0 k
bXXXXXXXXXXXXXXXXXXXXXXX l
Xm
Xn
Xo
bUUUUUUUU p
0q
bXXXXXXXX r
bXXXXXXXXXXXXXXXXXXXXXXXXXXXXXXX s
0t
bXXXXXXXXXXXXXXXXXXXXXXXXXXXXXXX u
0v
0w
b1111111100000000000000000000000 x
b1111111111111111111111111111111 y
bXXXXXXXXXXXXXXXXXXXXXXXXXXXXXXX z
U{
bUXXXXXXXXXXXXXXXXXXXXXXXXXXXXXXX |
b1UUUUUUUUUUUUUUUUUUUUUUU00 }
bXXXXX !"
b00000000000000000000000000 ""
0#"
bXXXXX $"
b1UUUUUUUUUUUUUUUUUUUUUUU00 %"
b1UUUUUUUUUUUUUUUUUUUUUUU00 &"
0'"
b00000000000000001UUUUUUUUU ("
0)"
b0000000000000000000000001U *"
0+"
b00000000000000000000000000 ,"
0-"
b00000000000000000000000000 ."
0/"
b00000000000000000000000000 0"
01"
b01UUUUUUUUUUUUUUUUUUUUUUU00 2"
bUUUUUUUUUUUUUUUUUUUUUUUUUUU 3"
U4"
bXXXXXXXXXXXXXXXXXXXXXXXXXXX 5"
bXXXXXXXXXXXXXXXXXXXXXXXXXXX 6"
bXXXXXXXXXXXXXXXXXXXXXXXXXX 7"
b00000 8"
bXXXXXXXXXXXXXXXXXXXXXXXXXX11111 9"
0:"
bXXXXXXXXXXXXXXX ;"
0<"
bXXXXXXX ="
0>"
bXXX ?"
b00 @"
b000 A"
bXXXXXXXXXXXXXXXXXXXXXXXXXXX B"
b00001 C"
b0000000000000000000000000XXXXXXXXXXXXXXXXXXXXXXXXXXX0 D"
b00001 E"
bXXXXXXXXXXXXXXXXXXXXXXXXXXX F"
bXXXXXXXXXXXXXXXXXXXXXXXXXXX0 G"
b00XXXXXXXXXXXXXXXXXXXXXXXXXXX0 H"
b000000XXXXXXXXXXXXXXXXXXXXXXXXXXX0 I"
b00000000000000XXXXXXXXXXXXXXXXXXXXXXXXXXX0 J"
b000000000000000000000000000000XXXXXXXXXXXXXXXXXXXXXXXXXXX0 K"
bXXXXXXXXXXXXXXXXXXXXXXXXXXXXXXX L"
b0000000000000000000000000000000 M"
0N"
bXXXXXXXXXXXXXXXXXXXXXXXXXXXXXXX O"
bXXXXXXXXXXXXXXXXXXXXXXXXXXXXXXX P"
#10000000
1!
b000000000000000000000000000001101 %
1&
1'
b000000000000000000000000000001101 +
1,
b00000000000000000000000000000000 .
b000000000000000000000000000001101 /
01
b00000000000000000000000000000000 2
b00000000000000000000000000000000 3
14
07
b00000000000000000000000000000000 ;
b00000000000000000000000000000000 <
b00000000000000000000000000000000 =
b0000000000000000000000000000000 >
b0000000000000000000000000000000 ?
b000000000 @
b000000000 A
0B
b00000000000000000000000000000000 C
b00000000000000000000000000000000 D
b000000000 E
b00000000 F
b00000000 G
0H
0I
0J
1K
1L
1O
1P
1U
1V
1W
b000000000000000000000000 Y
b000000000000000000000000 Z
b00000 \
b00000 ^
b00000000000000000000000000 _
b00000000000000000000000000 `
b000000000000000000000000000 b
b000000000000000000000000000 c
0d
b000000000000000000000000000 e
0f
0g
b00000000000000000000000000 h
b11010 i
b00001 j
b00000000000000000000000000000000000000000000000000000 k
b00000000000000000000000 l
0m
0n
0o
b00000000 p
1q
b00000000 r
b0000000000000000000000000000000 s
b0000000000000000000000000000000 u
1v
b0000000000000000000000000000000 z
0{
b00000000000000000000000000000000 |
b00000000000000000000000000 }
b00000 !"
b00000000000000000000000000 ""
b00000 $"
b00000000000000000000000000 %"
b00000000000000000000000000 &"
b00000000000000000000000000 ("
b00000000000000000000000000 *"
b00000000000000000000000000 ,"
b00000000000000000000000000 ."
b00000000000000000000000000 0"
b000000000000000000000000000 2"
b000000000000000000000000000 3"
04"
b000000000000000000000000000 5"
b000000000000000000000000000 6"
b00000000000000000000000000 7"
b11010 8"
b0000000000000000000000000011111 9"
1:"
b000000000011111 ;"
1<"
b0011111 ="
0>"
b001 ?"
b10 @"
b110 A"
b000000000000000000000000000 B"
b00001 C"
b00000000000000000000000000000000000000000000000000000 D"
b00001 E"
b000000000000000000000000000 F"
b0000000000000000000000000000 G"
b000000000000000000000000000000 H"
b0000000000000000000000000000000000 I"
b000000000000000000000000000000000000000000 J"
b0000000000000000000000000000000000000000000000000000000000 K"
b0000000000000000000000000000000 L"
b0000000000000000000000000000000 O"
b0000000000000000000000000000000 P"
#20000000
0!
0'
#30000000
1!
1'
#40000000
0!
b0001 "
0'
b0001 (
#50000000
1!
1'
b000000000000000000000000000000111 -
11
17
b000000000000000000000000000000111 8
b111111111111111111111111111111101 :
#60000000
0!
0'
#70000000
1!
b000000000000000000000000000000111 %
1'
b000000000000000000000000000000111 +
b000000000000000000000000000000111 /
#80000000
0!
b0100 "
b01000001001000000000000000000000 #
b01000000101000000000000000000000 $
0'
b0100 (
b01000001001000000000000000000000 )
b01000000101000000000000000000000 *
b000000000100000000000000000000000 -
b01000001001000000000000000000000 5
b01000000101000000000000000000000 6
b000000000100000000000000000000000 8
b001000001001000000000000000000000 9
b110111111011000000000000000000000 :
#90000000
1!
bUUUUUUUUUUUUUUUUUUUUUUUUUUUUUUUU0 %
1'
bUUUUUUUUUUUUUUUUUUUUUUUUUUUUUUUU0 +
b010000001110000000000000000000000 -
bUUUUUUUUUUUUUUUUUUUUUUUUUUUUUUUU0 /
b01000000001000000000000000000000 0
01
07
b010000001110000000000000000000000 8
b001000000101000000000000000000000 :
#100000000
0!
0'
#110000000
1!
b010000000010000000000000000000000 %
1'
b010000000010000000000000000000000 +
b010000000010000000000000000000000 /
#120000000
0!
b0101 "
0'
b0101 (
#130000000
1!
1'
b01000001101000000000000000000000 0
#140000000
0!
0'
#150000000
1!
b010000011010000000000000000000000 %
1'
b010000011010000000000000000000000 +
b010000011010000000000000000000000 /
