sim/cpu.vcd
$date
  Mon Dec  8 20:46:35 2025
$end
$version
  GHDL v0
$end
$timescale
  1 fs
$end
$scope module standard $end
$upscope $end
$scope module textio $end
$upscope $end
$scope module std_logic_1164 $end
$upscope $end
$scope module numeric_std $end
$upscope $end
$scope module std_logic_textio $end
$upscope $end
$scope module std_logic_arith $end
$upscope $end
$scope module std_logic_signed $end
$upscope $end
$scope module std_logic_unsigned $end
$upscope $end
$scope module tb_mips32 $end
$var reg 1 ! clk $end
$var reg 1 " reset $end
$var reg 32 # pc_out[31:0] $end
$var reg 32 $ alu_result[31:0] $end
$scope module uut $end
$var reg 1 % clk $end
$var reg 1 & reset $end
$var reg 32 ' pc_out[31:0] $end
$var reg 32 ( alu_result[31:0] $end
$var reg 32 ) pc_current[31:0] $end
$var reg 32 * pc_next[31:0] $end
$var reg 32 + pc_plus4[31:0] $end
$var reg 32 , ifid_instr[31:0] $end
$var reg 32 - ifid_pc_plus4[31:0] $end
$var reg 2 . reg_dst_id[1:0] $end
$var reg 2 / mem_to_reg_id[1:0] $end
$var reg 2 0 alu_op_id[1:0] $end
$var reg 2 1 sign_or_zero_id[1:0] $end
$var reg 1 2 jump_id $end
$var reg 1 3 branch_id $end
$var reg 1 4 mem_read_id $end
$var reg 1 5 mem_write_id $end
$var reg 1 6 alu_src_id $end
$var reg 1 7 reg_write_id $end
$var reg 5 8 reg_read_addr_1_id[4:0] $end
$var reg 5 9 reg_read_addr_2_id[4:0] $end
$var reg 32 : reg_read_data_1_id[31:0] $end
$var reg 32 ; reg_read_data_2_id[31:0] $end
$var reg 32 < sign_ext_im_id[31:0] $end
$var reg 32 = zero_ext_im_id[31:0] $end
$var reg 32 > float_ext_im_id[31:0] $end
$var reg 32 ? imm_ext_id[31:0] $end
$var reg 6 @ funct_id[5:0] $end
$var reg 2 A idex_reg_dst[1:0] $end
$var reg 2 B idex_mem_to_reg[1:0] $end
$var reg 2 C idex_alu_op[1:0] $end
$var reg 2 D idex_sign_or_zero[1:0] $end
$var reg 1 E idex_jump $end
$var reg 1 F idex_branch $end
$var reg 1 G idex_mem_read $end
$var reg 1 H idex_mem_write $end
$var reg 1 I idex_alu_src $end
$var reg 1 J idex_reg_write $end
$var reg 32 K idex_reg_data1[31:0] $end
$var reg 32 L idex_reg_data2[31:0] $end
$var reg 32 M idex_imm[31:0] $end
$var reg 5 N idex_rs[4:0] $end
$var reg 5 O idex_rt[4:0] $end
$var reg 5 P idex_rd[4:0] $end
$var reg 32 Q idex_pc_plus4[31:0] $end
$var reg 6 R idex_funct[5:0] $end
$var reg 32 S idex_instr[31:0] $end
$var reg 6 T alu_cont_ex[5:0] $end
$var reg 32 U read_data2_ex[31:0] $end
$var reg 32 V alu_out_ex[31:0] $end
$var reg 1 W zero_flag_ex $end
$var reg 32 X jump_shift_1_ex[31:0] $end
$var reg 32 Y pc_beq_ex[31:0] $end
$var reg 32 Z pc_4beqj_ex[31:0] $end
$var reg 32 [ pc_jr_ex[31:0] $end
$var reg 1 \ beq_control_ex $end
$var reg 1 ] jrcontrol_ex $end
$var reg 32 ^ instr[31:0] $end
$var reg 2 _ exmem_mem_to_reg[1:0] $end
$var reg 1 ` exmem_mem_read $end
$var reg 1 a exmem_mem_write $end
$var reg 1 b exmem_reg_write $end
$var reg 32 c exmem_alu_out[31:0] $end
$var reg 32 d exmem_write_data[31:0] $end
$var reg 5 e exmem_rd[4:0] $end
$var reg 32 f exmem_pc_plus4[31:0] $end
$var reg 32 g mem_read_data[31:0] $end
$var reg 2 h memwb_mem_to_reg[1:0] $end
$var reg 1 i memwb_reg_write $end
$var reg 32 j memwb_mem_read_data[31:0] $end
$var reg 32 k memwb_alu_out[31:0] $end
$var reg 5 l memwb_rd[4:0] $end
$var reg 32 m memwb_pc_plus4[31:0] $end
$var reg 32 n reg_write_data_wb[31:0] $end
$scope module imem $end
$var reg 1 o clk $end
$var reg 32 p pc[31:0] $end
$var reg 32 q instruction[31:0] $end
$comment mem is not handled $end
$upscope $end
$scope module ctrl $end
$var reg 6 r opcode[5:0] $end
$var reg 1 s reset $end
$var reg 2 t reg_dst[1:0] $end
$var reg 2 u mem_to_reg[1:0] $end
$var reg 2 v alu_op[1:0] $end
$var reg 2 w sign_or_zero[1:0] $end
$var reg 1 x jump $end
$var reg 1 y branch $end
$var reg 1 z mem_read $end
$var reg 1 { mem_write $end
$var reg 1 | alu_src $end
$var reg 1 } reg_write $end
$upscope $end
$scope module regfile $end
$var reg 1 !" clk $end
$var reg 1 "" rst $end
$var reg 1 #" reg_write_en $end
$var reg 5 $" reg_write_dest[4:0] $end
$var reg 32 %" reg_write_data[31:0] $end
$var reg 5 &" reg_read_addr_1[4:0] $end
$var reg 32 '" reg_read_data_1[31:0] $end
$var reg 5 (" reg_read_addr_2[4:0] $end
$var reg 32 )" reg_read_data_2[31:0] $end
$comment reg_array is not handled $end
$upscope $end
$scope module alucontrol_ex $end
$var reg 2 *" op[1:0] $end
$var reg 6 +" funct[5:0] $end
$var reg 6 ," alu_cont[5:0] $end
$var reg 6 -" result[5:0] $end
$upscope $end
$scope module alu_ex $end
$var reg 6 ." alu_cont[5:0] $end
$var reg 32 /" a[31:0] $end
$var reg 32 0" b[31:0] $end
$var reg 32 1" alu_result[31:0] $end
$var reg 1 2" zero $end
$var reg 33 3" int_res[32:0] $end
$var reg 32 4" float_res[31:0] $end
$var reg 32 5" result[31:0] $end
$var reg 32 6" fadd_x[31:0] $end
$var reg 32 7" fadd_y[31:0] $end
$scope module u_fadd $end
$var reg 32 8" x[31:0] $end
$var reg 32 9" y[31:0] $end
$var reg 32 :" r[31:0] $end
$var reg 31 ;" expfracx[30:0] $end
$var reg 31 <" expfracy[30:0] $end
$var reg 9 =" expxmexpy[8:0] $end
$var reg 9 >" expymexpx[8:0] $end
$var reg 1 ?" swap $end
$var reg 32 @" newx[31:0] $end
$var reg 32 A" newy[31:0] $end
$var reg 9 B" expdiff[8:0] $end
$var reg 8 C" expnewx[7:0] $end
$var reg 8 D" expnewy[7:0] $end
$var reg 1 E" signnewx $end
$var reg 1 F" signnewy $end
$var reg 1 G" effsub $end
$var reg 1 H" xexpfieldzero $end
$var reg 1 I" yexpfieldzero $end
$var reg 1 J" xexpfieldallones $end
$var reg 1 K" yexpfieldallones $end
$var reg 1 L" xsigfieldzero $end
$var reg 1 M" ysigfieldzero $end
$var reg 1 N" xisnan $end
$var reg 1 O" yisnan $end
$var reg 1 P" xisinfinity $end
$var reg 1 Q" yisinfinity $end
$var reg 1 R" xiszero $end
$var reg 1 S" yiszero $end
$var reg 1 T" bothsubnormals $end
$var reg 1 U" resultisnan $end
$var reg 24 V" significandnewx[23:0] $end
$var reg 24 W" significandnewy[23:0] $end
$var reg 1 X" allshiftedout $end
$var reg 5 Y" rightshiftvalue[4:0] $end
$var reg 1 Z" shiftcorrection $end
$var reg 5 [" finalrightshiftvalue[4:0] $end
$var reg 26 \" significandy00[25:0] $end
$var reg 26 ]" shiftedsignificandy[25:0] $end
$var reg 1 ^" stickylow $end
$var reg 27 _" summandy[26:0] $end
$var reg 27 `" summandx[26:0] $end
$var reg 1 a" carryin $end
$var reg 27 b" significandz[26:0] $end
$var reg 1 c" z1 $end
$var reg 1 d" z0 $end
$var reg 26 e" lzczinput[25:0] $end
$var reg 5 f" lzc[4:0] $end
$var reg 5 g" leftshiftval[4:0] $end
$var reg 53 h" normalizedsignificand[52:0] $end
$var reg 23 i" significandpreround[22:0] $end
$var reg 1 j" lsb $end
$var reg 1 k" roundbit $end
$var reg 1 l" stickybit $end
$var reg 8 m" deltaexp[7:0] $end
$var reg 1 n" fullcancellation $end
$var reg 8 o" exppreround[7:0] $end
$var reg 31 p" expsigpreround[30:0] $end
$var reg 1 q" roundupbit $end
$var reg 31 r" expsigr[30:0] $end
$var reg 1 s" resultiszero $end
$var reg 1 t" resultisinf $end
$var reg 31 u" constinf[30:0] $end
$var reg 31 v" constnan[30:0] $end
$var reg 31 w" expsigr2[30:0] $end
$var reg 1 x" signr $end
$var reg 32 y" computedr[31:0] $end
$scope module rightshiftercomponent $end
$var reg 26 z" x[25:0] $end
$var reg 5 {" s[4:0] $end
$var reg 26 |" r[25:0] $end
$var reg 1 }" sticky $end
$var reg 5 !# ps[4:0] $end
$var reg 26 "# xpadded[25:0] $end
$var reg 26 ## level5[25:0] $end
$var reg 1 $# stk4 $end
$var reg 26 %# level4[25:0] $end
$var reg 1 &# stk3 $end
$var reg 26 '# level3[25:0] $end
$var reg 1 (# stk2 $end
$var reg 26 )# level2[25:0] $end
$var reg 1 *# stk1 $end
$var reg 26 +# level1[25:0] $end
$var reg 1 ,# stk0 $end
$var reg 26 -# level0[25:0] $end
$var reg 1 .# stk $end
$upscope $end
$scope module fracadder $end
$var reg 27 /# x[26:0] $end
$var reg 27 0# y[26:0] $end
$var reg 1 1# cin $end
$var reg 27 2# r[26:0] $end
$var reg 27 3# rtmp[26:0] $end
$upscope $end
$scope module ieeefpadd_8_23_comb_uid2leadingzerocounter $end
$var reg 26 4# i[25:0] $end
$var reg 5 5# o[4:0] $end
$var reg 31 6# level5[30:0] $end
$var reg 1 7# digit4 $end
$var reg 15 8# level4[14:0] $end
$var reg 1 9# digit3 $end
$var reg 7 :# level3[6:0] $end
$var reg 1 ;# digit2 $end
$var reg 3 <# level2[2:0] $end
$var reg 2 =# lowbits[1:0] $end
$var reg 3 ># outhighbits[2:0] $end
$upscope $end
$scope module leftshiftercomponent $end
$var reg 27 ?# x[26:0] $end
$var reg 5 @# s[4:0] $end
$var reg 53 A# r[52:0] $end
$var reg 5 B# ps[4:0] $end
$var reg 27 C# level0[26:0] $end
$var reg 28 D# level1[27:0] $end
$var reg 30 E# level2[29:0] $end
$var reg 34 F# level3[33:0] $end
$var reg 42 G# level4[41:0] $end
$var reg 58 H# level5[57:0] $end
$upscope $end
$scope module roundingadder $end
$var reg 31 I# x[30:0] $end
$var reg 31 J# y[30:0] $end
$var reg 1 K# cin $end
$var reg 31 L# r[30:0] $end
$var reg 31 M# rtmp[30:0] $end
$upscope $end
$upscope $end
$upscope $end
$scope module dmem $end
$var reg 1 N# clk $end
$var reg 32 O# mem_access_addr[31:0] $end
$var reg 32 P# mem_write_data[31:0] $end
$var reg 1 Q# mem_write_en $end
$var reg 1 R# mem_read $end
$var reg 32 S# mem_read_data[31:0] $end
$var integer 32 T# i $end
$var reg 10 U# ram_addr[9:0] $end
$comment ram is not handled $end
$upscope $end
$upscope $end
$upscope $end
$enddefinitions $end
#0
0!
1"
b00000000000000000000000000000000 #
b00000000000000000000000000000000 $
0%
1&
b00000000000000000000000000000000 '
b00000000000000000000000000000000 (
b00000000000000000000000000000000 )
b00000000000000000000000000000100 *
b00000000000000000000000000000100 +
b00000000000000000000000000000000 ,
b00000000000000000000000000000000 -
b00 .
b00 /
b00 0
b01 1
02
03
04
05
06
07
b00000 8
b00000 9
b00000000000000000000000000000000 :
b00000000000000000000000000000000 ;
b00000000000000000000000000000000 <
b00000000000000000000000000000000 =
b00000000000000000000000000000000 >
b00000000000000000000000000000000 ?
b000000 @
b00 A
b00 B
b00 C
b00 D
0E
0F
0G
0H
0I
0J
b00000000000000000000000000000000 K
b00000000000000000000000000000000 L
b00000000000000000000000000000000 M
b00000 N
b00000 O
b00000 P
b00000000000000000000000000000000 Q
b000000 R
b00000000000000000000000000000000 S
b000000 T
b00000000000000000000000000000000 U
b00000000000000000000000000000000 V
1W
b00000000000000000000000000000000 X
b00000000000000000000000000000000 Y
b00000000000000000000000000000000 Z
b00000000000000000000000000000000 [
0\
U]
b00000000000000000000000000000000 ^
b00 _
0`
0a
0b
b00000000000000000000000000000000 c
b00000000000000000000000000000000 d
b00000 e
b00000000000000000000000000000000 f
b00000000000000000000000000000000 g
b00 h
0i
b00000000000000000000000000000000 j
b00000000000000000000000000000000 k
b00000 l
b00000000000000000000000000000000 m
b00000000000000000000000000000000 n
0o
b00000000000000000000000000000000 p
b00000000000000000000000000000000 q
b000000 r
1s
b00 t
b00 u
b00 v
b01 w
0x
0y
0z
0{
0|
0}
0!"
1""
0#"
b00000 $"
b00000000000000000000000000000000 %"
b00000 &"
b00000000000000000000000000000000 '"
b00000 ("
b00000000000000000000000000000000 )"
b00 *"
b000000 +"
b000000 ,"
b000000 -"
b000000 ."
b00000000000000000000000000000000 /"
b00000000000000000000000000000000 0"
b00000000000000000000000000000000 1"
12"
bUUUUUUUUUUUUUUUUUUUUUUUUUUUUUUUUU 3"
b00000000000000000000000000000000 4"
b00000000000000000000000000000000 5"
b00000000000000000000000000000000 6"
b00000000000000000000000000000000 7"
b00000000000000000000000000000000 8"
b00000000000000000000000000000000 9"
b00000000000000000000000000000000 :"
b0000000000000000000000000000000 ;"
b0000000000000000000000000000000 <"
b000000000 ="
b000000000 >"
0?"
b00000000000000000000000000000000 @"
b00000000000000000000000000000000 A"
b000000000 B"
b00000000 C"
b00000000 D"
0E"
0F"
0G"
1H"
1I"
0J"
0K"
1L"
1M"
0N"
0O"
0P"
0Q"
1R"
1S"
1T"
0U"
b000000000000000000000000 V"
b000000000000000000000000 W"
0X"
b00000 Y"
0Z"
b00000 ["
b00000000000000000000000000 \"
b00000000000000000000000000 ]"
0^"
b000000000000000000000000000 _"
b000000000000000000000000000 `"
0a"
b000000000000000000000000000 b"
0c"
0d"
b00000000000000000000000000 e"
b11010 f"
b00001 g"
b00000000000000000000000000000000000000000000000000000 h"
b00000000000000000000000 i"
0j"
0k"
0l"
b00000000 m"
1n"
b00000000 o"
b0000000000000000000000000000000 p"
0q"
b0000000000000000000000000000000 r"
1s"
0t"
b1111111100000000000000000000000 u"
b1111111111111111111111111111111 v"
b0000000000000000000000000000000 w"
0x"
b00000000000000000000000000000000 y"
b00000000000000000000000000 z"
b00000 {"
b00000000000000000000000000 |"
0}"
b00000 !#
b00000000000000000000000000 "#
b00000000000000000000000000 ##
0$#
b00000000000000000000000000 %#
0&#
b00000000000000000000000000 '#
0(#
b00000000000000000000000000 )#
0*#
b00000000000000000000000000 +#
0,#
b00000000000000000000000000 -#
0.#
b000000000000000000000000000 /#
b000000000000000000000000000 0#
01#
b000000000000000000000000000 2#
b000000000000000000000000000 3#
b00000000000000000000000000 4#
b11010 5#
b0000000000000000000000000011111 6#
17#
b000000000011111 8#
19#
b0011111 :#
0;#
b001 <#
b10 =#
b110 >#
b000000000000000000000000000 ?#
b00001 @#
b00000000000000000000000000000000000000000000000000000 A#
b00001 B#
b000000000000000000000000000 C#
b0000000000000000000000000000 D#
b000000000000000000000000000000 E#
b0000000000000000000000000000000000 F#
b000000000000000000000000000000000000000000 G#
b0000000000000000000000000000000000000000000000000000000000 H#
b0000000000000000000000000000000 I#
b0000000000000000000000000000000 J#
0K#
b0000000000000000000000000000000 L#
b0000000000000000000000000000000 M#
0N#
b00000000000000000000000000000000 O#
b00000000000000000000000000000000 P#
0Q#
0R#
b00000000000000000000000000000000 S#
b10000000000000000000000000000000 T#
b0000000000 U#
#5000000
1!
1%
1o
1!"
1N#
#10000000
0!
0%
0o
0!"
0N#
#15000000
1!
1%
1o
1!"
1N#
#20000000
0!
0"
0%
0&
b01 .
17
0o
0s
b01 t
1}
0!"
0""
0N#
#25000000
1!
b00000000000000000000000000000100 #
1%
b00000000000000000000000000000100 '
b00000000000000000000000000000100 )
b00000000000000000000000000001000 *
b00000000000000000000000000001000 +
b00000000000000000000000000000100 -
b01 A
b01 D
1J
1o
b00000000000000000000000000000100 p
1!"
1N#
#30000000
0!
0%
b10000000001000000000000000001111 ^
0o
b10000000001000000000000000001111 q
0!"
0N#
#35000000
1!
b00000000000000000000000000001000 #
1%
b00000000000000000000000000001000 '
b00000000000000000000000000001000 )
b00000000000000000000000000001100 *
b00000000000000000000000000001100 +
b10000000001000000000000000001111 ,
b00000000000000000000000000001000 -
b00 .
b11 0
16
b00001 8
b00000000000000000000000000001111 <
b00000000000000000000000000001111 =
b00000000000011110000000000000000 >
b00000000000000000000000000001111 ?
b100000 @
b00000000000000000000000000000100 Q
b00000000000000000000000000000100 Y
b00000000000000000000000000000100 Z
b10000000010000000000000000000011 ^
1b
1o
b00000000000000000000000000001000 p
b10000000010000000000000000000011 q
b100000 r
b00 t
b11 v
1|
1!"
b00001 &"
1N#
#40000000
0!
0%
0o
0!"
0N#
#45000000
1!
b00000000000000000000000000001100 #
b00000000000000000000000000001111 $
1%
b00000000000000000000000000001100 '
b00000000000000000000000000001111 (
b00000000000000000000000000001100 )
b00000000000000000000000000010000 *
b00000000000000000000000000010000 +
b10000000010000000000000000000011 ,
b00000000000000000000000000001100 -
b00010 8
b00000000000000000000000000000011 <
b00000000000000000000000000000011 =
b00000000000000110000000000000000 >
b00000000000000000000000000000011 ?
b00 A
b11 C
1I
b00000000000000000000000000001111 M
b00001 N
b00000000000000000000000000001000 Q
b100000 R
b10000000001000000000000000001111 S
b100000 T
b00000000000000000000000000001111 U
b00000000000000000000000000001111 V
0W
b00000000100000000000000000111100 X
b00000000000000000000000000010111 Y
b00000000000000000000000000001000 Z
b00000000001000100001100000100000 ^
b00000000000000000000000000000100 f
1i
1o
b00000000000000000000000000001100 p
b00000000001000100001100000100000 q
1!"
1#"
b00010 &"
b11 *"
b100000 +"
b100000 ,"
b100000 -"
b100000 ."
b00000000000000000000000000001111 0"
b00000000000000000000000000001111 1"
02"
b00000000000000000000000000001111 5"
1N#
#50000000
0!
0%
0o
0!"
0N#
#55000000
1!
b00000000000000000000000000010000 #
b00000000000000000000000000000011 $
1%
b00000000000000000000000000010000 '
b00000000000000000000000000000011 (
b00000000000000000000000000010000 )
b00000000000000000000000000010100 *
b00000000000000000000000000010100 +
b00000000001000100001100000100000 ,
b00000000000000000000000000010000 -
b01 .
b00 0
06
b00001 8
b00010 9
b00000000000000000001100000100000 <
b00000000000000000001100000100000 =
b00011000001000000000000000000000 >
b00000000000000000001100000100000 ?
b100000 @
b00000000000000000000000000000011 M
b00010 N
b00000000000000000000000000001100 Q
b10000000010000000000000000000011 S
b00000000000000000000000000000011 U
b00000000000000000000000000000011 V
b00000001000000000000000000001100 X
b00000000000000000000000000001111 Y
b00000000000000000000000000001100 Z
b00000000001000100001100000100010 ^
b00000000000000000000000000001111 c
b00001 e
b00000000000000000000000000001000 f
b00000000000000000000000000000100 m
1o
b00000000000000000000000000010000 p
b00000000001000100001100000100010 q
b000000 r
b01 t
b00 v
0|
1!"
b00001 &"
b00010 ("
b00000000000000000000000000000011 0"
b00000000000000000000000000000011 1"
b00000000000000000000000000000011 5"
1N#
b00000000000000000000000000001111 O#
b0000000011 U#
#60000000
0!
0%
0o
0!"
0N#
#65000000
1!
b00000000000000000000000000010100 #
b00000000000000000000000000000000 $
1%
b00000000000000000000000000010100 '
b00000000000000000000000000000000 (
b00000000000000000000000000010100 )
b00000000000000000000000000011000 *
b00000000000000000000000000011000 +
b00000000001000100001100000100010 ,
b00000000000000000000000000010100 -
b00000000000000000001100000100010 <
b00000000000000000001100000100010 =
b00011000001000100000000000000000 >
b00000000000000000001100000100010 ?
b100010 @
b01 A
b00 C
0I
b00000000000000000001100000100000 M
b00001 N
b00010 O
b00011 P
b00000000000000000000000000010000 Q
b00000000001000100001100000100000 S
b00000000000000000000000000000000 U
b00000000000000000000000000000000 V
1W
b00000000100010000110000010000000 X
b00000000000000000001100000110000 Y
b00000000000000000000000000010000 Z
b10000100101000000011111111000000 ^
b00000000000000000000000000000011 c
b00010 e
b00000000000000000000000000001100 f
b00000000000000000000000000001111 k
b00001 l
b00000000000000000000000000001000 m
b00000000000000000000000000001111 n
1o
b00000000000000000000000000010100 p
b10000100101000000011111111000000 q
1!"
b00001 $"
b00000000000000000000000000001111 %"
b00 *"
b00000000000000000000000000000000 0"
b00000000000000000000000000000000 1"
12"
b00000000000000000000000000000000 5"
1N#
b00000000000000000000000000000011 O#
b0000000000 U#
#70000000
0!
0%
0o
0!"
0N#
#75000000
1!
b00000000000000000000000000011000 #
1%
b00000000000000000000000000011000 '
b00000000000000000000000000011000 )
b00000000000000000000000000011100 *
b00000000000000000000000000011100 +
b10000100101000000011111111000000 ,
b00000000000000000000000000011000 -
b00 .
b11 0
b10 1
16
b00101 8
b00000 9
b00000000000000000000000000000000 :
b00000000000000000011111111000000 <
b00000000000000000011111111000000 =
b00111111110000000000000000000000 >
b00111111110000000000000000000000 ?
b100001 @
b00000000000000000001100000100010 M
b00000000000000000000000000010100 Q
b100010 R
b00000000001000100001100000100010 S
b100010 T
b00000000100010000110000010001000 X
b00000000000000000001100000110110 Y
b00000000000000000000000000010100 Z
b10001100110000000011111111000000 ^
b00000000000000000000000000000000 c
b00011 e
b00000000000000000000000000010000 f
b00000000000000000000000000000011 k
b00010 l
b00000000000000000000000000001100 m
b00000000000000000000000000000011 n
1o
b00000000000000000000000000011000 p
b10001100110000000011111111000000 q
b100001 r
b00 t
b11 v
b10 w
1|
1!"
b00010 $"
b00000000000000000000000000000011 %"
b00101 &"
b00000000000000000000000000000000 '"
b00000 ("
b100010 +"
b100010 ,"
b100010 -"
b100010 ."
1N#
b00000000000000000000000000000000 O#
#80000000
0!
0%
0o
0!"
0N#
#85000000
1!
b00000000000000000000000000011100 #
b00111111110000000000000000000000 $
1%
b00000000000000000000000000011100 '
b00111111110000000000000000000000 (
b00000000000000000000000000011100 )
b00000000000000000000000000100000 *
b00000000000000000000000000100000 +
b10001100110000000011111111000000 ,
b00000000000000000000000000011100 -
b00110 8
b100011 @
b00 A
b11 C
b10 D
1I
b00111111110000000000000000000000 M
b00101 N
b00000 O
b00111 P
b00000000000000000000000000011000 Q
b100001 R
b10000100101000000011111111000000 S
b100001 T
b00111111110000000000000000000000 U
b00111111110000000000000000000000 V
0W
b00000010100000001111111100000000 X
b00111111110000000000000000011000 Y
b00000000000000000000000000011000 Z
b00000000110001010011100000100011 ^
b00000000000000000000000000010100 f
b00000000000000000000000000000000 k
b00011 l
b00000000000000000000000000010000 m
b00000000000000000000000000000000 n
1o
b00000000000000000000000000011100 p
b00000000110001010011100000100011 q
b100011 r
1!"
b00011 $"
b00000000000000000000000000000000 %"
b00110 &"
b11 *"
b100001 +"
b100001 ,"
b100001 -"
b100001 ."
b00111111110000000000000000000000 0"
b00111111110000000000000000000000 1"
02"
b00111111110000000000000000000000 4"
b00111111110000000000000000000000 5"
b00111111110000000000000000000000 7"
b00111111110000000000000000000000 9"
b00111111110000000000000000000000 :"
b0111111110000000000000000000000 <"
b110000001 ="
b001111111 >"
1?"
b00111111110000000000000000000000 @"
b00000000000000000000000000000000 A"
b001111111 B"
b01111111 C"
b00000000 D"
0H"
1I"
0L"
1M"
0R"
1S"
0T"
b110000000000000000000000 V"
b000000000000000000000000 W"
1X"
b11010 Y"
1Z"
b11001 ["
b00000000000000000000000000 \"
b00000000000000000000000000 ]"
0^"
b000000000000000000000000000 _"
b011000000000000000000000000 `"
b011000000000000000000000000 b"
1d"
b01100000000000000000000000 e"
b00001 f"
b00001 g"
b00000000000000000000000000110000000000000000000000000 h"
b10000000000000000000000 i"
0l"
b00000000 m"
0n"
b01111111 o"
b0111111110000000000000000000000 p"
b0111111110000000000000000000000 r"
0s"
b0111111110000000000000000000000 w"
b00111111110000000000000000000000 y"
b00000000000000000000000000 z"
b11001 {"
b00000000000000000000000000 |"
0}"
b11001 !#
b00000000000000000000000000 "#
b00000000000000000000000000 ##
b00000000000000000000000000 %#
b00000000000000000000000000 '#
b00000000000000000000000000 )#
b00000000000000000000000000 +#
0,#
b00000000000000000000000000 -#
0.#
b011000000000000000000000000 /#
b000000000000000000000000000 0#
b011000000000000000000000000 2#
b011000000000000000000000000 3#
b01100000000000000000000000 4#
b00001 5#
b0110000000000000000000000011111 6#
07#
b011000000000000 8#
09#
b0110000 :#
0;#
b011 <#
b01 =#
b000 >#
b011000000000000000000000000 ?#
b00001 @#
b00000000000000000000000000110000000000000000000000000 A#
b00001 B#
b011000000000000000000000000 C#
b0110000000000000000000000000 D#
b000110000000000000000000000000 E#
b0000000110000000000000000000000000 F#
b000000000000000110000000000000000000000000 G#
b0000000000000000000000000000000110000000000000000000000000 H#
b0111111110000000000000000000000 I#
b0111111110000000000000000000000 L#
b0111111110000000000000000000000 M#
1N#
#90000000
0!
0%
0o
0!"
0N#
#95000000
1!
b00000000000000000000000000100000 #
b10111111110000000000000000000000 $
1%
b00000000000000000000000000100000 '
b10111111110000000000000000000000 (
b00000000000000000000000000100000 )
b00000000000000000000000000100100 *
b00000000000000000000000000100100 +
b00000000110001010011100000100011 ,
b00000000000000000000000000100000 -
b01 .
b00 0
b01 1
06
b00101 9
b00000000000000000011100000100011 <
b00000000000000000011100000100011 =
b00111000001000110000000000000000 >
b00000000000000000011100000100011 ?
b100011 @
b00110 N
b00000000000000000000000000011100 Q
b100011 R
b10001100110000000011111111000000 S
b100011 T
b10111111110000000000000000000000 V
b00000011000000001111111100000000 X
b00111111110000000000000000011100 Y
b00000000000000000000000000011100 Z
b00000000101001100011100000100011 ^
b00111111110000000000000000000000 c
b00101 e
b00000000000000000000000000011000 f
b00000000000000000000000000010100 m
1o
b00000000000000000000000000100000 p
b00000000101001100011100000100011 q
b000000 r
b01 t
b00 v
b01 w
0|
1!"
b00101 ("
b100011 +"
b100011 ,"
b100011 -"
b100011 ."
b10111111110000000000000000000000 1"
b10111111110000000000000000000000 4"
b10111111110000000000000000000000 5"
b10111111110000000000000000000000 7"
b10111111110000000000000000000000 9"
b10111111110000000000000000000000 :"
b10111111110000000000000000000000 @"
1E"
1G"
b111111111111111111111111111 _"
1a"
1x"
b10111111110000000000000000000000 y"
b111111111111111111111111111 0#
11#
1N#
b00111111110000000000000000000000 O#
#100000000
0!
0%
0o
0!"
0N#
#105000000
1!
b00000000000000000000000000100100 #
b00000000000000000000000000000000 $
1%
b00000000000000000000000000100100 '
b00000000000000000000000000000000 (
b00000000000000000000000000100100 )
b00000000000000000000000000101000 *
b00000000000000000000000000101000 +
b00000000101001100011100000100011 ,
b00000000000000000000000000100100 -
b00101 8
b00110 9
b01 A
b00 C
b01 D
0I
b00000000000000000011100000100011 M
b00101 O
b00000000000000000000000000100000 Q
b00000000110001010011100000100011 S
b00000000000000000000000000000000 U
b00000000000000000000000000000000 V
1W
b00000011000101001110000010001100 X
b00000000000000000011100001000011 Y
b00000000000000000000000000100000 Z
b00000000001000100001100000100100 ^
b10111111110000000000000000000000 c
b00110 e
b00000000000000000000000000011100 f
b00111111110000000000000000000000 k
b00101 l
b00000000000000000000000000011000 m
b00111111110000000000000000000000 n
1o
b00000000000000000000000000100100 p
b00000000001000100001100000100100 q
1!"
b00101 $"
b00111111110000000000000000000000 %"
b00101 &"
b00110 ("
b00 *"
b00000000000000000000000000000000 0"
b00000000000000000000000000000000 1"
12"
b00000000000000000000000000000000 4"
b00000000000000000000000000000000 5"
b10000000000000000000000000000000 7"
b10000000000000000000000000000000 9"
b00000000000000000000000000000000 :"
b0000000000000000000000000000000 <"
b000000000 ="
b000000000 >"
0?"
b00000000000000000000000000000000 @"
b10000000000000000000000000000000 A"
b000000000 B"
b00000000 C"
0E"
1F"
1H"
1L"
1R"
1T"
b000000000000000000000000 V"
0X"
b00000 Y"
0Z"
b00000 ["
b000000000000000000000000000 `"
b000000000000000000000000000 b"
0d"
b00000000000000000000000000 e"
b11010 f"
b00001 g"
b00000000000000000000000000000000000000000000000000000 h"
b00000000000000000000000 i"
b00000000 m"
1n"
b00000000 o"
b0000000000000000000000000000000 p"
b0000000000000000000000000000000 r"
1s"
b0000000000000000000000000000000 w"
0x"
b00000000000000000000000000000000 y"
b00000 {"
b00000 !#
b000000000000000000000000000 /#
b000000000000000000000000000 2#
b000000000000000000000000000 3#
b00000000000000000000000000 4#
b11010 5#
b0000000000000000000000000011111 6#
17#
b000000000011111 8#
19#
b0011111 :#
0;#
b001 <#
b10 =#
b110 >#
b000000000000000000000000000 ?#
b00001 @#
b00000000000000000000000000000000000000000000000000000 A#
b00001 B#
b000000000000000000000000000 C#
b0000000000000000000000000000 D#
b000000000000000000000000000000 E#
b0000000000000000000000000000000000 F#
b000000000000000000000000000000000000000000 G#
b0000000000000000000000000000000000000000000000000000000000 H#
b0000000000000000000000000000000 I#
b0000000000000000000000000000000 L#
b0000000000000000000000000000000 M#
1N#
b10111111110000000000000000000000 O#
#110000000
0!
0%
0o
0!"
0N#
#115000000
1!
b00000000000000000000000000101000 #
1%
b00000000000000000000000000101000 '
b00000000000000000000000000101000 )
b00000000000000000000000000101100 *
b00000000000000000000000000101100 +
b00000000001000100001100000100100 ,
b00000000000000000000000000101000 -
b00001 8
b00010 9
b00000000000000000000000000001111 :
b00000000000000000000000000000011 ;
b00000000000000000001100000100100 <
b00000000000000000001100000100100 =
b00011000001001000000000000000000 >
b00000000000000000001100000100100 ?
b100100 @
b00101 N
b00110 O
b00000000000000000000000000100100 Q
b00000000101001100011100000100011 S
b00000010100110001110000010001100 X
b00000000000000000011100001000111 Y
b00000000000000000000000000100100 Z
b00000000001000100001100000100101 ^
b00000000000000000000000000000000 c
b00111 e
b00000000000000000000000000100000 f
b10111111110000000000000000000000 k
b00110 l
b00000000000000000000000000011100 m
b10111111110000000000000000000000 n
1o
b00000000000000000000000000101000 p
b00000000001000100001100000100101 q
1!"
b00110 $"
b10111111110000000000000000000000 %"
b00001 &"
b00000000000000000000000000001111 '"
b00010 ("
b00000000000000000000000000000011 )"
1N#
b00000000000000000000000000000000 O#
#120000000
0!
0%
0o
0!"
0N#
