sim/cpu.vcd
$date
  Mon Dec  8 23:21:36 2025
$end
$version
  GHDL v0
$end
$timescale
  1 fs
$end
$scope module standard $end
$upscope $end
$scope module textio $end
$upscope $end
$scope module std_logic_1164 $end
$upscope $end
$scope module numeric_std $end
$upscope $end
$scope module std_logic_textio $end
$upscope $end
$scope module std_logic_arith $end
$upscope $end
$scope module std_logic_signed $end
$upscope $end
$scope module std_logic_unsigned $end
$upscope $end
$scope module tb_mips32 $end
$var reg 1 ! clk $end
$var reg 1 " reset $end
$var reg 32 # pc_out[31:0] $end
$var reg 32 $ alu_result[31:0] $end
$scope module uut $end
$var reg 1 % clk $end
$var reg 1 & reset $end
$var reg 32 ' pc_out[31:0] $end
$var reg 32 ( alu_result[31:0] $end
$var reg 1 ) stall_from_cache $end
$var reg 32 * instruction_wire[31:0] $end
$var reg 32 + pc_current[31:0] $end
$var reg 32 , pc_next[31:0] $end
$var reg 32 - pc_plus4_if[31:0] $end
$var reg 32 . instr_if[31:0] $end
$var reg 32 / if_id_pc_plus4[31:0] $end
$var reg 32 0 if_id_instr[31:0] $end
$var reg 2 1 reg_dst[1:0] $end
$var reg 2 2 mem_to_reg[1:0] $end
$var reg 2 3 alu_op[1:0] $end
$var reg 2 4 sign_or_zero[1:0] $end
$var reg 1 5 jump $end
$var reg 1 6 branch $end
$var reg 1 7 mem_read $end
$var reg 1 8 mem_write $end
$var reg 1 9 alu_src $end
$var reg 1 : reg_write $end
$var reg 32 ; reg_read_data_1[31:0] $end
$var reg 32 < reg_read_data_2[31:0] $end
$var reg 32 = sign_ext_im[31:0] $end
$var reg 32 > zero_ext_im[31:0] $end
$var reg 32 ? float_ext_im[31:0] $end
$var reg 32 @ imm_ext_id[31:0] $end
$var reg 1 A wb_reg_write_id $end
$var reg 2 B wb_mem_to_reg_id[1:0] $end
$var reg 1 C m_mem_read_id $end
$var reg 1 D m_mem_write_id $end
$var reg 1 E m_branch_id $end
$var reg 1 F ex_alu_src_id $end
$var reg 2 G ex_reg_dst_id[1:0] $end
$var reg 2 H ex_alu_op_id[1:0] $end
$var reg 32 I id_ex_pc_plus4[31:0] $end
$var reg 32 J id_ex_read_data_1[31:0] $end
$var reg 32 K id_ex_read_data_2[31:0] $end
$var reg 32 L id_ex_imm_ext[31:0] $end
$var reg 5 M id_ex_instr_25_21[4:0] $end
$var reg 5 N id_ex_instr_20_16[4:0] $end
$var reg 5 O id_ex_instr_15_11[4:0] $end
$var reg 6 P id_ex_funct[5:0] $end
$var reg 1 Q id_ex_wb_reg_write $end
$var reg 2 R id_ex_wb_mem_to_reg[1:0] $end
$var reg 1 S id_ex_m_mem_read $end
$var reg 1 T id_ex_m_mem_write $end
$var reg 1 U id_ex_m_branch $end
$var reg 1 V id_ex_ex_alu_src $end
$var reg 2 W id_ex_ex_reg_dst[1:0] $end
$var reg 2 X id_ex_ex_alu_op[1:0] $end
$var reg 6 Y alu_cont_ex[5:0] $end
$var reg 32 Z alu_in_b_ex[31:0] $end
$var reg 32 [ alu_result_ex[31:0] $end
$var reg 1 \ zero_flag_ex $end
$var reg 5 ] reg_write_dest_ex[4:0] $end
$var reg 32 ^ branch_target_ex[31:0] $end
$var reg 2 _ forwarda[1:0] $end
$var reg 2 ` forwardb[1:0] $end
$var reg 32 a alu_src_a_mux[31:0] $end
$var reg 32 b alu_src_b_mux[31:0] $end
$var reg 32 c ex_mem_alu_result[31:0] $end
$var reg 32 d ex_mem_write_data[31:0] $end
$var reg 5 e ex_mem_reg_dest[4:0] $end
$var reg 1 f ex_mem_zero $end
$var reg 32 g ex_mem_branch_target[31:0] $end
$var reg 1 h ex_mem_wb_reg_write $end
$var reg 2 i ex_mem_wb_mem_to_reg[1:0] $end
$var reg 1 j ex_mem_m_mem_read $end
$var reg 1 k ex_mem_m_mem_write $end
$var reg 1 l ex_mem_m_branch $end
$var reg 32 m mem_read_data_mem[31:0] $end
$var reg 1 n pc_src_mem $end
$var reg 32 o mem_wb_read_data[31:0] $end
$var reg 32 p mem_wb_alu_result[31:0] $end
$var reg 5 q mem_wb_reg_dest[4:0] $end
$var reg 1 r mem_wb_wb_reg_write $end
$var reg 2 s mem_wb_wb_mem_to_reg[1:0] $end
$var reg 32 t write_back_data_wb[31:0] $end
$scope module icache $end
$var reg 1 u clk $end
$var reg 1 v reset $end
$var reg 32 w pc[31:0] $end
$var reg 32 x instruction[31:0] $end
$var reg 1 y cpu_stall $end
$comment tags is not handled $end
$var reg 64 z valid[0:63] $end
$comment cache_data is not handled $end
$comment main_memory is not handled $end
$comment state is not handled $end
$var integer 32 { wait_counter $end
$upscope $end
$scope module ctrl $end
$var reg 6 | opcode[5:0] $end
$var reg 1 } reset $end
$var reg 2 !" reg_dst[1:0] $end
$var reg 2 "" mem_to_reg[1:0] $end
$var reg 2 #" alu_op[1:0] $end
$var reg 2 $" sign_or_zero[1:0] $end
$var reg 1 %" jump $end
$var reg 1 &" branch $end
$var reg 1 '" mem_read $end
$var reg 1 (" mem_write $end
$var reg 1 )" alu_src $end
$var reg 1 *" reg_write $end
$upscope $end
$scope module regfile $end
$var reg 1 +" clk $end
$var reg 1 ," rst $end
$var reg 1 -" reg_write_en $end
$var reg 5 ." reg_write_dest[4:0] $end
$var reg 32 /" reg_write_data[31:0] $end
$var reg 5 0" reg_read_addr_1[4:0] $end
$var reg 32 1" reg_read_data_1[31:0] $end
$var reg 5 2" reg_read_addr_2[4:0] $end
$var reg 32 3" reg_read_data_2[31:0] $end
$comment reg_array is not handled $end
$upscope $end
$scope module fw_unit $end
$var reg 5 4" id_ex_rs[4:0] $end
$var reg 5 5" id_ex_rt[4:0] $end
$var reg 5 6" ex_mem_rd[4:0] $end
$var reg 5 7" mem_wb_rd[4:0] $end
$var reg 1 8" ex_mem_regwrite $end
$var reg 1 9" mem_wb_regwrite $end
$var reg 2 :" forwarda[1:0] $end
$var reg 2 ;" forwardb[1:0] $end
$upscope $end
$scope module alucontrol $end
$var reg 2 <" op[1:0] $end
$var reg 6 =" funct[5:0] $end
$var reg 6 >" alu_cont[5:0] $end
$var reg 6 ?" result[5:0] $end
$upscope $end
$scope module alu $end
$var reg 6 @" alu_cont[5:0] $end
$var reg 32 A" a[31:0] $end
$var reg 32 B" b[31:0] $end
$var reg 32 C" alu_result[31:0] $end
$var reg 1 D" zero $end
$var reg 33 E" int_res[32:0] $end
$var reg 32 F" float_res[31:0] $end
$var reg 32 G" result[31:0] $end
$var reg 32 H" fadd_x[31:0] $end
$var reg 32 I" fadd_y[31:0] $end
$scope module u_fadd $end
$var reg 32 J" x[31:0] $end
$var reg 32 K" y[31:0] $end
$var reg 32 L" r[31:0] $end
$var reg 31 M" expfracx[30:0] $end
$var reg 31 N" expfracy[30:0] $end
$var reg 9 O" expxmexpy[8:0] $end
$var reg 9 P" expymexpx[8:0] $end
$var reg 1 Q" swap $end
$var reg 32 R" newx[31:0] $end
$var reg 32 S" newy[31:0] $end
$var reg 9 T" expdiff[8:0] $end
$var reg 8 U" expnewx[7:0] $end
$var reg 8 V" expnewy[7:0] $end
$var reg 1 W" signnewx $end
$var reg 1 X" signnewy $end
$var reg 1 Y" effsub $end
$var reg 1 Z" xexpfieldzero $end
$var reg 1 [" yexpfieldzero $end
$var reg 1 \" xexpfieldallones $end
$var reg 1 ]" yexpfieldallones $end
$var reg 1 ^" xsigfieldzero $end
$var reg 1 _" ysigfieldzero $end
$var reg 1 `" xisnan $end
$var reg 1 a" yisnan $end
$var reg 1 b" xisinfinity $end
$var reg 1 c" yisinfinity $end
$var reg 1 d" xiszero $end
$var reg 1 e" yiszero $end
$var reg 1 f" bothsubnormals $end
$var reg 1 g" resultisnan $end
$var reg 24 h" significandnewx[23:0] $end
$var reg 24 i" significandnewy[23:0] $end
$var reg 1 j" allshiftedout $end
$var reg 5 k" rightshiftvalue[4:0] $end
$var reg 1 l" shiftcorrection $end
$var reg 5 m" finalrightshiftvalue[4:0] $end
$var reg 26 n" significandy00[25:0] $end
$var reg 26 o" shiftedsignificandy[25:0] $end
$var reg 1 p" stickylow $end
$var reg 27 q" summandy[26:0] $end
$var reg 27 r" summandx[26:0] $end
$var reg 1 s" carryin $end
$var reg 27 t" significandz[26:0] $end
$var reg 1 u" z1 $end
$var reg 1 v" z0 $end
$var reg 26 w" lzczinput[25:0] $end
$var reg 5 x" lzc[4:0] $end
$var reg 5 y" leftshiftval[4:0] $end
$var reg 53 z" normalizedsignificand[52:0] $end
$var reg 23 {" significandpreround[22:0] $end
$var reg 1 |" lsb $end
$var reg 1 }" roundbit $end
$var reg 1 !# stickybit $end
$var reg 8 "# deltaexp[7:0] $end
$var reg 1 ## fullcancellation $end
$var reg 8 $# exppreround[7:0] $end
$var reg 31 %# expsigpreround[30:0] $end
$var reg 1 &# roundupbit $end
$var reg 31 '# expsigr[30:0] $end
$var reg 1 (# resultiszero $end
$var reg 1 )# resultisinf $end
$var reg 31 *# constinf[30:0] $end
$var reg 31 +# constnan[30:0] $end
$var reg 31 ,# expsigr2[30:0] $end
$var reg 1 -# signr $end
$var reg 32 .# computedr[31:0] $end
$scope module rightshiftercomponent $end
$var reg 26 /# x[25:0] $end
$var reg 5 0# s[4:0] $end
$var reg 26 1# r[25:0] $end
$var reg 1 2# sticky $end
$var reg 5 3# ps[4:0] $end
$var reg 26 4# xpadded[25:0] $end
$var reg 26 5# level5[25:0] $end
$var reg 1 6# stk4 $end
$var reg 26 7# level4[25:0] $end
$var reg 1 8# stk3 $end
$var reg 26 9# level3[25:0] $end
$var reg 1 :# stk2 $end
$var reg 26 ;# level2[25:0] $end
$var reg 1 <# stk1 $end
$var reg 26 =# level1[25:0] $end
$var reg 1 ># stk0 $end
$var reg 26 ?# level0[25:0] $end
$var reg 1 @# stk $end
$upscope $end
$scope module fracadder $end
$var reg 27 A# x[26:0] $end
$var reg 27 B# y[26:0] $end
$var reg 1 C# cin $end
$var reg 27 D# r[26:0] $end
$var reg 27 E# rtmp[26:0] $end
$upscope $end
$scope module ieeefpadd_8_23_comb_uid2leadingzerocounter $end
$var reg 26 F# i[25:0] $end
$var reg 5 G# o[4:0] $end
$var reg 31 H# level5[30:0] $end
$var reg 1 I# digit4 $end
$var reg 15 J# level4[14:0] $end
$var reg 1 K# digit3 $end
$var reg 7 L# level3[6:0] $end
$var reg 1 M# digit2 $end
$var reg 3 N# level2[2:0] $end
$var reg 2 O# lowbits[1:0] $end
$var reg 3 P# outhighbits[2:0] $end
$upscope $end
$scope module leftshiftercomponent $end
$var reg 27 Q# x[26:0] $end
$var reg 5 R# s[4:0] $end
$var reg 53 S# r[52:0] $end
$var reg 5 T# ps[4:0] $end
$var reg 27 U# level0[26:0] $end
$var reg 28 V# level1[27:0] $end
$var reg 30 W# level2[29:0] $end
$var reg 34 X# level3[33:0] $end
$var reg 42 Y# level4[41:0] $end
$var reg 58 Z# level5[57:0] $end
$upscope $end
$scope module roundingadder $end
$var reg 31 [# x[30:0] $end
$var reg 31 \# y[30:0] $end
$var reg 1 ]# cin $end
$var reg 31 ^# r[30:0] $end
$var reg 31 _# rtmp[30:0] $end
$upscope $end
$upscope $end
$upscope $end
$scope module dmem $end
$var reg 1 `# clk $end
$var reg 32 a# mem_access_addr[31:0] $end
$var reg 32 b# mem_write_data[31:0] $end
$var reg 1 c# mem_write_en $end
$var reg 1 d# mem_read $end
$var reg 32 e# mem_read_data[31:0] $end
$var integer 32 f# i $end
$var reg 10 g# ram_addr[9:0] $end
$comment ram is not handled $end
$upscope $end
$upscope $end
$upscope $end
$enddefinitions $end
#0
0!
1"
b00000000000000000000000000000000 #
bUUUUUUUUUUUUUUUUUUUUUUUUUUUUUUUU $
0%
1&
b00000000000000000000000000000000 '
bUUUUUUUUUUUUUUUUUUUUUUUUUUUUUUUU (
0)
b00000000000000000000000000000000 *
b00000000000000000000000000000000 +
bUUUUUUUUUUUUUUUUUUUUUUUUUUUUUUUU ,
b00000000000000000000000000000100 -
b00000000000000000000000000000000 .
b00000000000000000000000000000000 /
b00000000000000000000000000000000 0
b00 1
b00 2
b00 3
b01 4
05
06
07
08
09
0:
b00000000000000000000000000000000 ;
b00000000000000000000000000000000 <
b00000000000000000000000000000000 =
b00000000000000000000000000000000 >
b00000000000000000000000000000000 ?
b00000000000000000000000000000000 @
0A
b00 B
0C
0D
0E
0F
b00 G
b00 H
bUUUUUUUUUUUUUUUUUUUUUUUUUUUUUUUU I
bUUUUUUUUUUUUUUUUUUUUUUUUUUUUUUUU J
bUUUUUUUUUUUUUUUUUUUUUUUUUUUUUUUU K
bUUUUUUUUUUUUUUUUUUUUUUUUUUUUUUUU L
bUUUUU M
bUUUUU N
bUUUUU O
bUUUUUU P
0Q
bUU R
US
0T
0U
UV
bUU W
bUU X
b100000 Y
bUUUUUUUUUUUUUUUUUUUUUUUUUUUUUUUU Z
bXXXXXXXXXXXXXXXXXXXXXXXXXXXXXXXX [
0\
bUUUUU ]
bXXXXXXXXXXXXXXXXXXXXXXXXXXXXXXXX ^
b00 _
b00 `
bUUUUUUUUUUUUUUUUUUUUUUUUUUUUUUUU a
bUUUUUUUUUUUUUUUUUUUUUUUUUUUUUUUU b
bUUUUUUUUUUUUUUUUUUUUUUUUUUUUUUUU c
bUUUUUUUUUUUUUUUUUUUUUUUUUUUUUUUU d
bUUUUU e
Uf
bUUUUUUUUUUUUUUUUUUUUUUUUUUUUUUUU g
0h
bUU i
Uj
0k
0l
b00000000000000000000000000000000 m
0n
bUUUUUUUUUUUUUUUUUUUUUUUUUUUUUUUU o
bUUUUUUUUUUUUUUUUUUUUUUUUUUUUUUUU p
bUUUUU q
0r
bUU s
bUUUUUUUUUUUUUUUUUUUUUUUUUUUUUUUU t
0u
1v
b00000000000000000000000000000000 w
b00000000000000000000000000000000 x
0y
b0000000000000000000000000000000000000000000000000000000000000000 z
b0 {
b000000 |
1}
b00 !"
b00 ""
b00 #"
b01 $"
0%"
0&"
0'"
0("
0)"
0*"
0+"
1,"
0-"
bUUUUU ."
bUUUUUUUUUUUUUUUUUUUUUUUUUUUUUUUU /"
b00000 0"
b00000000000000000000000000000000 1"
b00000 2"
b00000000000000000000000000000000 3"
bUUUUU 4"
bUUUUU 5"
bUUUUU 6"
bUUUUU 7"
08"
09"
b00 :"
b00 ;"
bUU <"
bUUUUUU ="
b100000 >"
b100000 ?"
b100000 @"
bUUUUUUUUUUUUUUUUUUUUUUUUUUUUUUUU A"
bUUUUUUUUUUUUUUUUUUUUUUUUUUUUUUUU B"
bXXXXXXXXXXXXXXXXXXXXXXXXXXXXXXXX C"
0D"
bUUUUUUUUUUUUUUUUUUUUUUUUUUUUUUUUU E"
b00000000000000000000000000000000 F"
bXXXXXXXXXXXXXXXXXXXXXXXXXXXXXXXX G"
b00000000000000000000000000000000 H"
b00000000000000000000000000000000 I"
b00000000000000000000000000000000 J"
b00000000000000000000000000000000 K"
b00000000000000000000000000000000 L"
b0000000000000000000000000000000 M"
b0000000000000000000000000000000 N"
b000000000 O"
b000000000 P"
0Q"
b00000000000000000000000000000000 R"
b00000000000000000000000000000000 S"
b000000000 T"
b00000000 U"
b00000000 V"
0W"
0X"
0Y"
1Z"
1["
0\"
0]"
1^"
1_"
0`"
0a"
0b"
0c"
1d"
1e"
1f"
0g"
b000000000000000000000000 h"
b000000000000000000000000 i"
0j"
b00000 k"
0l"
b00000 m"
b00000000000000000000000000 n"
b00000000000000000000000000 o"
0p"
b000000000000000000000000000 q"
b000000000000000000000000000 r"
0s"
b000000000000000000000000000 t"
0u"
0v"
b00000000000000000000000000 w"
b11010 x"
b00001 y"
b00000000000000000000000000000000000000000000000000000 z"
b00000000000000000000000 {"
0|"
0}"
0!#
b00000000 "#
1##
b00000000 $#
b0000000000000000000000000000000 %#
0&#
b0000000000000000000000000000000 '#
1(#
0)#
b1111111100000000000000000000000 *#
b1111111111111111111111111111111 +#
b0000000000000000000000000000000 ,#
0-#
b00000000000000000000000000000000 .#
b00000000000000000000000000 /#
b00000 0#
b00000000000000000000000000 1#
02#
b00000 3#
b00000000000000000000000000 4#
b00000000000000000000000000 5#
06#
b00000000000000000000000000 7#
08#
b00000000000000000000000000 9#
0:#
b00000000000000000000000000 ;#
0<#
b00000000000000000000000000 =#
0>#
b00000000000000000000000000 ?#
0@#
b000000000000000000000000000 A#
b000000000000000000000000000 B#
0C#
b000000000000000000000000000 D#
b000000000000000000000000000 E#
b00000000000000000000000000 F#
b11010 G#
b0000000000000000000000000011111 H#
1I#
b000000000011111 J#
1K#
b0011111 L#
0M#
b001 N#
b10 O#
b110 P#
b000000000000000000000000000 Q#
b00001 R#
b00000000000000000000000000000000000000000000000000000 S#
b00001 T#
b000000000000000000000000000 U#
b0000000000000000000000000000 V#
b000000000000000000000000000000 W#
b0000000000000000000000000000000000 X#
b000000000000000000000000000000000000000000 Y#
b0000000000000000000000000000000000000000000000000000000000 Z#
b0000000000000000000000000000000 [#
b0000000000000000000000000000000 \#
0]#
b0000000000000000000000000000000 ^#
b0000000000000000000000000000000 _#
0`#
bUUUUUUUUUUUUUUUUUUUUUUUUUUUUUUUU a#
bUUUUUUUUUUUUUUUUUUUUUUUUUUUUUUUU b#
0c#
Ud#
b00000000000000000000000000000000 e#
b10000000000000000000000000000000 f#
bUUUUUUUUUU g#
#1000000
#5000000
1!
1%
1u
1+"
1`#
#10000000
0!
0%
0u
0+"
0`#
#15000000
1!
1%
1u
1+"
1`#
#20000000
0!
0"
0%
0&
b01 1
1:
1A
b01 G
0u
0v
0}
b01 !"
1*"
0+"
0,"
0`#
#25000000
1!
b00000000000000000000000000000100 #
1%
b00000000000000000000000000000100 '
1)
b00000000000000000000000000000100 +
b00000000000000000000000000001000 -
b00000000000000000000000000000100 /
b00000000000000000000000000000000 I
b00000000000000000000000000000000 J
b00000000000000000000000000000000 K
b00000000000000000000000000000000 L
b00000 M
b00000 N
b00000 O
b000000 P
1Q
b00 R
0S
0V
b01 W
b00 X
b000000 Y
b00000000000000000000000000000000 Z
b00000000000000000000000000000000 [
1\
b00000 ]
b00000000000000000000000000000000 ^
b00000000000000000000000000000000 a
b00000000000000000000000000000000 b
bXXXXXXXXXXXXXXXXXXXXXXXXXXXXXXXX c
0f
bXXXXXXXXXXXXXXXXXXXXXXXXXXXXXXXX g
b00000000000000000000000000000000 o
1u
b00000000000000000000000000000100 w
1y
b100 {
1+"
b00000 4"
b00000 5"
b00 <"
b000000 ="
b000000 >"
b000000 ?"
b000000 @"
b00000000000000000000000000000000 A"
b00000000000000000000000000000000 B"
b00000000000000000000000000000000 C"
1D"
b00000000000000000000000000000000 G"
1`#
bXXXXXXXXXXXXXXXXXXXXXXXXXXXXXXXX a#
bXXXXXXXXXX g#
#30000000
0!
0%
0u
0+"
0`#
#35000000
1!
bXXXXXXXXXXXXXXXXXXXXXXXXXXXXXXXX $
1%
bXXXXXXXXXXXXXXXXXXXXXXXXXXXXXXXX (
0Q
b00000000000000000000000000000000 c
b00000000000000000000000000000000 d
b00000 e
1f
b00000000000000000000000000000000 g
1h
b00 i
0j
bXXXXXXXXXXXXXXXXXXXXXXXXXXXXXXXX p
bXXXXXXXXXXXXXXXXXXXXXXXXXXXXXXXX t
1u
b11 {
1+"
bXXXXXXXXXXXXXXXXXXXXXXXXXXXXXXXX /"
b00000 6"
18"
1`#
b00000000000000000000000000000000 a#
b00000000000000000000000000000000 b#
0d#
b0000000000 g#
#40000000
0!
0%
0u
0+"
0`#
#45000000
1!
b00000000000000000000000000000000 $
1%
b00000000000000000000000000000000 (
0h
b00000000000000000000000000000000 p
b00000 q
1r
b00 s
b00000000000000000000000000000000 t
1u
b10 {
1+"
1-"
b00000 ."
b00000000000000000000000000000000 /"
b00000 7"
08"
19"
1`#
#50000000
0!
0%
0u
0+"
0`#
#55000000
1!
1%
0r
1u
b1 {
1+"
0-"
09"
1`#
#60000000
0!
0%
0u
0+"
0`#
#65000000
1!
1%
1u
b0 {
1+"
1`#
#70000000
0!
0%
0u
0+"
0`#
#75000000
1!
1%
1u
b0100000000000000000000000000000000000000000000000000000000000000 z
1+"
1`#
#80000000
0!
0%
0u
0+"
0`#
#85000000
1!
1%
0)
b10000000001000000000000000001111 *
b10000000001000000000000000001111 .
1u
b10000000001000000000000000001111 x
0y
1+"
1`#
#90000000
0!
0%
0u
0+"
0`#
#95000000
1!
b00000000000000000000000000001000 #
1%
b00000000000000000000000000001000 '
b00000000000000000000000000001000 +
b00000000000000000000000000001100 -
b00000000000000000000000000001000 /
b10000000001000000000000000001111 0
b00 1
b11 3
19
b00000000000000000000000000001111 =
b00000000000000000000000000001111 >
b00000000000011110000000000000000 ?
b00000000000000000000000000001111 @
1F
b00 G
b11 H
b00000000000000000000000000000100 I
1Q
b00000000000000000000000000000100 ^
1u
b00000000000000000000000000001000 w
b100000 |
b00 !"
b11 #"
1)"
1+"
b00001 0"
1`#
#100000000
0!
0%
0u
0+"
0`#
#105000000
1!
b00000000000000000000000000001100 #
1%
b00000000000000000000000000001100 '
1)
b00000000000000000000000000001100 +
b00000000000000000000000000010000 -
b00000000000000000000000000001100 /
b00000000000000000000000000001000 I
b00000000000000000000000000001111 L
b00001 M
b001111 P
1V
b00 W
b11 X
b001111 Y
b00000000000000000000000000001111 Z
b00000000000000000000000000001111 [
0\
b00001 ]
b00000000000000000000000001000100 ^
b00000000000000000000000000000100 g
1h
1u
b00000000000000000000000000001100 w
1y
b100 {
1+"
b00001 4"
18"
b11 <"
b001111 ="
b001111 >"
b001111 ?"
b001111 @"
b00000000000000000000000000001111 B"
b00000000000000000000000000001111 C"
0D"
b00000000000000000000000000001111 G"
1`#
#110000000
0!
0%
0u
0+"
0`#
#115000000
1!
1%
0Q
b00000000000000000000000000011110 [
b10 _
b00000000000000000000000000001111 a
b00000000000000000000000000001111 c
b00001 e
0f
b00000000000000000000000001000100 g
1r
1u
b11 {
1+"
1-"
b00001 6"
19"
b10 :"
b00000000000000000000000000001111 A"
b00000000000000000000000000011110 C"
b00000000000000000000000000011110 G"
1`#
b00000000000000000000000000001111 a#
b0000000011 g#
#120000000
0!
0%
0u
0+"
0`#
#125000000
1!
b00000000000000000000000000001111 $
1%
b00000000000000000000000000001111 (
b00000000000000000000000000001111 ;
b00000000000000000000000000011110 [
b01 _
b00000000000000000000000000001111 a
b00000000000000000000000000011110 c
0h
b00000000000000000000000000001111 p
b00001 q
b00000000000000000000000000001111 t
1u
b10 {
1+"
b00001 ."
b00000000000000000000000000001111 /"
b00000000000000000000000000001111 1"
b00001 7"
08"
b01 :"
b00000000000000000000000000001111 A"
b00000000000000000000000000011110 C"
b00000000000000000000000000011110 G"
1`#
b00000000000000000000000000011110 a#
b0000000111 g#
#130000000
0!
0%
0u
0+"
0`#
#135000000
1!
b00000000000000000000000000011110 $
1%
b00000000000000000000000000011110 (
b00000000000000000000000000001111 [
b00 _
b00000000000000000000000000000000 a
b00000000000000000000000000011110 p
0r
b00000000000000000000000000011110 t
1u
b1 {
1+"
0-"
b00000000000000000000000000011110 /"
09"
b00 :"
b00000000000000000000000000000000 A"
b00000000000000000000000000001111 C"
b00000000000000000000000000001111 G"
1`#
#140000000
0!
0%
0u
0+"
0`#
#145000000
1!
1%
b00000000000000000000000000001111 c
1u
b0 {
1+"
1`#
b00000000000000000000000000001111 a#
b0000000011 g#
#150000000
0!
0%
0u
0+"
0`#
#155000000
1!
b00000000000000000000000000001111 $
1%
b00000000000000000000000000001111 (
b00000000000000000000000000001111 p
b00000000000000000000000000001111 t
1u
b0101000000000000000000000000000000000000000000000000000000000000 z
1+"
b00000000000000000000000000001111 /"
1`#
#160000000
0!
0%
0u
0+"
0`#
#165000000
1!
1%
0)
b00000000001000100001100000100000 *
b00000000001000100001100000100000 .
1u
b00000000001000100001100000100000 x
0y
1+"
1`#
#170000000
0!
0%
0u
0+"
0`#
#175000000
1!
b00000000000000000000000000010000 #
1%
b00000000000000000000000000010000 '
b00000000000000000000000000010000 +
b00000000000000000000000000010100 -
b00000000000000000000000000010000 /
b00000000001000100001100000100000 0
b01 1
b00 3
09
b00000000000000000001100000100000 =
b00000000000000000001100000100000 >
b00011000001000000000000000000000 ?
b00000000000000000001100000100000 @
0F
b01 G
b00 H
b00000000000000000000000000001100 I
b00000000000000000000000000001111 J
1Q
b00000000000000000000000000011110 [
b00000000000000000000000001001000 ^
b00000000000000000000000000001111 a
1u
b00000000000000000000000000010000 w
b000000 |
b01 !"
b00 #"
0)"
1+"
b00010 2"
b00000000000000000000000000001111 A"
b00000000000000000000000000011110 C"
b00000000000000000000000000011110 G"
1`#
#180000000
0!
0%
0u
0+"
0`#
#185000000
1!
b00000000000000000000000000010100 #
1%
b00000000000000000000000000010100 '
1)
b00000000000000000000000000010100 +
b00000000000000000000000000011000 -
b00000000000000000000000000010100 /
b00000000000000000000000000010000 I
b00000000000000000001100000100000 L
b00010 N
b00011 O
b100000 P
0V
b01 W
b00 X
b100000 Y
b00000000000000000000000000000000 Z
b00000000000000000000000000011110 [
b00011 ]
b00000000000000000110000010010000 ^
b10 _
b00000000000000000000000000011110 a
b00000000000000000000000000011110 c
b00000000000000000000000001001000 g
1h
1u
b00000000000000000000000000010100 w
1y
b100 {
1+"
b00010 5"
18"
b10 :"
b00 <"
b100000 ="
b100000 >"
b100000 ?"
b100000 @"
b00000000000000000000000000011110 A"
b00000000000000000000000000000000 B"
b00000000000000000000000000011110 C"
b00000000000000000000000000011110 G"
1`#
b00000000000000000000000000011110 a#
b0000000111 g#
#190000000
0!
0%
0u
0+"
0`#
#195000000
1!
b00000000000000000000000000011110 $
1%
b00000000000000000000000000011110 (
b00000000000000000000000000011110 ;
0Q
b01 _
b00011 e
b00000000000000000110000010010000 g
b00000000000000000000000000011110 p
1r
b00000000000000000000000000011110 t
1u
b11 {
1+"
1-"
b00000000000000000000000000011110 /"
b00000000000000000000000000011110 1"
b00011 6"
19"
b01 :"
1`#
#200000000
0!
0%
0u
0+"
0`#
#205000000
1!
1%
b00000000000000000000000000001111 [
b00 _
b00000000000000000000000000001111 a
0h
b00011 q
1u
b10 {
1+"
b00011 ."
b00011 7"
08"
b00 :"
b00000000000000000000000000001111 A"
b00000000000000000000000000001111 C"
b00000000000000000000000000001111 G"
1`#
#210000000
0!
0%
0u
0+"
0`#
#215000000
1!
1%
b00000000000000000000000000001111 c
0r
1u
b1 {
1+"
0-"
09"
1`#
b00000000000000000000000000001111 a#
b0000000011 g#
#220000000
0!
0%
0u
0+"
0`#
#225000000
1!
b00000000000000000000000000001111 $
1%
b00000000000000000000000000001111 (
b00000000000000000000000000001111 p
b00000000000000000000000000001111 t
1u
b0 {
1+"
b00000000000000000000000000001111 /"
1`#
#230000000
0!
0%
0u
0+"
0`#
#235000000
1!
1%
1u
b0101010000000000000000000000000000000000000000000000000000000000 z
1+"
1`#
#240000000
0!
0%
0u
0+"
0`#
#245000000
1!
1%
0)
b10000100101000000011111111000000 *
b10000100101000000011111111000000 .
1u
b10000100101000000011111111000000 x
0y
1+"
1`#
#250000000
0!
0%
0u
0+"
0`#
#255000000
1!
b00000000000000000000000000011000 #
1%
b00000000000000000000000000011000 '
b00000000000000000000000000011000 +
b00000000000000000000000000011100 -
b00000000000000000000000000011000 /
b10000100101000000011111111000000 0
b00 1
b11 3
b10 4
19
b00000000000000000000000000000000 ;
b00000000000000000011111111000000 =
b00000000000000000011111111000000 >
b00111111110000000000000000000000 ?
b00111111110000000000000000000000 @
1F
b00 G
b11 H
b00000000000000000000000000010100 I
b00000000000000000000000000011110 J
1Q
b00000000000000000000000000011110 [
b00000000000000000110000010010100 ^
b00000000000000000000000000011110 a
1u
b00000000000000000000000000011000 w
b100001 |
b00 !"
b11 #"
b10 $"
1)"
1+"
b00101 0"
b00000000000000000000000000000000 1"
b00000 2"
b00000000000000000000000000011110 A"
b00000000000000000000000000011110 C"
b00000000000000000000000000011110 G"
1`#
#260000000
0!
0%
0u
0+"
0`#
#265000000
1!
b00000000000000000000000000011100 #
1%
b00000000000000000000000000011100 '
1)
b00000000000000000000000000011100 +
b00000000000000000000000000100000 -
b00000000000000000000000000011100 /
b00000000000000000000000000011000 I
b00000000000000000000000000000000 J
b00111111110000000000000000000000 L
b00101 M
b00000 N
b00111 O
b000000 P
1V
b00 W
b11 X
b000000 Y
b00111111110000000000000000000000 Z
b00111111110000000000000000000000 [
b00101 ]
b11111111000000000000000000011000 ^
b00000000000000000000000000000000 a
b00000000000000000000000000011110 c
b00000000000000000110000010010100 g
1h
1u
b00000000000000000000000000011100 w
1y
b100 {
1+"
b00101 4"
b00000 5"
18"
b11 <"
b000000 ="
b000000 >"
b000000 ?"
b000000 @"
b00000000000000000000000000000000 A"
b00111111110000000000000000000000 B"
b00111111110000000000000000000000 C"
b00111111110000000000000000000000 G"
1`#
b00000000000000000000000000011110 a#
b0000000111 g#
#270000000
0!
0%
0u
0+"
0`#
#275000000
1!
b00000000000000000000000000011110 $
1%
b00000000000000000000000000011110 (
0Q
b01111111100000000000000000000000 [
b10 _
b00111111110000000000000000000000 a
b00111111110000000000000000000000 c
b00101 e
b11111111000000000000000000011000 g
b00000000000000000000000000011110 p
1r
b00000000000000000000000000011110 t
1u
b11 {
1+"
1-"
b00000000000000000000000000011110 /"
b00101 6"
19"
b10 :"
b00111111110000000000000000000000 A"
b01111111100000000000000000000000 C"
b01111111100000000000000000000000 G"
1`#
b00111111110000000000000000000000 a#
b0000000000 g#
#280000000
0!
0%
0u
0+"
0`#
