sim/cpu.vcd
$date
  Sun Nov 16 00:56:06 2025
$end
$version
  GHDL v0
$end
$timescale
  1 fs
$end
$scope module standard $end
$upscope $end
$scope module textio $end
$upscope $end
$scope module std_logic_1164 $end
$upscope $end
$scope module numeric_std $end
$upscope $end
$scope module std_logic_textio $end
$upscope $end
$scope module std_logic_arith $end
$upscope $end
$scope module std_logic_signed $end
$upscope $end
$scope module std_logic_unsigned $end
$upscope $end
$scope module tb_mips32 $end
$var reg 1 ! clk $end
$var reg 1 " reset $end
$var reg 32 # pc_out[31:0] $end
$var reg 32 $ alu_result[31:0] $end
$scope module uut $end
$var reg 1 % clk $end
$var reg 1 & reset $end
$var reg 32 ' pc_out[31:0] $end
$var reg 32 ( alu_result[31:0] $end
$var reg 32 ) pc_current[31:0] $end
$var reg 32 * pc_next[31:0] $end
$var reg 32 + pc_plus4[31:0] $end
$var reg 32 , instr[31:0] $end
$var reg 2 - reg_dst[1:0] $end
$var reg 2 . mem_to_reg[1:0] $end
$var reg 2 / alu_op[1:0] $end
$var reg 1 0 jump $end
$var reg 1 1 branch $end
$var reg 1 2 mem_read $end
$var reg 1 3 mem_write $end
$var reg 1 4 alu_src $end
$var reg 1 5 reg_write $end
$var reg 1 6 sign_or_zero $end
$var reg 5 7 reg_write_dest[4:0] $end
$var reg 5 8 reg_read_addr_1[4:0] $end
$var reg 5 9 reg_read_addr_2[4:0] $end
$var reg 32 : reg_write_data[31:0] $end
$var reg 32 ; reg_read_data_1[31:0] $end
$var reg 32 < reg_read_data_2[31:0] $end
$var reg 32 = sign_ext_im[31:0] $end
$var reg 32 > zero_ext_im[31:0] $end
$var reg 32 ? imm_ext[31:0] $end
$var reg 3 @ alu_cont[2:0] $end
$var reg 32 A read_data2[31:0] $end
$var reg 32 B alu_out[31:0] $end
$var reg 1 C zero_flag $end
$var reg 32 D jump_shift_1[31:0] $end
$var reg 32 E pc_beq[31:0] $end
$var reg 32 F pc_4beqj[31:0] $end
$var reg 32 G pc_jr[31:0] $end
$var reg 1 H beq_control $end
$var reg 1 I jrcontrol $end
$var reg 32 J mem_read_data[31:0] $end
$scope module imem $end
$var reg 1 K clk $end
$var reg 32 L pc[31:0] $end
$var reg 32 M instruction[31:0] $end
$comment mem is not handled $end
$upscope $end
$scope module ctrl $end
$var reg 6 N opcode[5:0] $end
$var reg 1 O reset $end
$var reg 2 P reg_dst[1:0] $end
$var reg 2 Q mem_to_reg[1:0] $end
$var reg 2 R alu_op[1:0] $end
$var reg 1 S jump $end
$var reg 1 T branch $end
$var reg 1 U mem_read $end
$var reg 1 V mem_write $end
$var reg 1 W alu_src $end
$var reg 1 X reg_write $end
$var reg 1 Y sign_or_zero $end
$upscope $end
$scope module regfile $end
$var reg 1 Z clk $end
$var reg 1 [ rst $end
$var reg 1 \ reg_write_en $end
$var reg 5 ] reg_write_dest[4:0] $end
$var reg 32 ^ reg_write_data[31:0] $end
$var reg 5 _ reg_read_addr_1[4:0] $end
$var reg 32 ` reg_read_data_1[31:0] $end
$var reg 5 a reg_read_addr_2[4:0] $end
$var reg 32 b reg_read_data_2[31:0] $end
$comment reg_array is not handled $end
$upscope $end
$scope module alucontrol $end
$var reg 2 c op[1:0] $end
$var reg 3 d funct[2:0] $end
$var reg 3 e alu_cont[2:0] $end
$upscope $end
$scope module alu $end
$var reg 3 f alu_cont[2:0] $end
$var reg 32 g a[31:0] $end
$var reg 32 h b[31:0] $end
$var reg 32 i alu_result[31:0] $end
$var reg 1 j zero $end
$var reg 33 k int_res[32:0] $end
$var reg 32 l float_res[31:0] $end
$var reg 32 m result[31:0] $end
$var reg 32 n fadd_x[31:0] $end
$var reg 32 o fadd_y[31:0] $end
$scope module u_fadd $end
$var reg 32 p x[31:0] $end
$var reg 32 q y[31:0] $end
$var reg 32 r r[31:0] $end
$var reg 31 s expfracx[30:0] $end
$var reg 31 t expfracy[30:0] $end
$var reg 9 u expxmexpy[8:0] $end
$var reg 9 v expymexpx[8:0] $end
$var reg 1 w swap $end
$var reg 32 x newx[31:0] $end
$var reg 32 y newy[31:0] $end
$var reg 9 z expdiff[8:0] $end
$var reg 8 { expnewx[7:0] $end
$var reg 8 | expnewy[7:0] $end
$var reg 1 } signnewx $end
$var reg 1 !" signnewy $end
$var reg 1 "" effsub $end
$var reg 1 #" xexpfieldzero $end
$var reg 1 $" yexpfieldzero $end
$var reg 1 %" xexpfieldallones $end
$var reg 1 &" yexpfieldallones $end
$var reg 1 '" xsigfieldzero $end
$var reg 1 (" ysigfieldzero $end
$var reg 1 )" xisnan $end
$var reg 1 *" yisnan $end
$var reg 1 +" xisinfinity $end
$var reg 1 ," yisinfinity $end
$var reg 1 -" xiszero $end
$var reg 1 ." yiszero $end
$var reg 1 /" bothsubnormals $end
$var reg 1 0" resultisnan $end
$var reg 24 1" significandnewx[23:0] $end
$var reg 24 2" significandnewy[23:0] $end
$var reg 1 3" allshiftedout $end
$var reg 5 4" rightshiftvalue[4:0] $end
$var reg 1 5" shiftcorrection $end
$var reg 5 6" finalrightshiftvalue[4:0] $end
$var reg 26 7" significandy00[25:0] $end
$var reg 26 8" shiftedsignificandy[25:0] $end
$var reg 1 9" stickylow $end
$var reg 27 :" summandy[26:0] $end
$var reg 27 ;" summandx[26:0] $end
$var reg 1 <" carryin $end
$var reg 27 =" significandz[26:0] $end
$var reg 1 >" z1 $end
$var reg 1 ?" z0 $end
$var reg 26 @" lzczinput[25:0] $end
$var reg 5 A" lzc[4:0] $end
$var reg 5 B" leftshiftval[4:0] $end
$var reg 53 C" normalizedsignificand[52:0] $end
$var reg 23 D" significandpreround[22:0] $end
$var reg 1 E" lsb $end
$var reg 1 F" roundbit $end
$var reg 1 G" stickybit $end
$var reg 8 H" deltaexp[7:0] $end
$var reg 1 I" fullcancellation $end
$var reg 8 J" exppreround[7:0] $end
$var reg 31 K" expsigpreround[30:0] $end
$var reg 1 L" roundupbit $end
$var reg 31 M" expsigr[30:0] $end
$var reg 1 N" resultiszero $end
$var reg 1 O" resultisinf $end
$var reg 31 P" constinf[30:0] $end
$var reg 31 Q" constnan[30:0] $end
$var reg 31 R" expsigr2[30:0] $end
$var reg 1 S" signr $end
$var reg 32 T" computedr[31:0] $end
$scope module rightshiftercomponent $end
$var reg 26 U" x[25:0] $end
$var reg 5 V" s[4:0] $end
$var reg 26 W" r[25:0] $end
$var reg 1 X" sticky $end
$var reg 5 Y" ps[4:0] $end
$var reg 26 Z" xpadded[25:0] $end
$var reg 26 [" level5[25:0] $end
$var reg 1 \" stk4 $end
$var reg 26 ]" level4[25:0] $end
$var reg 1 ^" stk3 $end
$var reg 26 _" level3[25:0] $end
$var reg 1 `" stk2 $end
$var reg 26 a" level2[25:0] $end
$var reg 1 b" stk1 $end
$var reg 26 c" level1[25:0] $end
$var reg 1 d" stk0 $end
$var reg 26 e" level0[25:0] $end
$var reg 1 f" stk $end
$upscope $end
$scope module fracadder $end
$var reg 27 g" x[26:0] $end
$var reg 27 h" y[26:0] $end
$var reg 1 i" cin $end
$var reg 27 j" r[26:0] $end
$var reg 27 k" rtmp[26:0] $end
$upscope $end
$scope module ieeefpadd_8_23_comb_uid2leadingzerocounter $end
$var reg 26 l" i[25:0] $end
$var reg 5 m" o[4:0] $end
$var reg 31 n" level5[30:0] $end
$var reg 1 o" digit4 $end
$var reg 15 p" level4[14:0] $end
$var reg 1 q" digit3 $end
$var reg 7 r" level3[6:0] $end
$var reg 1 s" digit2 $end
$var reg 3 t" level2[2:0] $end
$var reg 2 u" lowbits[1:0] $end
$var reg 3 v" outhighbits[2:0] $end
$upscope $end
$scope module leftshiftercomponent $end
$var reg 27 w" x[26:0] $end
$var reg 5 x" s[4:0] $end
$var reg 53 y" r[52:0] $end
$var reg 5 z" ps[4:0] $end
$var reg 27 {" level0[26:0] $end
$var reg 28 |" level1[27:0] $end
$var reg 30 }" level2[29:0] $end
$var reg 34 !# level3[33:0] $end
$var reg 42 "# level4[41:0] $end
$var reg 58 ## level5[57:0] $end
$upscope $end
$scope module roundingadder $end
$var reg 31 $# x[30:0] $end
$var reg 31 %# y[30:0] $end
$var reg 1 &# cin $end
$var reg 31 '# r[30:0] $end
$var reg 31 (# rtmp[30:0] $end
$upscope $end
$upscope $end
$upscope $end
$scope module dmem $end
$var reg 1 )# clk $end
$var reg 32 *# mem_access_addr[31:0] $end
$var reg 32 +# mem_write_data[31:0] $end
$var reg 1 ,# mem_write_en $end
$var reg 1 -# mem_read $end
$var reg 32 .# mem_read_data[31:0] $end
$var integer 32 /# i $end
$var reg 10 0# ram_addr[9:0] $end
$comment ram is not handled $end
$upscope $end
$upscope $end
$upscope $end
$enddefinitions $end
#0
0!
1"
b00000000000000000000000000000000 #
b00000000000000000000000000000000 $
0%
1&
b00000000000000000000000000000000 '
b00000000000000000000000000000000 (
b00000000000000000000000000000000 )
b00000000000000000000000000000100 *
b00000000000000000000000000000100 +
b00000000000000000000000000000000 ,
b00 -
b00 .
b00 /
00
01
02
03
04
05
16
b00000 7
b00000 8
b00000 9
b00000000000000000000000000000000 :
b00000000000000000000000000000000 ;
b00000000000000000000000000000000 <
b00000000000000000000000000000000 =
b00000000000000000000000000000000 >
b00000000000000000000000000000000 ?
b000 @
b00000000000000000000000000000000 A
b00000000000000000000000000000000 B
1C
b00000000000000000000000000000000 D
b00000000000000000000000000000100 E
b00000000000000000000000000000100 F
b00000000000000000000000000000000 G
0H
UI
b00000000000000000000000000000000 J
0K
b00000000000000000000000000000000 L
b00000000000000000000000000000000 M
b000000 N
1O
b00 P
b00 Q
b00 R
0S
0T
0U
0V
0W
0X
1Y
0Z
1[
0\
b00000 ]
b00000000000000000000000000000000 ^
b00000 _
b00000000000000000000000000000000 `
b00000 a
b00000000000000000000000000000000 b
b00 c
b000 d
b000 e
b000 f
b00000000000000000000000000000000 g
b00000000000000000000000000000000 h
b00000000000000000000000000000000 i
1j
bUUUUUUUUUUUUUUUUUUUUUUUUUUUUUUUUU k
b00000000000000000000000000000000 l
b00000000000000000000000000000000 m
b00000000000000000000000000000000 n
b00000000000000000000000000000000 o
b00000000000000000000000000000000 p
b00000000000000000000000000000000 q
b00000000000000000000000000000000 r
b0000000000000000000000000000000 s
b0000000000000000000000000000000 t
b000000000 u
b000000000 v
0w
b00000000000000000000000000000000 x
b00000000000000000000000000000000 y
b000000000 z
b00000000 {
b00000000 |
0}
0!"
0""
1#"
1$"
0%"
0&"
1'"
1("
0)"
0*"
0+"
0,"
1-"
1."
1/"
00"
b000000000000000000000000 1"
b000000000000000000000000 2"
03"
b00000 4"
05"
b00000 6"
b00000000000000000000000000 7"
b00000000000000000000000000 8"
09"
b000000000000000000000000000 :"
b000000000000000000000000000 ;"
0<"
b000000000000000000000000000 ="
0>"
0?"
b00000000000000000000000000 @"
b11010 A"
b00001 B"
b00000000000000000000000000000000000000000000000000000 C"
b00000000000000000000000 D"
0E"
0F"
0G"
b00000000 H"
1I"
b00000000 J"
b0000000000000000000000000000000 K"
0L"
b0000000000000000000000000000000 M"
1N"
0O"
b1111111100000000000000000000000 P"
b1111111111111111111111111111111 Q"
b0000000000000000000000000000000 R"
0S"
b00000000000000000000000000000000 T"
b00000000000000000000000000 U"
b00000 V"
b00000000000000000000000000 W"
0X"
b00000 Y"
b00000000000000000000000000 Z"
b00000000000000000000000000 ["
0\"
b00000000000000000000000000 ]"
0^"
b00000000000000000000000000 _"
0`"
b00000000000000000000000000 a"
0b"
b00000000000000000000000000 c"
0d"
b00000000000000000000000000 e"
0f"
b000000000000000000000000000 g"
b000000000000000000000000000 h"
0i"
b000000000000000000000000000 j"
b000000000000000000000000000 k"
b00000000000000000000000000 l"
b11010 m"
b0000000000000000000000000011111 n"
1o"
b000000000011111 p"
1q"
b0011111 r"
0s"
b001 t"
b10 u"
b110 v"
b000000000000000000000000000 w"
b00001 x"
b00000000000000000000000000000000000000000000000000000 y"
b00001 z"
b000000000000000000000000000 {"
b0000000000000000000000000000 |"
b000000000000000000000000000000 }"
b0000000000000000000000000000000000 !#
b000000000000000000000000000000000000000000 "#
b0000000000000000000000000000000000000000000000000000000000 ##
b0000000000000000000000000000000 $#
b0000000000000000000000000000000 %#
0&#
b0000000000000000000000000000000 '#
b0000000000000000000000000000000 (#
0)#
b00000000000000000000000000000000 *#
b00000000000000000000000000000000 +#
0,#
0-#
b00000000000000000000000000000000 .#
b10000000000000000000000000000000 /#
b0000000000 0#
#5000000
1!
1%
1K
1Z
1)#
#10000000
0!
0%
0K
0Z
0)#
#15000000
1!
1%
1K
1Z
1)#
#20000000
0!
0"
0%
0&
b01 -
15
0K
0O
b01 P
1X
0Z
0[
1\
0)#
#25000000
1!
b00000000000000000000000000000100 #
1%
b00000000000000000000000000000100 '
b00000000000000000000000000000100 )
b00000000000000000000000000001000 *
b00000000000000000000000000001000 +
b00000000000000000000000000001000 E
b00000000000000000000000000001000 F
1K
b00000000000000000000000000000100 L
1Z
1)#
#30000000
0!
0%
0K
0Z
0)#
#35000000
1!
b00000000000000000000000000001000 #
1%
b00000000000000000000000000001000 '
b00000000000000000000000000001000 )
b00000000000000000000000000001100 *
b00000000000000000000000000001100 +
b00000000000000000000000000001100 E
b00000000000000000000000000001100 F
1K
b00000000000000000000000000001000 L
1Z
1)#
#40000000
0!
0%
0K
0Z
0)#
#45000000
1!
b00000000000000000000000000001100 #
b11111111111111111111111111111111 $
1%
b00000000000000000000000000001100 '
b11111111111111111111111111111111 (
b00000000000000000000000000001100 )
b00000000000000000000000000010000 *
b00000000000000000000000000010000 +
b00011100000100000000000000000001 ,
b00 -
b11 /
14
b00000 7
b11100 8
b00010 9
b11111111111111111111111111111111 :
b00000000000000000000000000000001 =
b00000000000000000000000000000001 >
b00000000000000000000000000000001 ?
b001 @
b00000000000000000000000000000001 A
b11111111111111111111111111111111 B
0C
b11000001000000000000000000010000 D
b00000000000000000000000000010001 E
b00000000000000000000000000010000 F
1K
b00000000000000000000000000001100 L
b00011100000100000000000000000001 M
b000111 N
b00 P
b11 R
1W
1Z
b00000 ]
b11111111111111111111111111111111 ^
b11100 _
b00010 a
b11 c
b001 d
b001 e
b001 f
b00000000000000000000000000000001 h
b11111111111111111111111111111111 i
0j
b11111111111111111111111111111111 m
1)#
b11111111111111111111111111111111 *#
b1111111111 0#
#50000000
0!
0%
0K
0Z
0)#
#55000000
1!
b00000000000000000000000000010000 #
b00000000000000000000000000000010 $
1%
b00000000000000000000000000010000 '
b00000000000000000000000000000010 (
b00000000000000000000000000010000 )
b00000000000000000000000000010100 *
b00000000000000000000000000010100 +
b00011100001000000000000000000010 ,
b00100 9
b00000000000000000000000000000010 :
b00000000000000000000000000000010 =
b00000000000000000000000000000010 >
b00000000000000000000000000000010 ?
b010 @
b00000000000000000000000000000010 A
b00000000000000000000000000000010 B
0C
b11000010000000000000000000100000 D
b00000000000000000000000000010110 E
b00000000000000000000000000010100 F
1K
b00000000000000000000000000010000 L
b00011100001000000000000000000010 M
1Z
b00000000000000000000000000000010 ^
b00100 a
b010 d
b010 e
b010 f
b00000000000000000000000000000010 h
b00000000000000000000000000000010 i
0j
b00000000000000000000000000000010 l
b00000000000000000000000000000010 m
b00000000000000000000000000000010 o
b00000000000000000000000000000010 q
b00000000000000000000000000000010 r
b0000000000000000000000000000010 t
1w
b00000000000000000000000000000010 x
b00000000000000000000000000000000 y
0'"
1("
0-"
1."
b000000000000000000000010 1"
b000000000000000000000000 2"
b00000000000000000000000000 7"
b00000000000000000000000000 8"
b000000000000000000000000000 :"
b000000000000000000000001000 ;"
b000000000000000000000001000 ="
b00000000000000000000000100 @"
b10111 A"
b00000000000000000000000000000000000000000000000010000 C"
b00000000000000000000010 D"
0E"
0I"
b0000000000000000000000000000010 K"
b0000000000000000000000000000010 M"
0N"
b0000000000000000000000000000010 R"
b00000000000000000000000000000010 T"
b00000000000000000000000000 U"
b00000000000000000000000000 W"
b00000000000000000000000000 Z"
b00000000000000000000000000 ["
b00000000000000000000000000 ]"
b00000000000000000000000000 _"
b00000000000000000000000000 a"
b00000000000000000000000000 c"
b00000000000000000000000000 e"
b000000000000000000000001000 g"
b000000000000000000000000000 h"
b000000000000000000000001000 j"
b000000000000000000000001000 k"
b00000000000000000000000100 l"
b10111 m"
b0000000000000000000000010011111 n"
b000000010011111 p"
0q"
b0000000 r"
1s"
b000 t"
b11 u"
b101 v"
b000000000000000000000001000 w"
b00000000000000000000000000000000000000000000000010000 y"
b000000000000000000000001000 {"
b0000000000000000000000010000 |"
b000000000000000000000000010000 }"
b0000000000000000000000000000010000 !#
b000000000000000000000000000000000000010000 "#
b0000000000000000000000000000000000000000000000000000010000 ##
b0000000000000000000000000000010 $#
b0000000000000000000000000000010 '#
b0000000000000000000000000000010 (#
1)#
b00000000000000000000000000000010 *#
b0000000000 0#
#60000000
0!
0%
0K
0Z
0)#
#65000000
1!
b00000000000000000000000000010100 #
b00000000000000000000000000000000 $
1%
b00000000000000000000000000010100 '
b00000000000000000000000000000000 (
b00000000000000000000000000010100 )
b00000000000000000000000000011000 *
b00000000000000000000000000011000 +
b00000001001100100000000000000000 ,
b01 -
b00 /
04
b10011 7
b00001 8
b00110 9
b00000000000000000000000000000000 :
b00000000000000000000000000000000 =
b00000000000000000000000000000000 >
b00000000000000000000000000000000 ?
b000 @
b00000000000000000000000000000000 A
b00000000000000000000000000000000 B
1C
b00010011001000000000000000000000 D
b00000000000000000000000000011000 E
b00000000000000000000000000011000 F
1K
b00000000000000000000000000010100 L
b00000001001100100000000000000000 M
b000000 N
b01 P
b00 R
0W
1Z
b10011 ]
b00000000000000000000000000000000 ^
b00001 _
b00110 a
b00 c
b000 d
b000 e
b000 f
b00000000000000000000000000000000 h
b00000000000000000000000000000000 i
1j
b00000000000000000000000000000000 l
b00000000000000000000000000000000 m
b00000000000000000000000000000000 o
b00000000000000000000000000000000 q
b00000000000000000000000000000000 r
b0000000000000000000000000000000 t
0w
b00000000000000000000000000000000 x
1'"
1-"
b000000000000000000000000 1"
b000000000000000000000000000 ;"
b000000000000000000000000000 ="
b00000000000000000000000000 @"
b11010 A"
b00000000000000000000000000000000000000000000000000000 C"
b00000000000000000000000 D"
1I"
b0000000000000000000000000000000 K"
b0000000000000000000000000000000 M"
1N"
b0000000000000000000000000000000 R"
b00000000000000000000000000000000 T"
b000000000000000000000000000 g"
b000000000000000000000000000 j"
b000000000000000000000000000 k"
b00000000000000000000000000 l"
b11010 m"
b0000000000000000000000000011111 n"
b000000000011111 p"
1q"
b0011111 r"
0s"
b001 t"
b10 u"
b110 v"
b000000000000000000000000000 w"
b00000000000000000000000000000000000000000000000000000 y"
b000000000000000000000000000 {"
b0000000000000000000000000000 |"
b000000000000000000000000000000 }"
b0000000000000000000000000000000000 !#
b000000000000000000000000000000000000000000 "#
b0000000000000000000000000000000000000000000000000000000000 ##
b0000000000000000000000000000000 $#
b0000000000000000000000000000000 '#
b0000000000000000000000000000000 (#
1)#
b00000000000000000000000000000000 *#
#70000000
0!
0%
0K
0Z
0)#
#75000000
1!
b00000000000000000000000000011000 #
1%
b00000000000000000000000000011000 '
b00000000000000000000000000011000 )
b00000000000000000000000000011100 *
b00000000000000000000000000011100 +
b00000011010000010000010000000001 ,
b10100 7
b00011 8
b01000 9
b00000000000000000000010000000001 =
b00000000000000000000010000000001 >
b00000000000000000000010000000001 ?
b001 @
b00110100000100000100000000010000 D
b00000000000000000000010000011101 E
b00000000000000000000000000011100 F
1K
b00000000000000000000000000011000 L
b00000011010000010000010000000001 M
1Z
b10100 ]
b00011 _
b01000 a
b001 d
b001 e
b001 f
1)#
#80000000
0!
0%
0K
0Z
0)#
#85000000
1!
b00000000000000000000000000011100 #
b11111111111111111111111111111111 $
1%
b00000000000000000000000000011100 '
b11111111111111111111111111111111 (
b00000000000000000000000000011100 )
b00000000000000000000000000100000 *
b00000000000000000000000000100000 +
b00010100010101010000000000000001 ,
b00 -
b11 /
13
14
05
b01010 7
b10100 8
b01010 9
b11111111111111111111111111111111 :
b00000000000000000000000000000001 =
b00000000000000000000000000000001 >
b00000000000000000000000000000001 ?
b00000000000000000000000000000001 A
b11111111111111111111111111111111 B
0C
b01000101010100000000000000010000 D
b00000000000000000000000000100001 E
b00000000000000000000000000100000 F
1K
b00000000000000000000000000011100 L
b00010100010101010000000000000001 M
b000101 N
b00 P
b11 R
1V
1W
0X
1Z
0\
b01010 ]
b11111111111111111111111111111111 ^
b10100 _
b01010 a
b11 c
b00000000000000000000000000000001 h
b11111111111111111111111111111111 i
0j
b11111111111111111111111111111111 m
1)#
b11111111111111111111111111111111 *#
1,#
b1111111111 0#
#90000000
0!
0%
0K
0Z
0)#
#95000000
1!
b00000000000000000000000000100000 #
b00000000000000000000000000000100 $
1%
b00000000000000000000000000100000 '
b00000000000000000000000000000100 (
b00000000000000000000000000100000 )
b00000000000000000000000000100100 *
b00000000000000000000000000100100 +
b00000000000000000000000000000000 ,
b01 -
b00 /
03
04
15
b00000 7
b00000 8
b00000 9
b00000000000000000000000000000100 :
b00000000000000000000000000000010 ;
b00000000000000000000000000000010 <
b00000000000000000000000000000000 =
b00000000000000000000000000000000 >
b00000000000000000000000000000000 ?
b000 @
b00000000000000000000000000000010 A
b00000000000000000000000000000100 B
b00000000000000000000000000000000 D
b00000000000000000000000000100100 E
b00000000000000000000000000100100 F
b00000000000000000000000000000010 G
1K
b00000000000000000000000000100000 L
b00000000000000000000000000000000 M
b000000 N
b01 P
b00 R
0V
0W
1X
1Z
1\
b00000 ]
b00000000000000000000000000000100 ^
b00000 _
b00000000000000000000000000000010 `
b00000 a
b00000000000000000000000000000010 b
b00 c
b000 d
b000 e
b000 f
b00000000000000000000000000000010 g
b00000000000000000000000000000010 h
b00000000000000000000000000000100 i
b00000000000000000000000000000100 m
1)#
b00000000000000000000000000000100 *#
b00000000000000000000000000000010 +#
0,#
b0000000001 0#
#100000000
0!
0%
0K
0Z
0)#
#105000000
1!
b00000000000000000000000000100100 #
b00000000000000000000000000001000 $
1%
b00000000000000000000000000100100 '
b00000000000000000000000000001000 (
b00000000000000000000000000100100 )
b00000000000000000000000000101000 *
b00000000000000000000000000101000 +
b00000000000000000000000000001000 :
b00000000000000000000000000000100 ;
b00000000000000000000000000000100 <
b00000000000000000000000000000100 A
b00000000000000000000000000001000 B
b00000000000000000000000000101000 E
b00000000000000000000000000101000 F
b00000000000000000000000000000100 G
1K
b00000000000000000000000000100100 L
1Z
b00000000000000000000000000001000 ^
b00000000000000000000000000000100 `
b00000000000000000000000000000100 b
b00000000000000000000000000000100 g
b00000000000000000000000000000100 h
b00000000000000000000000000001000 i
b00000000000000000000000000001000 m
1)#
b00000000000000000000000000001000 *#
b00000000000000000000000000000100 +#
b0000000010 0#
#110000000
0!
0%
0K
0Z
0)#
#115000000
1!
b00000000000000000000000000101000 #
b00000000000000000000000000010000 $
1%
b00000000000000000000000000101000 '
b00000000000000000000000000010000 (
b00000000000000000000000000101000 )
b00000000000000000000000000101100 *
b00000000000000000000000000101100 +
b00000000000000000000000000010000 :
b00000000000000000000000000001000 ;
b00000000000000000000000000001000 <
b00000000000000000000000000001000 A
b00000000000000000000000000010000 B
b00000000000000000000000000101100 E
b00000000000000000000000000101100 F
b00000000000000000000000000001000 G
1K
b00000000000000000000000000101000 L
1Z
b00000000000000000000000000010000 ^
b00000000000000000000000000001000 `
b00000000000000000000000000001000 b
b00000000000000000000000000001000 g
b00000000000000000000000000001000 h
b00000000000000000000000000010000 i
b00000000000000000000000000010000 m
1)#
b00000000000000000000000000010000 *#
b00000000000000000000000000001000 +#
b0000000100 0#
#120000000
0!
0%
0K
0Z
0)#
#125000000
1!
b00000000000000000000000000101100 #
b00000000000000000000000000100000 $
1%
b00000000000000000000000000101100 '
b00000000000000000000000000100000 (
b00000000000000000000000000101100 )
b00000000000000000000000000110000 *
b00000000000000000000000000110000 +
b00000000000000000000000000100000 :
b00000000000000000000000000010000 ;
b00000000000000000000000000010000 <
b00000000000000000000000000010000 A
b00000000000000000000000000100000 B
b00000000000000000000000000110000 E
b00000000000000000000000000110000 F
b00000000000000000000000000010000 G
1K
b00000000000000000000000000101100 L
1Z
b00000000000000000000000000100000 ^
b00000000000000000000000000010000 `
b00000000000000000000000000010000 b
b00000000000000000000000000010000 g
b00000000000000000000000000010000 h
b00000000000000000000000000100000 i
b00000000000000000000000000100000 m
1)#
b00000000000000000000000000100000 *#
b00000000000000000000000000010000 +#
b0000001000 0#
#130000000
0!
0%
0K
0Z
0)#
#135000000
1!
b00000000000000000000000000110000 #
b00000000000000000000000001000000 $
1%
b00000000000000000000000000110000 '
b00000000000000000000000001000000 (
b00000000000000000000000000110000 )
b00000000000000000000000000110100 *
b00000000000000000000000000110100 +
b00000000000000000000000001000000 :
b00000000000000000000000000100000 ;
b00000000000000000000000000100000 <
b00000000000000000000000000100000 A
b00000000000000000000000001000000 B
b00000000000000000000000000110100 E
b00000000000000000000000000110100 F
b00000000000000000000000000100000 G
1K
b00000000000000000000000000110000 L
1Z
b00000000000000000000000001000000 ^
b00000000000000000000000000100000 `
b00000000000000000000000000100000 b
b00000000000000000000000000100000 g
b00000000000000000000000000100000 h
b00000000000000000000000001000000 i
b00000000000000000000000001000000 m
1)#
b00000000000000000000000001000000 *#
b00000000000000000000000000100000 +#
b0000010000 0#
#140000000
0!
0%
0K
0Z
0)#
#145000000
1!
b00000000000000000000000000110100 #
b00000000000000000000000010000000 $
1%
b00000000000000000000000000110100 '
b00000000000000000000000010000000 (
b00000000000000000000000000110100 )
b00000000000000000000000000111000 *
b00000000000000000000000000111000 +
b00000000000000000000000010000000 :
b00000000000000000000000001000000 ;
b00000000000000000000000001000000 <
b00000000000000000000000001000000 A
b00000000000000000000000010000000 B
b00000000000000000000000000111000 E
b00000000000000000000000000111000 F
b00000000000000000000000001000000 G
1K
b00000000000000000000000000110100 L
1Z
b00000000000000000000000010000000 ^
b00000000000000000000000001000000 `
b00000000000000000000000001000000 b
b00000000000000000000000001000000 g
b00000000000000000000000001000000 h
b00000000000000000000000010000000 i
b00000000000000000000000010000000 m
1)#
b00000000000000000000000010000000 *#
b00000000000000000000000001000000 +#
b0000100000 0#
#150000000
0!
0%
0K
0Z
0)#
#155000000
1!
b00000000000000000000000000111000 #
b00000000000000000000000100000000 $
1%
b00000000000000000000000000111000 '
b00000000000000000000000100000000 (
b00000000000000000000000000111000 )
b00000000000000000000000000111100 *
b00000000000000000000000000111100 +
b00000000000000000000000100000000 :
b00000000000000000000000010000000 ;
b00000000000000000000000010000000 <
b00000000000000000000000010000000 A
b00000000000000000000000100000000 B
b00000000000000000000000000111100 E
b00000000000000000000000000111100 F
b00000000000000000000000010000000 G
1K
b00000000000000000000000000111000 L
1Z
b00000000000000000000000100000000 ^
b00000000000000000000000010000000 `
b00000000000000000000000010000000 b
b00000000000000000000000010000000 g
b00000000000000000000000010000000 h
b00000000000000000000000100000000 i
b00000000000000000000000100000000 m
1)#
b00000000000000000000000100000000 *#
b00000000000000000000000010000000 +#
b0001000000 0#
#160000000
0!
0%
0K
0Z
0)#
#165000000
1!
b00000000000000000000000000111100 #
b00000000000000000000001000000000 $
1%
b00000000000000000000000000111100 '
b00000000000000000000001000000000 (
b00000000000000000000000000111100 )
b00000000000000000000000001000000 *
b00000000000000000000000001000000 +
b00000000000000000000001000000000 :
b00000000000000000000000100000000 ;
b00000000000000000000000100000000 <
b00000000000000000000000100000000 A
b00000000000000000000001000000000 B
b00000000000000000000000001000000 E
b00000000000000000000000001000000 F
b00000000000000000000000100000000 G
1K
b00000000000000000000000000111100 L
1Z
b00000000000000000000001000000000 ^
b00000000000000000000000100000000 `
b00000000000000000000000100000000 b
b00000000000000000000000100000000 g
b00000000000000000000000100000000 h
b00000000000000000000001000000000 i
b00000000000000000000001000000000 m
1)#
b00000000000000000000001000000000 *#
b00000000000000000000000100000000 +#
b0010000000 0#
#170000000
0!
0%
0K
0Z
0)#
#175000000
1!
b00000000000000000000000001000000 #
b00000000000000000000010000000000 $
1%
b00000000000000000000000001000000 '
b00000000000000000000010000000000 (
b00000000000000000000000001000000 )
b00000000000000000000000001000100 *
b00000000000000000000000001000100 +
b00000000000000000000010000000000 :
b00000000000000000000001000000000 ;
b00000000000000000000001000000000 <
b00000000000000000000001000000000 A
b00000000000000000000010000000000 B
b00000000000000000000000001000100 E
b00000000000000000000000001000100 F
b00000000000000000000001000000000 G
1K
b00000000000000000000000001000000 L
1Z
b00000000000000000000010000000000 ^
b00000000000000000000001000000000 `
b00000000000000000000001000000000 b
b00000000000000000000001000000000 g
b00000000000000000000001000000000 h
b00000000000000000000010000000000 i
b00000000000000000000010000000000 m
1)#
b00000000000000000000010000000000 *#
b00000000000000000000001000000000 +#
b0100000000 0#
#180000000
0!
0%
0K
0Z
0)#
#185000000
1!
b00000000000000000000000001000100 #
b00000000000000000000100000000000 $
1%
b00000000000000000000000001000100 '
b00000000000000000000100000000000 (
b00000000000000000000000001000100 )
b00000000000000000000000001001000 *
b00000000000000000000000001001000 +
b00000000000000000000100000000000 :
b00000000000000000000010000000000 ;
b00000000000000000000010000000000 <
b00000000000000000000010000000000 A
b00000000000000000000100000000000 B
b00000000000000000000000001001000 E
b00000000000000000000000001001000 F
b00000000000000000000010000000000 G
1K
b00000000000000000000000001000100 L
1Z
b00000000000000000000100000000000 ^
b00000000000000000000010000000000 `
b00000000000000000000010000000000 b
b00000000000000000000010000000000 g
b00000000000000000000010000000000 h
b00000000000000000000100000000000 i
b00000000000000000000100000000000 m
1)#
b00000000000000000000100000000000 *#
b00000000000000000000010000000000 +#
b1000000000 0#
#190000000
0!
0%
0K
0Z
0)#
