sim/cpu.vcd
$date
  Sun Nov 16 20:37:08 2025
$end
$version
  GHDL v0
$end
$timescale
  1 fs
$end
$scope module standard $end
$upscope $end
$scope module textio $end
$upscope $end
$scope module std_logic_1164 $end
$upscope $end
$scope module numeric_std $end
$upscope $end
$scope module std_logic_textio $end
$upscope $end
$scope module std_logic_arith $end
$upscope $end
$scope module std_logic_signed $end
$upscope $end
$scope module std_logic_unsigned $end
$upscope $end
$scope module tb_mips32 $end
$var reg 1 ! clk $end
$var reg 1 " reset $end
$var reg 32 # pc_out[31:0] $end
$var reg 32 $ alu_result[31:0] $end
$scope module uut $end
$var reg 1 % clk $end
$var reg 1 & reset $end
$var reg 32 ' pc_out[31:0] $end
$var reg 32 ( alu_result[31:0] $end
$var reg 32 ) pc_current[31:0] $end
$var reg 32 * pc_next[31:0] $end
$var reg 32 + pc_plus4[31:0] $end
$var reg 32 , instr[31:0] $end
$var reg 2 - reg_dst[1:0] $end
$var reg 2 . mem_to_reg[1:0] $end
$var reg 2 / alu_op[1:0] $end
$var reg 2 0 sign_or_zero[1:0] $end
$var reg 1 1 jump $end
$var reg 1 2 branch $end
$var reg 1 3 mem_read $end
$var reg 1 4 mem_write $end
$var reg 1 5 alu_src $end
$var reg 1 6 reg_write $end
$var reg 5 7 reg_write_dest[4:0] $end
$var reg 5 8 reg_read_addr_1[4:0] $end
$var reg 5 9 reg_read_addr_2[4:0] $end
$var reg 32 : reg_write_data[31:0] $end
$var reg 32 ; reg_read_data_1[31:0] $end
$var reg 32 < reg_read_data_2[31:0] $end
$var reg 32 = sign_ext_im[31:0] $end
$var reg 32 > zero_ext_im[31:0] $end
$var reg 32 ? float_ext_im[31:0] $end
$var reg 32 @ imm_ext[31:0] $end
$var reg 6 A alu_cont[5:0] $end
$var reg 6 B funct[5:0] $end
$var reg 32 C read_data2[31:0] $end
$var reg 32 D alu_out[31:0] $end
$var reg 1 E zero_flag $end
$var reg 32 F jump_shift_1[31:0] $end
$var reg 32 G pc_beq[31:0] $end
$var reg 32 H pc_4beqj[31:0] $end
$var reg 32 I pc_jr[31:0] $end
$var reg 1 J beq_control $end
$var reg 1 K jrcontrol $end
$var reg 32 L mem_read_data[31:0] $end
$scope module imem $end
$var reg 1 M clk $end
$var reg 32 N pc[31:0] $end
$var reg 32 O instruction[31:0] $end
$comment mem is not handled $end
$upscope $end
$scope module ctrl $end
$var reg 6 P opcode[5:0] $end
$var reg 1 Q reset $end
$var reg 2 R reg_dst[1:0] $end
$var reg 2 S mem_to_reg[1:0] $end
$var reg 2 T alu_op[1:0] $end
$var reg 2 U sign_or_zero[1:0] $end
$var reg 1 V jump $end
$var reg 1 W branch $end
$var reg 1 X mem_read $end
$var reg 1 Y mem_write $end
$var reg 1 Z alu_src $end
$var reg 1 [ reg_write $end
$upscope $end
$scope module regfile $end
$var reg 1 \ clk $end
$var reg 1 ] rst $end
$var reg 1 ^ reg_write_en $end
$var reg 5 _ reg_write_dest[4:0] $end
$var reg 32 ` reg_write_data[31:0] $end
$var reg 5 a reg_read_addr_1[4:0] $end
$var reg 32 b reg_read_data_1[31:0] $end
$var reg 5 c reg_read_addr_2[4:0] $end
$var reg 32 d reg_read_data_2[31:0] $end
$comment reg_array is not handled $end
$upscope $end
$scope module alucontrol $end
$var reg 2 e op[1:0] $end
$var reg 6 f funct[5:0] $end
$var reg 6 g alu_cont[5:0] $end
$var reg 6 h result[5:0] $end
$upscope $end
$scope module alu $end
$var reg 6 i alu_cont[5:0] $end
$var reg 32 j a[31:0] $end
$var reg 32 k b[31:0] $end
$var reg 32 l alu_result[31:0] $end
$var reg 1 m zero $end
$var reg 33 n int_res[32:0] $end
$var reg 32 o float_res[31:0] $end
$var reg 32 p result[31:0] $end
$var reg 32 q fadd_x[31:0] $end
$var reg 32 r fadd_y[31:0] $end
$scope module u_fadd $end
$var reg 32 s x[31:0] $end
$var reg 32 t y[31:0] $end
$var reg 32 u r[31:0] $end
$var reg 31 v expfracx[30:0] $end
$var reg 31 w expfracy[30:0] $end
$var reg 9 x expxmexpy[8:0] $end
$var reg 9 y expymexpx[8:0] $end
$var reg 1 z swap $end
$var reg 32 { newx[31:0] $end
$var reg 32 | newy[31:0] $end
$var reg 9 } expdiff[8:0] $end
$var reg 8 !" expnewx[7:0] $end
$var reg 8 "" expnewy[7:0] $end
$var reg 1 #" signnewx $end
$var reg 1 $" signnewy $end
$var reg 1 %" effsub $end
$var reg 1 &" xexpfieldzero $end
$var reg 1 '" yexpfieldzero $end
$var reg 1 (" xexpfieldallones $end
$var reg 1 )" yexpfieldallones $end
$var reg 1 *" xsigfieldzero $end
$var reg 1 +" ysigfieldzero $end
$var reg 1 ," xisnan $end
$var reg 1 -" yisnan $end
$var reg 1 ." xisinfinity $end
$var reg 1 /" yisinfinity $end
$var reg 1 0" xiszero $end
$var reg 1 1" yiszero $end
$var reg 1 2" bothsubnormals $end
$var reg 1 3" resultisnan $end
$var reg 24 4" significandnewx[23:0] $end
$var reg 24 5" significandnewy[23:0] $end
$var reg 1 6" allshiftedout $end
$var reg 5 7" rightshiftvalue[4:0] $end
$var reg 1 8" shiftcorrection $end
$var reg 5 9" finalrightshiftvalue[4:0] $end
$var reg 26 :" significandy00[25:0] $end
$var reg 26 ;" shiftedsignificandy[25:0] $end
$var reg 1 <" stickylow $end
$var reg 27 =" summandy[26:0] $end
$var reg 27 >" summandx[26:0] $end
$var reg 1 ?" carryin $end
$var reg 27 @" significandz[26:0] $end
$var reg 1 A" z1 $end
$var reg 1 B" z0 $end
$var reg 26 C" lzczinput[25:0] $end
$var reg 5 D" lzc[4:0] $end
$var reg 5 E" leftshiftval[4:0] $end
$var reg 53 F" normalizedsignificand[52:0] $end
$var reg 23 G" significandpreround[22:0] $end
$var reg 1 H" lsb $end
$var reg 1 I" roundbit $end
$var reg 1 J" stickybit $end
$var reg 8 K" deltaexp[7:0] $end
$var reg 1 L" fullcancellation $end
$var reg 8 M" exppreround[7:0] $end
$var reg 31 N" expsigpreround[30:0] $end
$var reg 1 O" roundupbit $end
$var reg 31 P" expsigr[30:0] $end
$var reg 1 Q" resultiszero $end
$var reg 1 R" resultisinf $end
$var reg 31 S" constinf[30:0] $end
$var reg 31 T" constnan[30:0] $end
$var reg 31 U" expsigr2[30:0] $end
$var reg 1 V" signr $end
$var reg 32 W" computedr[31:0] $end
$scope module rightshiftercomponent $end
$var reg 26 X" x[25:0] $end
$var reg 5 Y" s[4:0] $end
$var reg 26 Z" r[25:0] $end
$var reg 1 [" sticky $end
$var reg 5 \" ps[4:0] $end
$var reg 26 ]" xpadded[25:0] $end
$var reg 26 ^" level5[25:0] $end
$var reg 1 _" stk4 $end
$var reg 26 `" level4[25:0] $end
$var reg 1 a" stk3 $end
$var reg 26 b" level3[25:0] $end
$var reg 1 c" stk2 $end
$var reg 26 d" level2[25:0] $end
$var reg 1 e" stk1 $end
$var reg 26 f" level1[25:0] $end
$var reg 1 g" stk0 $end
$var reg 26 h" level0[25:0] $end
$var reg 1 i" stk $end
$upscope $end
$scope module fracadder $end
$var reg 27 j" x[26:0] $end
$var reg 27 k" y[26:0] $end
$var reg 1 l" cin $end
$var reg 27 m" r[26:0] $end
$var reg 27 n" rtmp[26:0] $end
$upscope $end
$scope module ieeefpadd_8_23_comb_uid2leadingzerocounter $end
$var reg 26 o" i[25:0] $end
$var reg 5 p" o[4:0] $end
$var reg 31 q" level5[30:0] $end
$var reg 1 r" digit4 $end
$var reg 15 s" level4[14:0] $end
$var reg 1 t" digit3 $end
$var reg 7 u" level3[6:0] $end
$var reg 1 v" digit2 $end
$var reg 3 w" level2[2:0] $end
$var reg 2 x" lowbits[1:0] $end
$var reg 3 y" outhighbits[2:0] $end
$upscope $end
$scope module leftshiftercomponent $end
$var reg 27 z" x[26:0] $end
$var reg 5 {" s[4:0] $end
$var reg 53 |" r[52:0] $end
$var reg 5 }" ps[4:0] $end
$var reg 27 !# level0[26:0] $end
$var reg 28 "# level1[27:0] $end
$var reg 30 ## level2[29:0] $end
$var reg 34 $# level3[33:0] $end
$var reg 42 %# level4[41:0] $end
$var reg 58 &# level5[57:0] $end
$upscope $end
$scope module roundingadder $end
$var reg 31 '# x[30:0] $end
$var reg 31 (# y[30:0] $end
$var reg 1 )# cin $end
$var reg 31 *# r[30:0] $end
$var reg 31 +# rtmp[30:0] $end
$upscope $end
$upscope $end
$upscope $end
$scope module dmem $end
$var reg 1 ,# clk $end
$var reg 32 -# mem_access_addr[31:0] $end
$var reg 32 .# mem_write_data[31:0] $end
$var reg 1 /# mem_write_en $end
$var reg 1 0# mem_read $end
$var reg 32 1# mem_read_data[31:0] $end
$var integer 32 2# i $end
$var reg 10 3# ram_addr[9:0] $end
$comment ram is not handled $end
$upscope $end
$upscope $end
$upscope $end
$enddefinitions $end
#0
0!
1"
b00000000000000000000000000000000 #
b00000000000000000000000000000000 $
0%
1&
b00000000000000000000000000000000 '
b00000000000000000000000000000000 (
b00000000000000000000000000000000 )
b00000000000000000000000000000100 *
b00000000000000000000000000000100 +
b00000000000000000000000000000000 ,
b00 -
b00 .
b00 /
b01 0
01
02
03
04
05
06
b00000 7
b00000 8
b00000 9
b00000000000000000000000000000000 :
b00000000000000000000000000000000 ;
b00000000000000000000000000000000 <
b00000000000000000000000000000000 =
b00000000000000000000000000000000 >
b00000000000000000000000000000000 ?
b00000000000000000000000000000000 @
b000000 A
b000000 B
b00000000000000000000000000000000 C
b00000000000000000000000000000000 D
1E
b00000000000000000000000000000000 F
b00000000000000000000000000000100 G
b00000000000000000000000000000100 H
b00000000000000000000000000000000 I
0J
UK
b00000000000000000000000000000000 L
0M
b00000000000000000000000000000000 N
b00000000000000000000000000000000 O
b000000 P
1Q
b00 R
b00 S
b00 T
b01 U
0V
0W
0X
0Y
0Z
0[
0\
1]
0^
b00000 _
b00000000000000000000000000000000 `
b00000 a
b00000000000000000000000000000000 b
b00000 c
b00000000000000000000000000000000 d
b00 e
b000000 f
b000000 g
b000000 h
b000000 i
b00000000000000000000000000000000 j
b00000000000000000000000000000000 k
b00000000000000000000000000000000 l
1m
bUUUUUUUUUUUUUUUUUUUUUUUUUUUUUUUUU n
b00000000000000000000000000000000 o
b00000000000000000000000000000000 p
b00000000000000000000000000000000 q
b00000000000000000000000000000000 r
b00000000000000000000000000000000 s
b00000000000000000000000000000000 t
b00000000000000000000000000000000 u
b0000000000000000000000000000000 v
b0000000000000000000000000000000 w
b000000000 x
b000000000 y
0z
b00000000000000000000000000000000 {
b00000000000000000000000000000000 |
b000000000 }
b00000000 !"
b00000000 ""
0#"
0$"
0%"
1&"
1'"
0("
0)"
1*"
1+"
0,"
0-"
0."
0/"
10"
11"
12"
03"
b000000000000000000000000 4"
b000000000000000000000000 5"
06"
b00000 7"
08"
b00000 9"
b00000000000000000000000000 :"
b00000000000000000000000000 ;"
0<"
b000000000000000000000000000 ="
b000000000000000000000000000 >"
0?"
b000000000000000000000000000 @"
0A"
0B"
b00000000000000000000000000 C"
b11010 D"
b00001 E"
b00000000000000000000000000000000000000000000000000000 F"
b00000000000000000000000 G"
0H"
0I"
0J"
b00000000 K"
1L"
b00000000 M"
b0000000000000000000000000000000 N"
0O"
b0000000000000000000000000000000 P"
1Q"
0R"
b1111111100000000000000000000000 S"
b1111111111111111111111111111111 T"
b0000000000000000000000000000000 U"
0V"
b00000000000000000000000000000000 W"
b00000000000000000000000000 X"
b00000 Y"
b00000000000000000000000000 Z"
0["
b00000 \"
b00000000000000000000000000 ]"
b00000000000000000000000000 ^"
0_"
b00000000000000000000000000 `"
0a"
b00000000000000000000000000 b"
0c"
b00000000000000000000000000 d"
0e"
b00000000000000000000000000 f"
0g"
b00000000000000000000000000 h"
0i"
b000000000000000000000000000 j"
b000000000000000000000000000 k"
0l"
b000000000000000000000000000 m"
b000000000000000000000000000 n"
b00000000000000000000000000 o"
b11010 p"
b0000000000000000000000000011111 q"
1r"
b000000000011111 s"
1t"
b0011111 u"
0v"
b001 w"
b10 x"
b110 y"
b000000000000000000000000000 z"
b00001 {"
b00000000000000000000000000000000000000000000000000000 |"
b00001 }"
b000000000000000000000000000 !#
b0000000000000000000000000000 "#
b000000000000000000000000000000 ##
b0000000000000000000000000000000000 $#
b000000000000000000000000000000000000000000 %#
b0000000000000000000000000000000000000000000000000000000000 &#
b0000000000000000000000000000000 '#
b0000000000000000000000000000000 (#
0)#
b0000000000000000000000000000000 *#
b0000000000000000000000000000000 +#
0,#
b00000000000000000000000000000000 -#
b00000000000000000000000000000000 .#
0/#
00#
b00000000000000000000000000000000 1#
b10000000000000000000000000000000 2#
b0000000000 3#
#20000000
1!
1%
1M
1\
1,#
#30000000
#40000000
0!
0%
0M
0\
0,#
#60000000
1!
1%
1M
1\
1,#
#80000000
0!
0"
0%
0&
b01 -
16
0M
0Q
b01 R
1[
0\
0]
1^
0,#
#100000000
1!
b00000000000000000000000000000100 #
b00000000000000000000000000001111 $
1%
b00000000000000000000000000000100 '
b00000000000000000000000000001111 (
b00000000000000000000000000000100 )
b00000000000000000000000000001000 *
b00000000000000000000000000001000 +
b10000000001000000000000000001111 ,
b00 -
b11 /
15
b00001 7
b00001 8
b00000000000000000000000000001111 :
b00000000000000000000000000001111 =
b00000000000000000000000000001111 >
b00000000000011110000000000000000 ?
b00000000000000000000000000001111 @
b100000 A
b100000 B
b00000000000000000000000000001111 C
b00000000000000000000000000001111 D
0E
b00000010000000000000000011110000 F
b00000000000000000000000000010111 G
b00000000000000000000000000001000 H
1M
b00000000000000000000000000000100 N
b10000000001000000000000000001111 O
b100000 P
b00 R
b11 T
1Z
1\
b00001 _
b00000000000000000000000000001111 `
b00001 a
b11 e
b100000 f
b100000 g
b100000 h
b100000 i
b00000000000000000000000000001111 k
b00000000000000000000000000001111 l
0m
b00000000000000000000000000001111 p
1,#
b00000000000000000000000000001111 -#
b0000000011 3#
#120000000
0!
0%
0M
0\
0,#
#140000000
1!
b00000000000000000000000000001000 #
b00000000000000000000000000000011 $
1%
b00000000000000000000000000001000 '
b00000000000000000000000000000011 (
b00000000000000000000000000001000 )
b00000000000000000000000000001100 *
b00000000000000000000000000001100 +
b10000000010000000000000000000011 ,
b00010 7
b00010 8
b00000000000000000000000000000011 :
b00000000000000000000000000000000 ;
b00000000000000000000000000000011 =
b00000000000000000000000000000011 >
b00000000000000110000000000000000 ?
b00000000000000000000000000000011 @
b00000000000000000000000000000011 C
b00000000000000000000000000000011 D
b00000100000000000000000000110000 F
b00000000000000000000000000001111 G
b00000000000000000000000000001100 H
b00000000000000000000000000000000 I
1M
b00000000000000000000000000001000 N
b10000000010000000000000000000011 O
1\
b00010 _
b00000000000000000000000000000011 `
b00010 a
b00000000000000000000000000000000 b
b00000000000000000000000000000000 j
b00000000000000000000000000000011 k
b00000000000000000000000000000011 l
b00000000000000000000000000000011 p
1,#
b00000000000000000000000000000011 -#
b0000000000 3#
#160000000
0!
0%
0M
0\
0,#
#180000000
1!
b00000000000000000000000000001100 #
b00000000000000000000000000010010 $
1%
b00000000000000000000000000001100 '
b00000000000000000000000000010010 (
b00000000000000000000000000001100 )
b00000000000000000000000000010000 *
b00000000000000000000000000010000 +
b00000000001000100001100000100000 ,
b01 -
b00 /
05
b00011 7
b00001 8
b00010 9
b00000000000000000000000000010010 :
b00000000000000000000000000001111 ;
b00000000000000000000000000000011 <
b00000000000000000001100000100000 =
b00000000000000000001100000100000 >
b00011000001000000000000000000000 ?
b00000000000000000001100000100000 @
b100000 A
b100000 B
b00000000000000000000000000000011 C
b00000000000000000000000000010010 D
b00000010001000011000001000000000 F
b00000000000000000001100000110000 G
b00000000000000000000000000010000 H
b00000000000000000000000000001111 I
1M
b00000000000000000000000000001100 N
b00000000001000100001100000100000 O
b000000 P
b01 R
b00 T
0Z
1\
b00011 _
b00000000000000000000000000010010 `
b00001 a
b00000000000000000000000000001111 b
b00010 c
b00000000000000000000000000000011 d
b00 e
b100000 f
b100000 g
b100000 h
b100000 i
b00000000000000000000000000001111 j
b00000000000000000000000000000011 k
b00000000000000000000000000010010 l
b00000000000000000000000000010010 p
1,#
b00000000000000000000000000010010 -#
b00000000000000000000000000000011 .#
b0000000100 3#
#200000000
0!
0%
0M
0\
0,#
#220000000
1!
b00000000000000000000000000010000 #
b00000000000000000000000000001100 $
1%
b00000000000000000000000000010000 '
b00000000000000000000000000001100 (
b00000000000000000000000000010000 )
b00000000000000000000000000010100 *
b00000000000000000000000000010100 +
b00000000001000100001100000100010 ,
b00000000000000000000000000001100 :
b00000000000000000001100000100010 =
b00000000000000000001100000100010 >
b00011000001000100000000000000000 ?
b00000000000000000001100000100010 @
b100010 A
b100010 B
b00000000000000000000000000001100 D
b00000010001000011000001000100000 F
b00000000000000000001100000110110 G
b00000000000000000000000000010100 H
1M
b00000000000000000000000000010000 N
b00000000001000100001100000100010 O
1\
b00000000000000000000000000001100 `
b100010 f
b100010 g
b100010 h
b100010 i
b00000000000000000000000000001100 l
b00000000000000000000000000001100 p
1,#
b00000000000000000000000000001100 -#
b0000000011 3#
#240000000
0!
0%
0M
0\
0,#
#260000000
1!
b00000000000000000000000000010100 #
b00111111110000000000000000000000 $
1%
b00000000000000000000000000010100 '
b00111111110000000000000000000000 (
b00000000000000000000000000010100 )
b00000000000000000000000000011000 *
b00000000000000000000000000011000 +
b10000100101000000011111111000000 ,
b00 -
b11 /
b10 0
15
b00101 7
b00101 8
b00000 9
b00111111110000000000000000000000 :
b00000000000000000000000000000000 ;
b00000000000000000000000000000000 <
b00000000000000000011111111000000 =
b00000000000000000011111111000000 >
b00111111110000000000000000000000 ?
b00111111110000000000000000000000 @
b100001 A
b100001 B
b00111111110000000000000000000000 C
b00111111110000000000000000000000 D
0E
b01001010000000111111110000000000 F
b00111111110000000000000000011000 G
b00000000000000000000000000011000 H
b00000000000000000000000000000000 I
1M
b00000000000000000000000000010100 N
b10000100101000000011111111000000 O
b100001 P
b00 R
b11 T
b10 U
1Z
1\
b00101 _
b00111111110000000000000000000000 `
b00101 a
b00000000000000000000000000000000 b
b00000 c
b00000000000000000000000000000000 d
b11 e
b100001 f
b100001 g
b100001 h
b100001 i
b00000000000000000000000000000000 j
b00111111110000000000000000000000 k
b00111111110000000000000000000000 l
0m
b00111111110000000000000000000000 o
b00111111110000000000000000000000 p
b00111111110000000000000000000000 r
b00111111110000000000000000000000 t
b00111111110000000000000000000000 u
b0111111110000000000000000000000 w
b110000001 x
b001111111 y
1z
b00111111110000000000000000000000 {
b00000000000000000000000000000000 |
b001111111 }
b01111111 !"
b00000000 ""
0&"
1'"
0*"
1+"
00"
11"
02"
b110000000000000000000000 4"
b000000000000000000000000 5"
16"
b11010 7"
18"
b11001 9"
b00000000000000000000000000 :"
b00000000000000000000000000 ;"
0<"
b000000000000000000000000000 ="
b011000000000000000000000000 >"
b011000000000000000000000000 @"
1B"
b01100000000000000000000000 C"
b00001 D"
b00001 E"
b00000000000000000000000000110000000000000000000000000 F"
b10000000000000000000000 G"
0J"
b00000000 K"
0L"
b01111111 M"
b0111111110000000000000000000000 N"
b0111111110000000000000000000000 P"
0Q"
b0111111110000000000000000000000 U"
b00111111110000000000000000000000 W"
b00000000000000000000000000 X"
b11001 Y"
b00000000000000000000000000 Z"
0["
b11001 \"
b00000000000000000000000000 ]"
b00000000000000000000000000 ^"
b00000000000000000000000000 `"
b00000000000000000000000000 b"
b00000000000000000000000000 d"
b00000000000000000000000000 f"
0g"
b00000000000000000000000000 h"
0i"
b011000000000000000000000000 j"
b000000000000000000000000000 k"
b011000000000000000000000000 m"
b011000000000000000000000000 n"
b01100000000000000000000000 o"
b00001 p"
b0110000000000000000000000011111 q"
0r"
b011000000000000 s"
0t"
b0110000 u"
0v"
b011 w"
b01 x"
b000 y"
b011000000000000000000000000 z"
b00001 {"
b00000000000000000000000000110000000000000000000000000 |"
b00001 }"
b011000000000000000000000000 !#
b0110000000000000000000000000 "#
b000110000000000000000000000000 ##
b0000000110000000000000000000000000 $#
b000000000000000110000000000000000000000000 %#
b0000000000000000000000000000000110000000000000000000000000 &#
b0111111110000000000000000000000 '#
b0111111110000000000000000000000 *#
b0111111110000000000000000000000 +#
1,#
b00111111110000000000000000000000 -#
b00000000000000000000000000000000 .#
b0000000000 3#
#280000000
0!
0%
0M
0\
0,#
#300000000
1!
b00000000000000000000000000011000 #
b10111111110000000000000000000000 $
1%
b00000000000000000000000000011000 '
b10111111110000000000000000000000 (
b00000000000000000000000000011000 )
b00000000000000000000000000011100 *
b00000000000000000000000000011100 +
b10001100110000000011111111000000 ,
b00110 7
b00110 8
b10111111110000000000000000000000 :
b00000000000000000000000000000000 ;
b100011 A
b100011 B
b10111111110000000000000000000000 D
b11001100000000111111110000000000 F
b00111111110000000000000000011100 G
b00000000000000000000000000011100 H
b00000000000000000000000000000000 I
1M
b00000000000000000000000000011000 N
b10001100110000000011111111000000 O
b100011 P
1\
b00110 _
b10111111110000000000000000000000 `
b00110 a
b00000000000000000000000000000000 b
b100011 f
b100011 g
b100011 h
b100011 i
b00000000000000000000000000000000 j
b10111111110000000000000000000000 l
b10111111110000000000000000000000 o
b10111111110000000000000000000000 p
b00000000000000000000000000000000 q
b10111111110000000000000000000000 r
b00000000000000000000000000000000 s
b10111111110000000000000000000000 t
b10111111110000000000000000000000 u
b0000000000000000000000000000000 v
b110000001 x
b001111111 y
1z
b10111111110000000000000000000000 {
b00000000000000000000000000000000 |
b001111111 }
b01111111 !"
b00000000 ""
1#"
0$"
1%"
0&"
1'"
0*"
1+"
00"
11"
b110000000000000000000000 4"
b000000000000000000000000 5"
16"
b11010 7"
18"
b11001 9"
b00000000000000000000000000 :"
b00000000000000000000000000 ;"
0<"
b111111111111111111111111111 ="
b011000000000000000000000000 >"
1?"
b011000000000000000000000000 @"
1B"
b01100000000000000000000000 C"
b00001 D"
b00001 E"
b00000000000000000000000000110000000000000000000000000 F"
b10000000000000000000000 G"
0H"
0I"
0J"
b00000000 K"
b01111111 M"
b0111111110000000000000000000000 N"
0O"
b0111111110000000000000000000000 P"
b0111111110000000000000000000000 U"
1V"
b10111111110000000000000000000000 W"
b00000000000000000000000000 X"
b11001 Y"
b00000000000000000000000000 Z"
0["
b11001 \"
b00000000000000000000000000 ]"
b00000000000000000000000000 ^"
b00000000000000000000000000 `"
b00000000000000000000000000 b"
b00000000000000000000000000 d"
b00000000000000000000000000 f"
0g"
b00000000000000000000000000 h"
0i"
b011000000000000000000000000 j"
b111111111111111111111111111 k"
1l"
b011000000000000000000000000 m"
b011000000000000000000000000 n"
b01100000000000000000000000 o"
b00001 p"
b0110000000000000000000000011111 q"
b011000000000000 s"
b0110000 u"
b011 w"
b01 x"
b011000000000000000000000000 z"
b00001 {"
b00000000000000000000000000110000000000000000000000000 |"
b00001 }"
b011000000000000000000000000 !#
b0110000000000000000000000000 "#
b000110000000000000000000000000 ##
b0000000110000000000000000000000000 $#
b000000000000000110000000000000000000000000 %#
b0000000000000000000000000000000110000000000000000000000000 &#
b0111111110000000000000000000000 '#
0)#
b0111111110000000000000000000000 *#
b0111111110000000000000000000000 +#
1,#
b10111111110000000000000000000000 -#
b0000000000 3#
#320000000
0!
0%
0M
0\
0,#
#340000000
1!
b00000000000000000000000000011100 #
b11000000010000000000000000000000 $
1%
b00000000000000000000000000011100 '
b11000000010000000000000000000000 (
b00000000000000000000000000011100 )
b00000000000000000000000000100000 *
b00000000000000000000000000100000 +
b00000000110001010011100000100011 ,
b01 -
b00 /
b01 0
05
b00111 7
b00101 9
b11000000010000000000000000000000 :
b10111111110000000000000000000000 ;
b00111111110000000000000000000000 <
b00000000000000000011100000100011 =
b00000000000000000011100000100011 >
b00111000001000110000000000000000 ?
b00000000000000000011100000100011 @
b100011 A
b100011 B
b00111111110000000000000000000000 C
b11000000010000000000000000000000 D
b00001100010100111000001000110000 F
b00000000000000000011100001000011 G
b00000000000000000000000000100000 H
b10111111110000000000000000000000 I
1M
b00000000000000000000000000011100 N
b00000000110001010011100000100011 O
b000000 P
b01 R
b00 T
b01 U
0Z
1\
b00111 _
b11000000010000000000000000000000 `
b10111111110000000000000000000000 b
b00101 c
b00111111110000000000000000000000 d
b00 e
b100011 f
b100011 g
b100011 h
b100011 i
b10111111110000000000000000000000 j
b00111111110000000000000000000000 k
b11000000010000000000000000000000 l
b11000000010000000000000000000000 o
b11000000010000000000000000000000 p
b10111111110000000000000000000000 q
b10111111110000000000000000000000 r
b10111111110000000000000000000000 s
b10111111110000000000000000000000 t
b11000000010000000000000000000000 u
b0111111110000000000000000000000 v
b0111111110000000000000000000000 w
b000000000 x
b000000000 y
0z
b10111111110000000000000000000000 {
b10111111110000000000000000000000 |
b000000000 }
b01111111 !"
b01111111 ""
1#"
1$"
0%"
0&"
0'"
0*"
0+"
01"
02"
b110000000000000000000000 4"
b110000000000000000000000 5"
06"
b00000 7"
08"
b00000 9"
b11000000000000000000000000 :"
b11000000000000000000000000 ;"
b011000000000000000000000000 ="
b011000000000000000000000000 >"
0?"
b110000000000000000000000000 @"
1A"
1B"
b11000000000000000000000000 C"
b00000 D"
b00000 E"
b00000000000000000000000000110000000000000000000000000 F"
b10000000000000000000000 G"
0I"
b11111111 K"
b10000000 M"
b1000000010000000000000000000000 N"
b1000000010000000000000000000000 P"
b1000000010000000000000000000000 U"
1V"
b11000000010000000000000000000000 W"
b11000000000000000000000000 X"
b00000 Y"
b11000000000000000000000000 Z"
b00000 \"
b11000000000000000000000000 ]"
b11000000000000000000000000 ^"
b11000000000000000000000000 `"
b11000000000000000000000000 b"
b11000000000000000000000000 d"
b11000000000000000000000000 f"
b11000000000000000000000000 h"
b011000000000000000000000000 j"
b011000000000000000000000000 k"
0l"
b110000000000000000000000000 m"
b110000000000000000000000000 n"
b11000000000000000000000000 o"
b00000 p"
b1100000000000000000000000011111 q"
b110000000000000 s"
b1100000 u"
b110 w"
b00 x"
b110000000000000000000000000 z"
b00000 {"
b00000000000000000000000000110000000000000000000000000 |"
b00000 }"
b110000000000000000000000000 !#
b0110000000000000000000000000 "#
b000110000000000000000000000000 ##
b0000000110000000000000000000000000 $#
b000000000000000110000000000000000000000000 %#
b0000000000000000000000000000000110000000000000000000000000 &#
b1000000010000000000000000000000 '#
b1000000010000000000000000000000 *#
b1000000010000000000000000000000 +#
1,#
b11000000010000000000000000000000 -#
b00111111110000000000000000000000 .#
b0000000000 3#
#360000000
0!
0%
0M
0\
0,#
#380000000
1!
b00000000000000000000000000100000 #
b01000000010000000000000000000000 $
1%
b00000000000000000000000000100000 '
b01000000010000000000000000000000 (
b00000000000000000000000000100000 )
b00000000000000000000000000100100 *
b00000000000000000000000000100100 +
b00000000101001100011100000100011 ,
b00101 8
b00110 9
b01000000010000000000000000000000 :
b00111111110000000000000000000000 ;
b10111111110000000000000000000000 <
b10111111110000000000000000000000 C
b01000000010000000000000000000000 D
b00001010011000111000001000110000 F
b00000000000000000011100001000111 G
b00000000000000000000000000100100 H
b00111111110000000000000000000000 I
1M
b00000000000000000000000000100000 N
b00000000101001100011100000100011 O
1\
b01000000010000000000000000000000 `
b00101 a
b00111111110000000000000000000000 b
b00110 c
b10111111110000000000000000000000 d
b00111111110000000000000000000000 j
b10111111110000000000000000000000 k
b01000000010000000000000000000000 l
b01000000010000000000000000000000 o
b01000000010000000000000000000000 p
b00111111110000000000000000000000 q
b00111111110000000000000000000000 r
b00111111110000000000000000000000 s
b00111111110000000000000000000000 t
b01000000010000000000000000000000 u
b00111111110000000000000000000000 {
b00111111110000000000000000000000 |
0#"
0$"
0%"
b011000000000000000000000000 ="
0?"
b110000000000000000000000000 @"
1A"
1B"
b11000000000000000000000000 C"
b00000 D"
b00000 E"
b00000000000000000000000000110000000000000000000000000 F"
b10000000000000000000000 G"
b1000000010000000000000000000000 N"
b1000000010000000000000000000000 P"
b1000000010000000000000000000000 U"
0V"
b01000000010000000000000000000000 W"
b011000000000000000000000000 k"
0l"
b110000000000000000000000000 m"
b110000000000000000000000000 n"
b11000000000000000000000000 o"
b00000 p"
b1100000000000000000000000011111 q"
0r"
b110000000000000 s"
0t"
b1100000 u"
0v"
b110 w"
b00 x"
b000 y"
b110000000000000000000000000 z"
b00000 {"
b00000000000000000000000000110000000000000000000000000 |"
b00000 }"
b110000000000000000000000000 !#
b0110000000000000000000000000 "#
b000110000000000000000000000000 ##
b0000000110000000000000000000000000 $#
b000000000000000110000000000000000000000000 %#
b0000000000000000000000000000000110000000000000000000000000 &#
b1000000010000000000000000000000 '#
b1000000010000000000000000000000 *#
b1000000010000000000000000000000 +#
1,#
b01000000010000000000000000000000 -#
b10111111110000000000000000000000 .#
#400000000
0!
0%
0M
0\
0,#
