sim/cpu.vcd
$date
  Mon Dec  8 22:41:45 2025
$end
$version
  GHDL v0
$end
$timescale
  1 fs
$end
$scope module standard $end
$upscope $end
$scope module textio $end
$upscope $end
$scope module std_logic_1164 $end
$upscope $end
$scope module numeric_std $end
$upscope $end
$scope module std_logic_textio $end
$upscope $end
$scope module std_logic_arith $end
$upscope $end
$scope module std_logic_signed $end
$upscope $end
$scope module std_logic_unsigned $end
$upscope $end
$scope module tb_mips32 $end
$var reg 1 ! clk $end
$var reg 1 " reset $end
$var reg 32 # pc_out[31:0] $end
$var reg 32 $ alu_result[31:0] $end
$scope module uut $end
$var reg 1 % clk $end
$var reg 1 & reset $end
$var reg 32 ' pc_out[31:0] $end
$var reg 32 ( alu_result[31:0] $end
$var reg 32 ) pc_current[31:0] $end
$var reg 32 * pc_next[31:0] $end
$var reg 32 + pc_plus4_if[31:0] $end
$var reg 32 , instr_if[31:0] $end
$var reg 32 - if_id_pc_plus4[31:0] $end
$var reg 32 . if_id_instr[31:0] $end
$var reg 2 / reg_dst[1:0] $end
$var reg 2 0 mem_to_reg[1:0] $end
$var reg 2 1 alu_op[1:0] $end
$var reg 2 2 sign_or_zero[1:0] $end
$var reg 1 3 jump $end
$var reg 1 4 branch $end
$var reg 1 5 mem_read $end
$var reg 1 6 mem_write $end
$var reg 1 7 alu_src $end
$var reg 1 8 reg_write $end
$var reg 32 9 reg_read_data_1[31:0] $end
$var reg 32 : reg_read_data_2[31:0] $end
$var reg 32 ; sign_ext_im[31:0] $end
$var reg 32 < zero_ext_im[31:0] $end
$var reg 32 = float_ext_im[31:0] $end
$var reg 32 > imm_ext_id[31:0] $end
$var reg 1 ? wb_reg_write_id $end
$var reg 2 @ wb_mem_to_reg_id[1:0] $end
$var reg 1 A m_mem_read_id $end
$var reg 1 B m_mem_write_id $end
$var reg 1 C m_branch_id $end
$var reg 1 D ex_alu_src_id $end
$var reg 2 E ex_reg_dst_id[1:0] $end
$var reg 2 F ex_alu_op_id[1:0] $end
$var reg 32 G id_ex_pc_plus4[31:0] $end
$var reg 32 H id_ex_read_data_1[31:0] $end
$var reg 32 I id_ex_read_data_2[31:0] $end
$var reg 32 J id_ex_imm_ext[31:0] $end
$var reg 5 K id_ex_instr_25_21[4:0] $end
$var reg 5 L id_ex_instr_20_16[4:0] $end
$var reg 5 M id_ex_instr_15_11[4:0] $end
$var reg 6 N id_ex_funct[5:0] $end
$var reg 1 O id_ex_wb_reg_write $end
$var reg 2 P id_ex_wb_mem_to_reg[1:0] $end
$var reg 1 Q id_ex_m_mem_read $end
$var reg 1 R id_ex_m_mem_write $end
$var reg 1 S id_ex_m_branch $end
$var reg 1 T id_ex_ex_alu_src $end
$var reg 2 U id_ex_ex_reg_dst[1:0] $end
$var reg 2 V id_ex_ex_alu_op[1:0] $end
$var reg 6 W alu_cont_ex[5:0] $end
$var reg 32 X alu_in_b_ex[31:0] $end
$var reg 32 Y alu_result_ex[31:0] $end
$var reg 1 Z zero_flag_ex $end
$var reg 5 [ reg_write_dest_ex[4:0] $end
$var reg 32 \ branch_target_ex[31:0] $end
$var reg 32 ] ex_mem_alu_result[31:0] $end
$var reg 32 ^ ex_mem_write_data[31:0] $end
$var reg 5 _ ex_mem_reg_dest[4:0] $end
$var reg 1 ` ex_mem_zero $end
$var reg 32 a ex_mem_branch_target[31:0] $end
$var reg 1 b ex_mem_wb_reg_write $end
$var reg 2 c ex_mem_wb_mem_to_reg[1:0] $end
$var reg 1 d ex_mem_m_mem_read $end
$var reg 1 e ex_mem_m_mem_write $end
$var reg 1 f ex_mem_m_branch $end
$var reg 32 g mem_read_data_mem[31:0] $end
$var reg 1 h pc_src_mem $end
$var reg 32 i mem_wb_read_data[31:0] $end
$var reg 32 j mem_wb_alu_result[31:0] $end
$var reg 5 k mem_wb_reg_dest[4:0] $end
$var reg 32 l mem_wb_pc_plus4[31:0] $end
$var reg 1 m mem_wb_wb_reg_write $end
$var reg 2 n mem_wb_wb_mem_to_reg[1:0] $end
$var reg 32 o write_back_data_wb[31:0] $end
$var reg 2 p forwarda[1:0] $end
$var reg 2 q forwardb[1:0] $end
$var reg 32 r alu_src_a_mux[31:0] $end
$var reg 32 s alu_src_b_mux[31:0] $end
$scope module imem $end
$var reg 1 t clk $end
$var reg 32 u pc[31:0] $end
$var reg 32 v instruction[31:0] $end
$comment mem is not handled $end
$upscope $end
$scope module ctrl $end
$var reg 6 w opcode[5:0] $end
$var reg 1 x reset $end
$var reg 2 y reg_dst[1:0] $end
$var reg 2 z mem_to_reg[1:0] $end
$var reg 2 { alu_op[1:0] $end
$var reg 2 | sign_or_zero[1:0] $end
$var reg 1 } jump $end
$var reg 1 !" branch $end
$var reg 1 "" mem_read $end
$var reg 1 #" mem_write $end
$var reg 1 $" alu_src $end
$var reg 1 %" reg_write $end
$upscope $end
$scope module regfile $end
$var reg 1 &" clk $end
$var reg 1 '" rst $end
$var reg 1 (" reg_write_en $end
$var reg 5 )" reg_write_dest[4:0] $end
$var reg 32 *" reg_write_data[31:0] $end
$var reg 5 +" reg_read_addr_1[4:0] $end
$var reg 32 ," reg_read_data_1[31:0] $end
$var reg 5 -" reg_read_addr_2[4:0] $end
$var reg 32 ." reg_read_data_2[31:0] $end
$comment reg_array is not handled $end
$upscope $end
$scope module fw_unit $end
$var reg 5 /" id_ex_rs[4:0] $end
$var reg 5 0" id_ex_rt[4:0] $end
$var reg 5 1" ex_mem_rd[4:0] $end
$var reg 5 2" mem_wb_rd[4:0] $end
$var reg 1 3" ex_mem_regwrite $end
$var reg 1 4" mem_wb_regwrite $end
$var reg 2 5" forwarda[1:0] $end
$var reg 2 6" forwardb[1:0] $end
$upscope $end
$scope module alucontrol $end
$var reg 2 7" op[1:0] $end
$var reg 6 8" funct[5:0] $end
$var reg 6 9" alu_cont[5:0] $end
$var reg 6 :" result[5:0] $end
$upscope $end
$scope module alu $end
$var reg 6 ;" alu_cont[5:0] $end
$var reg 32 <" a[31:0] $end
$var reg 32 =" b[31:0] $end
$var reg 32 >" alu_result[31:0] $end
$var reg 1 ?" zero $end
$var reg 33 @" int_res[32:0] $end
$var reg 32 A" float_res[31:0] $end
$var reg 32 B" result[31:0] $end
$var reg 32 C" fadd_x[31:0] $end
$var reg 32 D" fadd_y[31:0] $end
$scope module u_fadd $end
$var reg 32 E" x[31:0] $end
$var reg 32 F" y[31:0] $end
$var reg 32 G" r[31:0] $end
$var reg 31 H" expfracx[30:0] $end
$var reg 31 I" expfracy[30:0] $end
$var reg 9 J" expxmexpy[8:0] $end
$var reg 9 K" expymexpx[8:0] $end
$var reg 1 L" swap $end
$var reg 32 M" newx[31:0] $end
$var reg 32 N" newy[31:0] $end
$var reg 9 O" expdiff[8:0] $end
$var reg 8 P" expnewx[7:0] $end
$var reg 8 Q" expnewy[7:0] $end
$var reg 1 R" signnewx $end
$var reg 1 S" signnewy $end
$var reg 1 T" effsub $end
$var reg 1 U" xexpfieldzero $end
$var reg 1 V" yexpfieldzero $end
$var reg 1 W" xexpfieldallones $end
$var reg 1 X" yexpfieldallones $end
$var reg 1 Y" xsigfieldzero $end
$var reg 1 Z" ysigfieldzero $end
$var reg 1 [" xisnan $end
$var reg 1 \" yisnan $end
$var reg 1 ]" xisinfinity $end
$var reg 1 ^" yisinfinity $end
$var reg 1 _" xiszero $end
$var reg 1 `" yiszero $end
$var reg 1 a" bothsubnormals $end
$var reg 1 b" resultisnan $end
$var reg 24 c" significandnewx[23:0] $end
$var reg 24 d" significandnewy[23:0] $end
$var reg 1 e" allshiftedout $end
$var reg 5 f" rightshiftvalue[4:0] $end
$var reg 1 g" shiftcorrection $end
$var reg 5 h" finalrightshiftvalue[4:0] $end
$var reg 26 i" significandy00[25:0] $end
$var reg 26 j" shiftedsignificandy[25:0] $end
$var reg 1 k" stickylow $end
$var reg 27 l" summandy[26:0] $end
$var reg 27 m" summandx[26:0] $end
$var reg 1 n" carryin $end
$var reg 27 o" significandz[26:0] $end
$var reg 1 p" z1 $end
$var reg 1 q" z0 $end
$var reg 26 r" lzczinput[25:0] $end
$var reg 5 s" lzc[4:0] $end
$var reg 5 t" leftshiftval[4:0] $end
$var reg 53 u" normalizedsignificand[52:0] $end
$var reg 23 v" significandpreround[22:0] $end
$var reg 1 w" lsb $end
$var reg 1 x" roundbit $end
$var reg 1 y" stickybit $end
$var reg 8 z" deltaexp[7:0] $end
$var reg 1 {" fullcancellation $end
$var reg 8 |" exppreround[7:0] $end
$var reg 31 }" expsigpreround[30:0] $end
$var reg 1 !# roundupbit $end
$var reg 31 "# expsigr[30:0] $end
$var reg 1 ## resultiszero $end
$var reg 1 $# resultisinf $end
$var reg 31 %# constinf[30:0] $end
$var reg 31 &# constnan[30:0] $end
$var reg 31 '# expsigr2[30:0] $end
$var reg 1 (# signr $end
$var reg 32 )# computedr[31:0] $end
$scope module rightshiftercomponent $end
$var reg 26 *# x[25:0] $end
$var reg 5 +# s[4:0] $end
$var reg 26 ,# r[25:0] $end
$var reg 1 -# sticky $end
$var reg 5 .# ps[4:0] $end
$var reg 26 /# xpadded[25:0] $end
$var reg 26 0# level5[25:0] $end
$var reg 1 1# stk4 $end
$var reg 26 2# level4[25:0] $end
$var reg 1 3# stk3 $end
$var reg 26 4# level3[25:0] $end
$var reg 1 5# stk2 $end
$var reg 26 6# level2[25:0] $end
$var reg 1 7# stk1 $end
$var reg 26 8# level1[25:0] $end
$var reg 1 9# stk0 $end
$var reg 26 :# level0[25:0] $end
$var reg 1 ;# stk $end
$upscope $end
$scope module fracadder $end
$var reg 27 <# x[26:0] $end
$var reg 27 =# y[26:0] $end
$var reg 1 ># cin $end
$var reg 27 ?# r[26:0] $end
$var reg 27 @# rtmp[26:0] $end
$upscope $end
$scope module ieeefpadd_8_23_comb_uid2leadingzerocounter $end
$var reg 26 A# i[25:0] $end
$var reg 5 B# o[4:0] $end
$var reg 31 C# level5[30:0] $end
$var reg 1 D# digit4 $end
$var reg 15 E# level4[14:0] $end
$var reg 1 F# digit3 $end
$var reg 7 G# level3[6:0] $end
$var reg 1 H# digit2 $end
$var reg 3 I# level2[2:0] $end
$var reg 2 J# lowbits[1:0] $end
$var reg 3 K# outhighbits[2:0] $end
$upscope $end
$scope module leftshiftercomponent $end
$var reg 27 L# x[26:0] $end
$var reg 5 M# s[4:0] $end
$var reg 53 N# r[52:0] $end
$var reg 5 O# ps[4:0] $end
$var reg 27 P# level0[26:0] $end
$var reg 28 Q# level1[27:0] $end
$var reg 30 R# level2[29:0] $end
$var reg 34 S# level3[33:0] $end
$var reg 42 T# level4[41:0] $end
$var reg 58 U# level5[57:0] $end
$upscope $end
$scope module roundingadder $end
$var reg 31 V# x[30:0] $end
$var reg 31 W# y[30:0] $end
$var reg 1 X# cin $end
$var reg 31 Y# r[30:0] $end
$var reg 31 Z# rtmp[30:0] $end
$upscope $end
$upscope $end
$upscope $end
$scope module dmem $end
$var reg 1 [# clk $end
$var reg 32 \# mem_access_addr[31:0] $end
$var reg 32 ]# mem_write_data[31:0] $end
$var reg 1 ^# mem_write_en $end
$var reg 1 _# mem_read $end
$var reg 32 `# mem_read_data[31:0] $end
$var integer 32 a# i $end
$var reg 10 b# ram_addr[9:0] $end
$comment ram is not handled $end
$upscope $end
$upscope $end
$upscope $end
$enddefinitions $end
#0
0!
1"
b00000000000000000000000000000000 #
bUUUUUUUUUUUUUUUUUUUUUUUUUUUUUUUU $
0%
1&
b00000000000000000000000000000000 '
bUUUUUUUUUUUUUUUUUUUUUUUUUUUUUUUU (
b00000000000000000000000000000000 )
bUUUUUUUUUUUUUUUUUUUUUUUUUUUUUUUU *
b00000000000000000000000000000100 +
b00000000000000000000000000000000 ,
b00000000000000000000000000000000 -
b00000000000000000000000000000000 .
b00 /
b00 0
b00 1
b01 2
03
04
05
06
07
08
b00000000000000000000000000000000 9
b00000000000000000000000000000000 :
b00000000000000000000000000000000 ;
b00000000000000000000000000000000 <
b00000000000000000000000000000000 =
b00000000000000000000000000000000 >
0?
b00 @
0A
0B
0C
0D
b00 E
b00 F
bUUUUUUUUUUUUUUUUUUUUUUUUUUUUUUUU G
bUUUUUUUUUUUUUUUUUUUUUUUUUUUUUUUU H
bUUUUUUUUUUUUUUUUUUUUUUUUUUUUUUUU I
bUUUUUUUUUUUUUUUUUUUUUUUUUUUUUUUU J
bUUUUU K
bUUUUU L
bUUUUU M
bUUUUUU N
0O
bUU P
UQ
0R
0S
UT
bUU U
bUU V
b100000 W
bUUUUUUUUUUUUUUUUUUUUUUUUUUUUUUUU X
bXXXXXXXXXXXXXXXXXXXXXXXXXXXXXXXX Y
0Z
bUUUUU [
bXXXXXXXXXXXXXXXXXXXXXXXXXXXXXXXX \
bUUUUUUUUUUUUUUUUUUUUUUUUUUUUUUUU ]
bUUUUUUUUUUUUUUUUUUUUUUUUUUUUUUUU ^
bUUUUU _
U`
bUUUUUUUUUUUUUUUUUUUUUUUUUUUUUUUU a
Ub
bUU c
Ud
Ue
Uf
b00000000000000000000000000000000 g
Uh
bUUUUUUUUUUUUUUUUUUUUUUUUUUUUUUUU i
bUUUUUUUUUUUUUUUUUUUUUUUUUUUUUUUU j
bUUUUU k
bUUUUUUUUUUUUUUUUUUUUUUUUUUUUUUUU l
0m
bUU n
bUUUUUUUUUUUUUUUUUUUUUUUUUUUUUUUU o
b00 p
b00 q
bUUUUUUUUUUUUUUUUUUUUUUUUUUUUUUUU r
bUUUUUUUUUUUUUUUUUUUUUUUUUUUUUUUU s
0t
b00000000000000000000000000000000 u
b00000000000000000000000000000000 v
b000000 w
1x
b00 y
b00 z
b00 {
b01 |
0}
0!"
0""
0#"
0$"
0%"
0&"
1'"
0("
bUUUUU )"
bUUUUUUUUUUUUUUUUUUUUUUUUUUUUUUUU *"
b00000 +"
b00000000000000000000000000000000 ,"
b00000 -"
b00000000000000000000000000000000 ."
bUUUUU /"
bUUUUU 0"
bUUUUU 1"
bUUUUU 2"
U3"
04"
b00 5"
b00 6"
bUU 7"
bUUUUUU 8"
b100000 9"
b100000 :"
b100000 ;"
bUUUUUUUUUUUUUUUUUUUUUUUUUUUUUUUU <"
bUUUUUUUUUUUUUUUUUUUUUUUUUUUUUUUU ="
bXXXXXXXXXXXXXXXXXXXXXXXXXXXXXXXX >"
0?"
bUUUUUUUUUUUUUUUUUUUUUUUUUUUUUUUUU @"
b00000000000000000000000000000000 A"
bXXXXXXXXXXXXXXXXXXXXXXXXXXXXXXXX B"
b00000000000000000000000000000000 C"
b00000000000000000000000000000000 D"
b00000000000000000000000000000000 E"
b00000000000000000000000000000000 F"
b00000000000000000000000000000000 G"
b0000000000000000000000000000000 H"
b0000000000000000000000000000000 I"
b000000000 J"
b000000000 K"
0L"
b00000000000000000000000000000000 M"
b00000000000000000000000000000000 N"
b000000000 O"
b00000000 P"
b00000000 Q"
0R"
0S"
0T"
1U"
1V"
0W"
0X"
1Y"
1Z"
0["
0\"
0]"
0^"
1_"
1`"
1a"
0b"
b000000000000000000000000 c"
b000000000000000000000000 d"
0e"
b00000 f"
0g"
b00000 h"
b00000000000000000000000000 i"
b00000000000000000000000000 j"
0k"
b000000000000000000000000000 l"
b000000000000000000000000000 m"
0n"
b000000000000000000000000000 o"
0p"
0q"
b00000000000000000000000000 r"
b11010 s"
b00001 t"
b00000000000000000000000000000000000000000000000000000 u"
b00000000000000000000000 v"
0w"
0x"
0y"
b00000000 z"
1{"
b00000000 |"
b0000000000000000000000000000000 }"
0!#
b0000000000000000000000000000000 "#
1##
0$#
b1111111100000000000000000000000 %#
b1111111111111111111111111111111 &#
b0000000000000000000000000000000 '#
0(#
b00000000000000000000000000000000 )#
b00000000000000000000000000 *#
b00000 +#
b00000000000000000000000000 ,#
0-#
b00000 .#
b00000000000000000000000000 /#
b00000000000000000000000000 0#
01#
b00000000000000000000000000 2#
03#
b00000000000000000000000000 4#
05#
b00000000000000000000000000 6#
07#
b00000000000000000000000000 8#
09#
b00000000000000000000000000 :#
0;#
b000000000000000000000000000 <#
b000000000000000000000000000 =#
0>#
b000000000000000000000000000 ?#
b000000000000000000000000000 @#
b00000000000000000000000000 A#
b11010 B#
b0000000000000000000000000011111 C#
1D#
b000000000011111 E#
1F#
b0011111 G#
0H#
b001 I#
b10 J#
b110 K#
b000000000000000000000000000 L#
b00001 M#
b00000000000000000000000000000000000000000000000000000 N#
b00001 O#
b000000000000000000000000000 P#
b0000000000000000000000000000 Q#
b000000000000000000000000000000 R#
b0000000000000000000000000000000000 S#
b000000000000000000000000000000000000000000 T#
b0000000000000000000000000000000000000000000000000000000000 U#
b0000000000000000000000000000000 V#
b0000000000000000000000000000000 W#
0X#
b0000000000000000000000000000000 Y#
b0000000000000000000000000000000 Z#
0[#
bUUUUUUUUUUUUUUUUUUUUUUUUUUUUUUUU \#
bUUUUUUUUUUUUUUUUUUUUUUUUUUUUUUUU ]#
U^#
U_#
b00000000000000000000000000000000 `#
b10000000000000000000000000000000 a#
bUUUUUUUUUU b#
#5000000
1!
1%
1t
1&"
1[#
#10000000
0!
0%
0t
0&"
0[#
#15000000
1!
1%
1t
1&"
1[#
#20000000
0!
0"
0%
0&
b01 /
18
1?
b01 E
0t
0x
b01 y
1%"
0&"
0'"
0[#
#25000000
1!
b00000000000000000000000000000100 #
1%
b00000000000000000000000000000100 '
b00000000000000000000000000000100 )
b00000000000000000000000000001000 +
b00000000000000000000000000000100 -
b00000000000000000000000000000000 G
b00000000000000000000000000000000 H
b00000000000000000000000000000000 I
b00000000000000000000000000000000 J
b00000 K
b00000 L
b00000 M
b000000 N
1O
b00 P
0Q
0T
b01 U
b00 V
b000000 W
b00000000000000000000000000000000 X
b00000000000000000000000000000000 Y
1Z
b00000 [
b00000000000000000000000000000000 \
bXXXXXXXXXXXXXXXXXXXXXXXXXXXXXXXX ]
0`
bXXXXXXXXXXXXXXXXXXXXXXXXXXXXXXXX a
0b
0e
0f
0h
b00000000000000000000000000000000 i
Um
b00000000000000000000000000000000 r
b00000000000000000000000000000000 s
1t
b00000000000000000000000000000100 u
1&"
U("
b00000 /"
b00000 0"
03"
U4"
b00 7"
b000000 8"
b000000 9"
b000000 :"
b000000 ;"
b00000000000000000000000000000000 <"
b00000000000000000000000000000000 ="
b00000000000000000000000000000000 >"
1?"
b00000000000000000000000000000000 B"
1[#
bXXXXXXXXXXXXXXXXXXXXXXXXXXXXXXXX \#
0^#
bXXXXXXXXXX b#
#30000000
0!
0%
b10000000001000000000000000001111 ,
0t
b10000000001000000000000000001111 v
0&"
0[#
#35000000
1!
b00000000000000000000000000001000 #
bXXXXXXXXXXXXXXXXXXXXXXXXXXXXXXXX $
1%
b00000000000000000000000000001000 '
bXXXXXXXXXXXXXXXXXXXXXXXXXXXXXXXX (
b00000000000000000000000000001000 )
b00000000000000000000000000001100 +
b10000000010000000000000000000011 ,
b00000000000000000000000000001000 -
b10000000001000000000000000001111 .
b00 /
b11 1
17
b00000000000000000000000000001111 ;
b00000000000000000000000000001111 <
b00000000000011110000000000000000 =
b00000000000000000000000000001111 >
1D
b00 E
b11 F
b00000000000000000000000000000100 G
b00000000000000000000000000000100 \
b00000000000000000000000000000000 ]
b00000000000000000000000000000000 ^
b00000 _
1`
b00000000000000000000000000000000 a
1b
b00 c
0d
bXXXXXXXXXXXXXXXXXXXXXXXXXXXXXXXX j
0m
bXXXXXXXXXXXXXXXXXXXXXXXXXXXXXXXX o
1t
b00000000000000000000000000001000 u
b10000000010000000000000000000011 v
b100000 w
b00 y
b11 {
1$"
1&"
0("
bXXXXXXXXXXXXXXXXXXXXXXXXXXXXXXXX *"
b00001 +"
b00000 1"
13"
04"
1[#
b00000000000000000000000000000000 \#
b00000000000000000000000000000000 ]#
0_#
b0000000000 b#
#40000000
0!
0%
0t
0&"
0[#
#45000000
1!
b00000000000000000000000000001100 #
b00000000000000000000000000000000 $
1%
b00000000000000000000000000001100 '
b00000000000000000000000000000000 (
b00000000000000000000000000001100 )
b00000000000000000000000000010000 +
b00000000001000100001100000100000 ,
b00000000000000000000000000001100 -
b10000000010000000000000000000011 .
b00000000000000000000000000000011 ;
b00000000000000000000000000000011 <
b00000000000000110000000000000000 =
b00000000000000000000000000000011 >
b00000000000000000000000000001000 G
b00000000000000000000000000001111 J
b00001 K
b001111 N
1T
b00 U
b11 V
b001111 W
b00000000000000000000000000001111 X
b00000000000000000000000000001111 Y
0Z
b00001 [
b00000000000000000000000001000100 \
b00000000000000000000000000000100 a
b00000000000000000000000000000000 j
b00000 k
1m
b00 n
b00000000000000000000000000000000 o
1t
b00000000000000000000000000001100 u
b00000000001000100001100000100000 v
1&"
1("
b00000 )"
b00000000000000000000000000000000 *"
b00010 +"
b00001 /"
b00000 2"
14"
b11 7"
b001111 8"
b001111 9"
b001111 :"
b001111 ;"
b00000000000000000000000000001111 ="
b00000000000000000000000000001111 >"
0?"
b00000000000000000000000000001111 B"
1[#
#50000000
0!
0%
0t
0&"
0[#
#55000000
1!
b00000000000000000000000000010000 #
1%
b00000000000000000000000000010000 '
b00000000000000000000000000010000 )
b00000000000000000000000000010100 +
b00000000001000100001100000100010 ,
b00000000000000000000000000010000 -
b00000000001000100001100000100000 .
b01 /
b00 1
07
b00000000000000000001100000100000 ;
b00000000000000000001100000100000 <
b00011000001000000000000000000000 =
b00000000000000000001100000100000 >
0D
b01 E
b00 F
b00000000000000000000000000001100 G
b00000000000000000000000000000011 J
b00010 K
b000011 N
b000011 W
b00000000000000000000000000000011 X
b00000000000000000000000000000011 Y
b00010 [
b00000000000000000000000000011000 \
b00000000000000000000000000001111 ]
b00001 _
0`
b00000000000000000000000001000100 a
1t
b00000000000000000000000000010000 u
b00000000001000100001100000100010 v
b000000 w
b01 y
b00 {
0$"
1&"
b00001 +"
b00010 -"
b00010 /"
b00001 1"
b000011 8"
b000011 9"
b000011 :"
b000011 ;"
b00000000000000000000000000000011 ="
b00000000000000000000000000000011 >"
b00000000000000000000000000000011 B"
1[#
b00000000000000000000000000001111 \#
b0000000011 b#
#60000000
0!
0%
0t
0&"
0[#
#65000000
1!
b00000000000000000000000000010100 #
b00000000000000000000000000001111 $
1%
b00000000000000000000000000010100 '
b00000000000000000000000000001111 (
b00000000000000000000000000010100 )
b00000000000000000000000000011000 +
b10000100101000000011111111000000 ,
b00000000000000000000000000010100 -
b00000000001000100001100000100010 .
b00000000000000000000000000001111 9
b00000000000000000001100000100010 ;
b00000000000000000001100000100010 <
b00011000001000100000000000000000 =
b00000000000000000001100000100010 >
b00000000000000000000000000010000 G
b00000000000000000001100000100000 J
b00001 K
b00010 L
b00011 M
b100000 N
0T
b01 U
b00 V
b100000 W
b00000000000000000000000000000011 X
b00000000000000000000000000010010 Y
0Z
b00011 [
b00000000000000000110000010010000 \
b00000000000000000000000000000011 ]
b00010 _
b00000000000000000000000000011000 a
b00000000000000000000000000001111 j
b00001 k
b00000000000000000000000000001111 o
b01 p
b10 q
b00000000000000000000000000001111 r
b00000000000000000000000000000011 s
1t
b00000000000000000000000000010100 u
b10000100101000000011111111000000 v
1&"
b00001 )"
b00000000000000000000000000001111 *"
b00000000000000000000000000001111 ,"
b00001 /"
b00010 0"
b00010 1"
b00001 2"
b01 5"
b10 6"
b00 7"
b100000 8"
b100000 9"
b100000 :"
b100000 ;"
b00000000000000000000000000001111 <"
b00000000000000000000000000000011 ="
b00000000000000000000000000010010 >"
0?"
b00000000000000000000000000010010 B"
1[#
b00000000000000000000000000000011 \#
b0000000000 b#
#70000000
0!
0%
0t
0&"
0[#
#75000000
1!
b00000000000000000000000000011000 #
b00000000000000000000000000000011 $
1%
b00000000000000000000000000011000 '
b00000000000000000000000000000011 (
b00000000000000000000000000011000 )
b00000000000000000000000000011100 +
b10001100110000000011111111000000 ,
b00000000000000000000000000011000 -
b10000100101000000011111111000000 .
b00 /
b11 1
b10 2
17
b00000000000000000000000000000000 9
b00000000000000000011111111000000 ;
b00000000000000000011111111000000 <
b00111111110000000000000000000000 =
b00111111110000000000000000000000 >
1D
b00 E
b11 F
b00000000000000000000000000010100 G
b00000000000000000000000000001111 H
b00000000000000000001100000100010 J
b100010 N
b100010 W
b00000000000000000000000000000011 X
b00000000000000000000000000001100 Y
b00000000000000000110000010011100 \
b00000000000000000000000000010010 ]
b00000000000000000000000000000011 ^
b00011 _
b00000000000000000110000010010000 a
b00000000000000000000000000000011 j
b00010 k
b00000000000000000000000000000011 o
b00 p
b01 q
b00000000000000000000000000000011 s
1t
b00000000000000000000000000011000 u
b10001100110000000011111111000000 v
b100001 w
b00 y
b11 {
b10 |
1$"
1&"
b00010 )"
b00000000000000000000000000000011 *"
b00101 +"
b00000000000000000000000000000000 ,"
b00000 -"
b00011 1"
b00010 2"
b00 5"
b01 6"
b100010 8"
b100010 9"
b100010 :"
b100010 ;"
b00000000000000000000000000000011 ="
b00000000000000000000000000001100 >"
b00000000000000000000000000001100 B"
1[#
b00000000000000000000000000010010 \#
b00000000000000000000000000000011 ]#
b0000000100 b#
#80000000
0!
0%
0t
0&"
0[#
#85000000
1!
b00000000000000000000000000011100 #
b00000000000000000000000000010010 $
1%
b00000000000000000000000000011100 '
b00000000000000000000000000010010 (
b00000000000000000000000000011100 )
b00000000000000000000000000100000 +
b00000000110001010011100000100011 ,
b00000000000000000000000000011100 -
b10001100110000000011111111000000 .
b00000000000000000000000000011000 G
b00000000000000000000000000000000 H
b00111111110000000000000000000000 J
b00101 K
b00000 L
b00111 M
b000000 N
1T
b00 U
b11 V
b000000 W
b00111111110000000000000000000000 X
b00111111110000000000000000000000 Y
b00101 [
b11111111000000000000000000011000 \
b00000000000000000000000000001100 ]
b00000000000000000110000010011100 a
b00000000000000000000000000010010 j
b00011 k
b00000000000000000000000000010010 o
b00 q
b00000000000000000000000000000000 r
b00000000000000000000000000000000 s
1t
b00000000000000000000000000011100 u
b00000000110001010011100000100011 v
b100011 w
1&"
b00011 )"
b00000000000000000000000000010010 *"
b00110 +"
b00101 /"
b00000 0"
b00011 2"
b00 6"
b11 7"
b000000 8"
b000000 9"
b000000 :"
b000000 ;"
b00000000000000000000000000000000 <"
b00111111110000000000000000000000 ="
b00111111110000000000000000000000 >"
b00111111110000000000000000000000 B"
1[#
b00000000000000000000000000001100 \#
b0000000011 b#
#90000000
0!
0%
0t
0&"
0[#
#95000000
1!
b00000000000000000000000000100000 #
b00000000000000000000000000001100 $
1%
b00000000000000000000000000100000 '
b00000000000000000000000000001100 (
b00000000000000000000000000100000 )
b00000000000000000000000000100100 +
b00000000101001100011100000100011 ,
b00000000000000000000000000100000 -
b00000000110001010011100000100011 .
b01 /
b00 1
b01 2
07
b00000000000000000011100000100011 ;
b00000000000000000011100000100011 <
b00111000001000110000000000000000 =
b00000000000000000011100000100011 >
0D
b01 E
b00 F
b00000000000000000000000000011100 G
b00110 K
b00110 [
b11111111000000000000000000011100 \
b00111111110000000000000000000000 ]
b00000000000000000000000000000000 ^
b00101 _
b11111111000000000000000000011000 a
b00000000000000000000000000001100 j
b00000000000000000000000000001100 o
1t
b00000000000000000000000000100000 u
b00000000101001100011100000100011 v
b000000 w
b01 y
b00 {
b01 |
0$"
1&"
b00000000000000000000000000001100 *"
b00101 -"
b00110 /"
b00101 1"
1[#
b00111111110000000000000000000000 \#
b00000000000000000000000000000000 ]#
b0000000000 b#
#100000000
0!
0%
0t
0&"
0[#
