sim/cpu.vcd
$date
  Sun Nov 16 11:31:22 2025
$end
$version
  GHDL v0
$end
$timescale
  1 fs
$end
$scope module standard $end
$upscope $end
$scope module textio $end
$upscope $end
$scope module std_logic_1164 $end
$upscope $end
$scope module numeric_std $end
$upscope $end
$scope module std_logic_textio $end
$upscope $end
$scope module std_logic_arith $end
$upscope $end
$scope module std_logic_signed $end
$upscope $end
$scope module std_logic_unsigned $end
$upscope $end
$scope module tb_mips32 $end
$var reg 1 ! clk $end
$var reg 1 " reset $end
$var reg 32 # pc_out[31:0] $end
$var reg 32 $ alu_result[31:0] $end
$scope module uut $end
$var reg 1 % clk $end
$var reg 1 & reset $end
$var reg 32 ' pc_out[31:0] $end
$var reg 32 ( alu_result[31:0] $end
$var reg 32 ) pc_current[31:0] $end
$var reg 32 * pc_next[31:0] $end
$var reg 32 + pc_plus4[31:0] $end
$var reg 32 , instr[31:0] $end
$var reg 2 - reg_dst[1:0] $end
$var reg 2 . mem_to_reg[1:0] $end
$var reg 2 / alu_op[1:0] $end
$var reg 1 0 jump $end
$var reg 1 1 branch $end
$var reg 1 2 mem_read $end
$var reg 1 3 mem_write $end
$var reg 1 4 alu_src $end
$var reg 1 5 reg_write $end
$var reg 1 6 sign_or_zero $end
$var reg 5 7 reg_write_dest[4:0] $end
$var reg 5 8 reg_read_addr_1[4:0] $end
$var reg 5 9 reg_read_addr_2[4:0] $end
$var reg 32 : reg_write_data[31:0] $end
$var reg 32 ; reg_read_data_1[31:0] $end
$var reg 32 < reg_read_data_2[31:0] $end
$var reg 32 = sign_ext_im[31:0] $end
$var reg 32 > zero_ext_im[31:0] $end
$var reg 32 ? imm_ext[31:0] $end
$var reg 6 @ alu_cont[5:0] $end
$var reg 6 A funct[5:0] $end
$var reg 32 B read_data2[31:0] $end
$var reg 32 C alu_out[31:0] $end
$var reg 1 D zero_flag $end
$var reg 32 E jump_shift_1[31:0] $end
$var reg 32 F pc_beq[31:0] $end
$var reg 32 G pc_4beqj[31:0] $end
$var reg 32 H pc_jr[31:0] $end
$var reg 1 I beq_control $end
$var reg 1 J jrcontrol $end
$var reg 32 K mem_read_data[31:0] $end
$scope module imem $end
$var reg 1 L clk $end
$var reg 32 M pc[31:0] $end
$var reg 32 N instruction[31:0] $end
$comment mem is not handled $end
$upscope $end
$scope module ctrl $end
$var reg 6 O opcode[5:0] $end
$var reg 1 P reset $end
$var reg 2 Q reg_dst[1:0] $end
$var reg 2 R mem_to_reg[1:0] $end
$var reg 2 S alu_op[1:0] $end
$var reg 1 T jump $end
$var reg 1 U branch $end
$var reg 1 V mem_read $end
$var reg 1 W mem_write $end
$var reg 1 X alu_src $end
$var reg 1 Y reg_write $end
$var reg 1 Z sign_or_zero $end
$upscope $end
$scope module regfile $end
$var reg 1 [ clk $end
$var reg 1 \ rst $end
$var reg 1 ] reg_write_en $end
$var reg 5 ^ reg_write_dest[4:0] $end
$var reg 32 _ reg_write_data[31:0] $end
$var reg 5 ` reg_read_addr_1[4:0] $end
$var reg 32 a reg_read_data_1[31:0] $end
$var reg 5 b reg_read_addr_2[4:0] $end
$var reg 32 c reg_read_data_2[31:0] $end
$comment reg_array is not handled $end
$upscope $end
$scope module alucontrol $end
$var reg 2 d op[1:0] $end
$var reg 6 e funct[5:0] $end
$var reg 6 f alu_cont[5:0] $end
$var reg 6 g result[5:0] $end
$upscope $end
$scope module alu $end
$var reg 6 h alu_cont[5:0] $end
$var reg 32 i a[31:0] $end
$var reg 32 j b[31:0] $end
$var reg 32 k alu_result[31:0] $end
$var reg 1 l zero $end
$var reg 33 m int_res[32:0] $end
$var reg 32 n float_res[31:0] $end
$var reg 32 o result[31:0] $end
$var reg 32 p fadd_x[31:0] $end
$var reg 32 q fadd_y[31:0] $end
$scope module u_fadd $end
$var reg 32 r x[31:0] $end
$var reg 32 s y[31:0] $end
$var reg 32 t r[31:0] $end
$var reg 31 u expfracx[30:0] $end
$var reg 31 v expfracy[30:0] $end
$var reg 9 w expxmexpy[8:0] $end
$var reg 9 x expymexpx[8:0] $end
$var reg 1 y swap $end
$var reg 32 z newx[31:0] $end
$var reg 32 { newy[31:0] $end
$var reg 9 | expdiff[8:0] $end
$var reg 8 } expnewx[7:0] $end
$var reg 8 !" expnewy[7:0] $end
$var reg 1 "" signnewx $end
$var reg 1 #" signnewy $end
$var reg 1 $" effsub $end
$var reg 1 %" xexpfieldzero $end
$var reg 1 &" yexpfieldzero $end
$var reg 1 '" xexpfieldallones $end
$var reg 1 (" yexpfieldallones $end
$var reg 1 )" xsigfieldzero $end
$var reg 1 *" ysigfieldzero $end
$var reg 1 +" xisnan $end
$var reg 1 ," yisnan $end
$var reg 1 -" xisinfinity $end
$var reg 1 ." yisinfinity $end
$var reg 1 /" xiszero $end
$var reg 1 0" yiszero $end
$var reg 1 1" bothsubnormals $end
$var reg 1 2" resultisnan $end
$var reg 24 3" significandnewx[23:0] $end
$var reg 24 4" significandnewy[23:0] $end
$var reg 1 5" allshiftedout $end
$var reg 5 6" rightshiftvalue[4:0] $end
$var reg 1 7" shiftcorrection $end
$var reg 5 8" finalrightshiftvalue[4:0] $end
$var reg 26 9" significandy00[25:0] $end
$var reg 26 :" shiftedsignificandy[25:0] $end
$var reg 1 ;" stickylow $end
$var reg 27 <" summandy[26:0] $end
$var reg 27 =" summandx[26:0] $end
$var reg 1 >" carryin $end
$var reg 27 ?" significandz[26:0] $end
$var reg 1 @" z1 $end
$var reg 1 A" z0 $end
$var reg 26 B" lzczinput[25:0] $end
$var reg 5 C" lzc[4:0] $end
$var reg 5 D" leftshiftval[4:0] $end
$var reg 53 E" normalizedsignificand[52:0] $end
$var reg 23 F" significandpreround[22:0] $end
$var reg 1 G" lsb $end
$var reg 1 H" roundbit $end
$var reg 1 I" stickybit $end
$var reg 8 J" deltaexp[7:0] $end
$var reg 1 K" fullcancellation $end
$var reg 8 L" exppreround[7:0] $end
$var reg 31 M" expsigpreround[30:0] $end
$var reg 1 N" roundupbit $end
$var reg 31 O" expsigr[30:0] $end
$var reg 1 P" resultiszero $end
$var reg 1 Q" resultisinf $end
$var reg 31 R" constinf[30:0] $end
$var reg 31 S" constnan[30:0] $end
$var reg 31 T" expsigr2[30:0] $end
$var reg 1 U" signr $end
$var reg 32 V" computedr[31:0] $end
$scope module rightshiftercomponent $end
$var reg 26 W" x[25:0] $end
$var reg 5 X" s[4:0] $end
$var reg 26 Y" r[25:0] $end
$var reg 1 Z" sticky $end
$var reg 5 [" ps[4:0] $end
$var reg 26 \" xpadded[25:0] $end
$var reg 26 ]" level5[25:0] $end
$var reg 1 ^" stk4 $end
$var reg 26 _" level4[25:0] $end
$var reg 1 `" stk3 $end
$var reg 26 a" level3[25:0] $end
$var reg 1 b" stk2 $end
$var reg 26 c" level2[25:0] $end
$var reg 1 d" stk1 $end
$var reg 26 e" level1[25:0] $end
$var reg 1 f" stk0 $end
$var reg 26 g" level0[25:0] $end
$var reg 1 h" stk $end
$upscope $end
$scope module fracadder $end
$var reg 27 i" x[26:0] $end
$var reg 27 j" y[26:0] $end
$var reg 1 k" cin $end
$var reg 27 l" r[26:0] $end
$var reg 27 m" rtmp[26:0] $end
$upscope $end
$scope module ieeefpadd_8_23_comb_uid2leadingzerocounter $end
$var reg 26 n" i[25:0] $end
$var reg 5 o" o[4:0] $end
$var reg 31 p" level5[30:0] $end
$var reg 1 q" digit4 $end
$var reg 15 r" level4[14:0] $end
$var reg 1 s" digit3 $end
$var reg 7 t" level3[6:0] $end
$var reg 1 u" digit2 $end
$var reg 3 v" level2[2:0] $end
$var reg 2 w" lowbits[1:0] $end
$var reg 3 x" outhighbits[2:0] $end
$upscope $end
$scope module leftshiftercomponent $end
$var reg 27 y" x[26:0] $end
$var reg 5 z" s[4:0] $end
$var reg 53 {" r[52:0] $end
$var reg 5 |" ps[4:0] $end
$var reg 27 }" level0[26:0] $end
$var reg 28 !# level1[27:0] $end
$var reg 30 "# level2[29:0] $end
$var reg 34 ## level3[33:0] $end
$var reg 42 $# level4[41:0] $end
$var reg 58 %# level5[57:0] $end
$upscope $end
$scope module roundingadder $end
$var reg 31 &# x[30:0] $end
$var reg 31 '# y[30:0] $end
$var reg 1 (# cin $end
$var reg 31 )# r[30:0] $end
$var reg 31 *# rtmp[30:0] $end
$upscope $end
$upscope $end
$upscope $end
$scope module dmem $end
$var reg 1 +# clk $end
$var reg 32 ,# mem_access_addr[31:0] $end
$var reg 32 -# mem_write_data[31:0] $end
$var reg 1 .# mem_write_en $end
$var reg 1 /# mem_read $end
$var reg 32 0# mem_read_data[31:0] $end
$var integer 32 1# i $end
$var reg 10 2# ram_addr[9:0] $end
$comment ram is not handled $end
$upscope $end
$upscope $end
$upscope $end
$enddefinitions $end
#0
0!
1"
b00000000000000000000000000000000 #
b00000000000000000000000000000000 $
0%
1&
b00000000000000000000000000000000 '
b00000000000000000000000000000000 (
b00000000000000000000000000000000 )
b00000000000000000000000000000100 *
b00000000000000000000000000000100 +
b00000000000000000000000000000000 ,
b00 -
b00 .
b00 /
00
01
02
03
04
05
16
b00000 7
b00000 8
b00000 9
b00000000000000000000000000000000 :
b00000000000000000000000000000000 ;
b00000000000000000000000000000000 <
b00000000000000000000000000000000 =
b00000000000000000000000000000000 >
b00000000000000000000000000000000 ?
b000000 @
b000000 A
b00000000000000000000000000000000 B
b00000000000000000000000000000000 C
1D
b00000000000000000000000000000000 E
b00000000000000000000000000000100 F
b00000000000000000000000000000100 G
b00000000000000000000000000000000 H
0I
UJ
b00000000000000000000000000000000 K
0L
b00000000000000000000000000000000 M
b00000000000000000000000000000000 N
b000000 O
1P
b00 Q
b00 R
b00 S
0T
0U
0V
0W
0X
0Y
1Z
0[
1\
0]
b00000 ^
b00000000000000000000000000000000 _
b00000 `
b00000000000000000000000000000000 a
b00000 b
b00000000000000000000000000000000 c
b00 d
b000000 e
b000000 f
b000000 g
b000000 h
b00000000000000000000000000000000 i
b00000000000000000000000000000000 j
b00000000000000000000000000000000 k
1l
bUUUUUUUUUUUUUUUUUUUUUUUUUUUUUUUUU m
b00000000000000000000000000000000 n
b00000000000000000000000000000000 o
b00000000000000000000000000000000 p
b00000000000000000000000000000000 q
b00000000000000000000000000000000 r
b00000000000000000000000000000000 s
b00000000000000000000000000000000 t
b0000000000000000000000000000000 u
b0000000000000000000000000000000 v
b000000000 w
b000000000 x
0y
b00000000000000000000000000000000 z
b00000000000000000000000000000000 {
b000000000 |
b00000000 }
b00000000 !"
0""
0#"
0$"
1%"
1&"
0'"
0("
1)"
1*"
0+"
0,"
0-"
0."
1/"
10"
11"
02"
b000000000000000000000000 3"
b000000000000000000000000 4"
05"
b00000 6"
07"
b00000 8"
b00000000000000000000000000 9"
b00000000000000000000000000 :"
0;"
b000000000000000000000000000 <"
b000000000000000000000000000 ="
0>"
b000000000000000000000000000 ?"
0@"
0A"
b00000000000000000000000000 B"
b11010 C"
b00001 D"
b00000000000000000000000000000000000000000000000000000 E"
b00000000000000000000000 F"
0G"
0H"
0I"
b00000000 J"
1K"
b00000000 L"
b0000000000000000000000000000000 M"
0N"
b0000000000000000000000000000000 O"
1P"
0Q"
b1111111100000000000000000000000 R"
b1111111111111111111111111111111 S"
b0000000000000000000000000000000 T"
0U"
b00000000000000000000000000000000 V"
b00000000000000000000000000 W"
b00000 X"
b00000000000000000000000000 Y"
0Z"
b00000 ["
b00000000000000000000000000 \"
b00000000000000000000000000 ]"
0^"
b00000000000000000000000000 _"
0`"
b00000000000000000000000000 a"
0b"
b00000000000000000000000000 c"
0d"
b00000000000000000000000000 e"
0f"
b00000000000000000000000000 g"
0h"
b000000000000000000000000000 i"
b000000000000000000000000000 j"
0k"
b000000000000000000000000000 l"
b000000000000000000000000000 m"
b00000000000000000000000000 n"
b11010 o"
b0000000000000000000000000011111 p"
1q"
b000000000011111 r"
1s"
b0011111 t"
0u"
b001 v"
b10 w"
b110 x"
b000000000000000000000000000 y"
b00001 z"
b00000000000000000000000000000000000000000000000000000 {"
b00001 |"
b000000000000000000000000000 }"
b0000000000000000000000000000 !#
b000000000000000000000000000000 "#
b0000000000000000000000000000000000 ##
b000000000000000000000000000000000000000000 $#
b0000000000000000000000000000000000000000000000000000000000 %#
b0000000000000000000000000000000 &#
b0000000000000000000000000000000 '#
0(#
b0000000000000000000000000000000 )#
b0000000000000000000000000000000 *#
0+#
b00000000000000000000000000000000 ,#
b00000000000000000000000000000000 -#
0.#
0/#
b00000000000000000000000000000000 0#
b10000000000000000000000000000000 1#
b0000000000 2#
#5000000
1!
1%
1L
1[
1+#
#10000000
0!
0%
0L
0[
0+#
#15000000
1!
1%
1L
1[
1+#
#20000000
0!
0"
0%
0&
b01 -
15
0L
0P
b01 Q
1Y
0[
0\
1]
0+#
#25000000
1!
b00000000000000000000000000000100 #
1%
b00000000000000000000000000000100 '
b00000000000000000000000000000100 )
b00000000000000000000000000001000 *
b00000000000000000000000000001000 +
b00000000000000000000000000001000 F
b00000000000000000000000000001000 G
1L
b00000000000000000000000000000100 M
1[
1+#
#30000000
0!
0%
0L
0[
0+#
#35000000
1!
b00000000000000000000000000001000 #
b00000000000000000000000000000011 $
1%
b00000000000000000000000000001000 '
b00000000000000000000000000000011 (
b00000000000000000000000000001000 )
b00000000000000000000000000001100 *
b00000000000000000000000000001100 +
b10000000001000000000000000000011 ,
b00 -
b11 /
14
b00001 8
b00000000000000000000000000000011 :
b00000000000000000000000000000011 =
b00000000000000000000000000000011 >
b00000000000000000000000000000011 ?
b100000 @
b100000 A
b00000000000000000000000000000011 B
b00000000000000000000000000000011 C
0D
b00000010000000000000000000110000 E
b00000000000000000000000000001111 F
b00000000000000000000000000001100 G
1L
b00000000000000000000000000001000 M
b10000000001000000000000000000011 N
b100000 O
b00 Q
b11 S
1X
1[
b00000000000000000000000000000011 _
b00001 `
b11 d
b100000 e
b100000 f
b100000 g
b100000 h
b00000000000000000000000000000011 j
b00000000000000000000000000000011 k
0l
b00000000000000000000000000000011 o
1+#
b00000000000000000000000000000011 ,#
#40000000
0!
0%
0L
0[
0+#
#45000000
1!
b00000000000000000000000000001100 #
b00000000000000000000000000001111 $
1%
b00000000000000000000000000001100 '
b00000000000000000000000000001111 (
b00000000000000000000000000001100 )
b00000000000000000000000000010000 *
b00000000000000000000000000010000 +
b10000000010000000000000000001111 ,
b00010 8
b00000000000000000000000000001111 :
b00000000000000000000000000000011 <
b00000000000000000000000000001111 =
b00000000000000000000000000001111 >
b00000000000000000000000000001111 ?
b00000000000000000000000000001111 B
b00000000000000000000000000001111 C
b00000100000000000000000011110000 E
b00000000000000000000000000011111 F
b00000000000000000000000000010000 G
1L
b00000000000000000000000000001100 M
b10000000010000000000000000001111 N
1[
b00000000000000000000000000001111 _
b00010 `
b00000000000000000000000000000011 c
b00000000000000000000000000001111 j
b00000000000000000000000000001111 k
b00000000000000000000000000001111 o
1+#
b00000000000000000000000000001111 ,#
b00000000000000000000000000000011 -#
b0000000011 2#
#50000000
0!
0%
0L
0[
0+#
#55000000
1!
b00000000000000000000000000010000 #
b00000000000000000000000000000000 $
1%
b00000000000000000000000000010000 '
b00000000000000000000000000000000 (
b00000000000000000000000000010000 )
b00000000000000000000000000010100 *
b00000000000000000000000000010100 +
b00000000001000100001100000100000 ,
b01 -
b00 /
04
b00011 7
b00001 8
b00010 9
b00000000000000000000000000000000 :
b00000000000000000000000000000000 <
b00000000000000000001100000100000 =
b00000000000000000001100000100000 >
b00000000000000000001100000100000 ?
b100000 @
b100000 A
b00000000000000000000000000000000 B
b00000000000000000000000000000000 C
1D
b00000010001000011000001000000000 E
b00000000000000000001100000110100 F
b00000000000000000000000000010100 G
1L
b00000000000000000000000000010000 M
b00000000001000100001100000100000 N
b000000 O
b01 Q
b00 S
0X
1[
b00011 ^
b00000000000000000000000000000000 _
b00001 `
b00010 b
b00000000000000000000000000000000 c
b00 d
b100000 e
b100000 f
b100000 g
b100000 h
b00000000000000000000000000000000 j
b00000000000000000000000000000000 k
1l
b00000000000000000000000000000000 o
1+#
b00000000000000000000000000000000 ,#
b00000000000000000000000000000000 -#
b0000000000 2#
#60000000
0!
0%
0L
0[
0+#
#65000000
1!
b00000000000000000000000000010100 #
b00000000000000000000000000011110 $
1%
b00000000000000000000000000010100 '
b00000000000000000000000000011110 (
b00000000000000000000000000010100 )
b00000000000000000000000000011000 *
b00000000000000000000000000011000 +
b00000000000000000000000000000000 ,
b00000 7
b00000 8
b00000 9
b00000000000000000000000000011110 :
b00000000000000000000000000001111 ;
b00000000000000000000000000001111 <
b00000000000000000000000000000000 =
b00000000000000000000000000000000 >
b00000000000000000000000000000000 ?
b000000 @
b000000 A
b00000000000000000000000000001111 B
b00000000000000000000000000011110 C
0D
b00000000000000000000000000000000 E
b00000000000000000000000000011000 F
b00000000000000000000000000011000 G
b00000000000000000000000000001111 H
1L
b00000000000000000000000000010100 M
b00000000000000000000000000000000 N
1[
b00000 ^
b00000000000000000000000000011110 _
b00000 `
b00000000000000000000000000001111 a
b00000 b
b00000000000000000000000000001111 c
b000000 e
b000000 f
b000000 g
b000000 h
b00000000000000000000000000001111 i
b00000000000000000000000000001111 j
b00000000000000000000000000011110 k
0l
b00000000000000000000000000011110 o
1+#
b00000000000000000000000000011110 ,#
b00000000000000000000000000001111 -#
b0000000111 2#
#70000000
0!
0%
0L
0[
0+#
#75000000
1!
b00000000000000000000000000011000 #
b00000000000000000000000000111100 $
1%
b00000000000000000000000000011000 '
b00000000000000000000000000111100 (
b00000000000000000000000000011000 )
b00000000000000000000000000011100 *
b00000000000000000000000000011100 +
b00000000000000000000000000111100 :
b00000000000000000000000000011110 ;
b00000000000000000000000000011110 <
b00000000000000000000000000011110 B
b00000000000000000000000000111100 C
b00000000000000000000000000011100 F
b00000000000000000000000000011100 G
b00000000000000000000000000011110 H
1L
b00000000000000000000000000011000 M
1[
b00000000000000000000000000111100 _
b00000000000000000000000000011110 a
b00000000000000000000000000011110 c
b00000000000000000000000000011110 i
b00000000000000000000000000011110 j
b00000000000000000000000000111100 k
b00000000000000000000000000111100 o
1+#
b00000000000000000000000000111100 ,#
b00000000000000000000000000011110 -#
b0000001111 2#
#80000000
0!
0%
0L
0[
0+#
#85000000
1!
b00000000000000000000000000011100 #
b00000000000000000000000001111000 $
1%
b00000000000000000000000000011100 '
b00000000000000000000000001111000 (
b00000000000000000000000000011100 )
b00000000000000000000000000100000 *
b00000000000000000000000000100000 +
b00000000000000000000000001111000 :
b00000000000000000000000000111100 ;
b00000000000000000000000000111100 <
b00000000000000000000000000111100 B
b00000000000000000000000001111000 C
b00000000000000000000000000100000 F
b00000000000000000000000000100000 G
b00000000000000000000000000111100 H
1L
b00000000000000000000000000011100 M
1[
b00000000000000000000000001111000 _
b00000000000000000000000000111100 a
b00000000000000000000000000111100 c
b00000000000000000000000000111100 i
b00000000000000000000000000111100 j
b00000000000000000000000001111000 k
b00000000000000000000000001111000 o
1+#
b00000000000000000000000001111000 ,#
b00000000000000000000000000111100 -#
b0000011110 2#
#90000000
0!
0%
0L
0[
0+#
#95000000
1!
b00000000000000000000000000100000 #
b00000000000000000000000011110000 $
1%
b00000000000000000000000000100000 '
b00000000000000000000000011110000 (
b00000000000000000000000000100000 )
b00000000000000000000000000100100 *
b00000000000000000000000000100100 +
b00000000000000000000000011110000 :
b00000000000000000000000001111000 ;
b00000000000000000000000001111000 <
b00000000000000000000000001111000 B
b00000000000000000000000011110000 C
b00000000000000000000000000100100 F
b00000000000000000000000000100100 G
b00000000000000000000000001111000 H
1L
b00000000000000000000000000100000 M
1[
b00000000000000000000000011110000 _
b00000000000000000000000001111000 a
b00000000000000000000000001111000 c
b00000000000000000000000001111000 i
b00000000000000000000000001111000 j
b00000000000000000000000011110000 k
b00000000000000000000000011110000 o
1+#
b00000000000000000000000011110000 ,#
b00000000000000000000000001111000 -#
b0000111100 2#
#100000000
0!
0%
0L
0[
0+#
#105000000
1!
b00000000000000000000000000100100 #
b00000000000000000000000111100000 $
1%
b00000000000000000000000000100100 '
b00000000000000000000000111100000 (
b00000000000000000000000000100100 )
b00000000000000000000000000101000 *
b00000000000000000000000000101000 +
b00000000000000000000000111100000 :
b00000000000000000000000011110000 ;
b00000000000000000000000011110000 <
b00000000000000000000000011110000 B
b00000000000000000000000111100000 C
b00000000000000000000000000101000 F
b00000000000000000000000000101000 G
b00000000000000000000000011110000 H
1L
b00000000000000000000000000100100 M
1[
b00000000000000000000000111100000 _
b00000000000000000000000011110000 a
b00000000000000000000000011110000 c
b00000000000000000000000011110000 i
b00000000000000000000000011110000 j
b00000000000000000000000111100000 k
b00000000000000000000000111100000 o
1+#
b00000000000000000000000111100000 ,#
b00000000000000000000000011110000 -#
b0001111000 2#
#110000000
0!
0%
0L
0[
0+#
#115000000
1!
b00000000000000000000000000101000 #
b00000000000000000000001111000000 $
1%
b00000000000000000000000000101000 '
b00000000000000000000001111000000 (
b00000000000000000000000000101000 )
b00000000000000000000000000101100 *
b00000000000000000000000000101100 +
b00000000000000000000001111000000 :
b00000000000000000000000111100000 ;
b00000000000000000000000111100000 <
b00000000000000000000000111100000 B
b00000000000000000000001111000000 C
b00000000000000000000000000101100 F
b00000000000000000000000000101100 G
b00000000000000000000000111100000 H
1L
b00000000000000000000000000101000 M
1[
b00000000000000000000001111000000 _
b00000000000000000000000111100000 a
b00000000000000000000000111100000 c
b00000000000000000000000111100000 i
b00000000000000000000000111100000 j
b00000000000000000000001111000000 k
b00000000000000000000001111000000 o
1+#
b00000000000000000000001111000000 ,#
b00000000000000000000000111100000 -#
b0011110000 2#
#120000000
0!
0%
0L
0[
0+#
#125000000
1!
b00000000000000000000000000101100 #
b00000000000000000000011110000000 $
1%
b00000000000000000000000000101100 '
b00000000000000000000011110000000 (
b00000000000000000000000000101100 )
b00000000000000000000000000110000 *
b00000000000000000000000000110000 +
b00000000000000000000011110000000 :
b00000000000000000000001111000000 ;
b00000000000000000000001111000000 <
b00000000000000000000001111000000 B
b00000000000000000000011110000000 C
b00000000000000000000000000110000 F
b00000000000000000000000000110000 G
b00000000000000000000001111000000 H
1L
b00000000000000000000000000101100 M
1[
b00000000000000000000011110000000 _
b00000000000000000000001111000000 a
b00000000000000000000001111000000 c
b00000000000000000000001111000000 i
b00000000000000000000001111000000 j
b00000000000000000000011110000000 k
b00000000000000000000011110000000 o
1+#
b00000000000000000000011110000000 ,#
b00000000000000000000001111000000 -#
b0111100000 2#
#130000000
0!
0%
0L
0[
0+#
#135000000
1!
b00000000000000000000000000110000 #
b00000000000000000000111100000000 $
1%
b00000000000000000000000000110000 '
b00000000000000000000111100000000 (
b00000000000000000000000000110000 )
b00000000000000000000000000110100 *
b00000000000000000000000000110100 +
b00000000000000000000111100000000 :
b00000000000000000000011110000000 ;
b00000000000000000000011110000000 <
b00000000000000000000011110000000 B
b00000000000000000000111100000000 C
b00000000000000000000000000110100 F
b00000000000000000000000000110100 G
b00000000000000000000011110000000 H
1L
b00000000000000000000000000110000 M
1[
b00000000000000000000111100000000 _
b00000000000000000000011110000000 a
b00000000000000000000011110000000 c
b00000000000000000000011110000000 i
b00000000000000000000011110000000 j
b00000000000000000000111100000000 k
b00000000000000000000111100000000 o
1+#
b00000000000000000000111100000000 ,#
b00000000000000000000011110000000 -#
b1111000000 2#
#140000000
0!
0%
0L
0[
0+#
#145000000
1!
b00000000000000000000000000110100 #
b00000000000000000001111000000000 $
1%
b00000000000000000000000000110100 '
b00000000000000000001111000000000 (
b00000000000000000000000000110100 )
b00000000000000000000000000111000 *
b00000000000000000000000000111000 +
b00000000000000000001111000000000 :
b00000000000000000000111100000000 ;
b00000000000000000000111100000000 <
b00000000000000000000111100000000 B
b00000000000000000001111000000000 C
b00000000000000000000000000111000 F
b00000000000000000000000000111000 G
b00000000000000000000111100000000 H
1L
b00000000000000000000000000110100 M
1[
b00000000000000000001111000000000 _
b00000000000000000000111100000000 a
b00000000000000000000111100000000 c
b00000000000000000000111100000000 i
b00000000000000000000111100000000 j
b00000000000000000001111000000000 k
b00000000000000000001111000000000 o
1+#
b00000000000000000001111000000000 ,#
b00000000000000000000111100000000 -#
b1110000000 2#
#150000000
0!
0%
0L
0[
0+#
#155000000
1!
b00000000000000000000000000111000 #
b00000000000000000011110000000000 $
1%
b00000000000000000000000000111000 '
b00000000000000000011110000000000 (
b00000000000000000000000000111000 )
b00000000000000000000000000111100 *
b00000000000000000000000000111100 +
b00000000000000000011110000000000 :
b00000000000000000001111000000000 ;
b00000000000000000001111000000000 <
b00000000000000000001111000000000 B
b00000000000000000011110000000000 C
b00000000000000000000000000111100 F
b00000000000000000000000000111100 G
b00000000000000000001111000000000 H
1L
b00000000000000000000000000111000 M
1[
b00000000000000000011110000000000 _
b00000000000000000001111000000000 a
b00000000000000000001111000000000 c
b00000000000000000001111000000000 i
b00000000000000000001111000000000 j
b00000000000000000011110000000000 k
b00000000000000000011110000000000 o
1+#
b00000000000000000011110000000000 ,#
b00000000000000000001111000000000 -#
b1100000000 2#
#160000000
0!
0%
0L
0[
0+#
#165000000
1!
b00000000000000000000000000111100 #
b00000000000000000111100000000000 $
1%
b00000000000000000000000000111100 '
b00000000000000000111100000000000 (
b00000000000000000000000000111100 )
b00000000000000000000000001000000 *
b00000000000000000000000001000000 +
b00000000000000000111100000000000 :
b00000000000000000011110000000000 ;
b00000000000000000011110000000000 <
b00000000000000000011110000000000 B
b00000000000000000111100000000000 C
b00000000000000000000000001000000 F
b00000000000000000000000001000000 G
b00000000000000000011110000000000 H
1L
b00000000000000000000000000111100 M
1[
b00000000000000000111100000000000 _
b00000000000000000011110000000000 a
b00000000000000000011110000000000 c
b00000000000000000011110000000000 i
b00000000000000000011110000000000 j
b00000000000000000111100000000000 k
b00000000000000000111100000000000 o
1+#
b00000000000000000111100000000000 ,#
b00000000000000000011110000000000 -#
b1000000000 2#
#170000000
0!
0%
0L
0[
0+#
#175000000
1!
b00000000000000000000000001000000 #
b00000000000000001111000000000000 $
1%
b00000000000000000000000001000000 '
b00000000000000001111000000000000 (
b00000000000000000000000001000000 )
b00000000000000000000000001000100 *
b00000000000000000000000001000100 +
b00000000000000001111000000000000 :
b00000000000000000111100000000000 ;
b00000000000000000111100000000000 <
b00000000000000000111100000000000 B
b00000000000000001111000000000000 C
b00000000000000000000000001000100 F
b00000000000000000000000001000100 G
b00000000000000000111100000000000 H
1L
b00000000000000000000000001000000 M
1[
b00000000000000001111000000000000 _
b00000000000000000111100000000000 a
b00000000000000000111100000000000 c
b00000000000000000111100000000000 i
b00000000000000000111100000000000 j
b00000000000000001111000000000000 k
b00000000000000001111000000000000 o
1+#
b00000000000000001111000000000000 ,#
b00000000000000000111100000000000 -#
b0000000000 2#
#180000000
0!
0%
0L
0[
0+#
#185000000
1!
b00000000000000000000000001000100 #
b00000000000000011110000000000000 $
1%
b00000000000000000000000001000100 '
b00000000000000011110000000000000 (
b00000000000000000000000001000100 )
b00000000000000000000000001001000 *
b00000000000000000000000001001000 +
b00000000000000011110000000000000 :
b00000000000000001111000000000000 ;
b00000000000000001111000000000000 <
b00000000000000001111000000000000 B
b00000000000000011110000000000000 C
b00000000000000000000000001001000 F
b00000000000000000000000001001000 G
b00000000000000001111000000000000 H
1L
b00000000000000000000000001000100 M
1[
b00000000000000011110000000000000 _
b00000000000000001111000000000000 a
b00000000000000001111000000000000 c
b00000000000000001111000000000000 i
b00000000000000001111000000000000 j
b00000000000000011110000000000000 k
b00000000000000011110000000000000 o
1+#
b00000000000000011110000000000000 ,#
b00000000000000001111000000000000 -#
b0000000000 2#
#190000000
0!
0%
0L
0[
0+#
#195000000
1!
b00000000000000000000000001001000 #
b00000000000000111100000000000000 $
1%
b00000000000000000000000001001000 '
b00000000000000111100000000000000 (
b00000000000000000000000001001000 )
b00000000000000000000000001001100 *
b00000000000000000000000001001100 +
b00000000000000111100000000000000 :
b00000000000000011110000000000000 ;
b00000000000000011110000000000000 <
b00000000000000011110000000000000 B
b00000000000000111100000000000000 C
b00000000000000000000000001001100 F
b00000000000000000000000001001100 G
b00000000000000011110000000000000 H
1L
b00000000000000000000000001001000 M
1[
b00000000000000111100000000000000 _
b00000000000000011110000000000000 a
b00000000000000011110000000000000 c
b00000000000000011110000000000000 i
b00000000000000011110000000000000 j
b00000000000000111100000000000000 k
b00000000000000111100000000000000 o
1+#
b00000000000000111100000000000000 ,#
b00000000000000011110000000000000 -#
#200000000
0!
0%
0L
0[
0+#
#205000000
1!
b00000000000000000000000001001100 #
b00000000000001111000000000000000 $
1%
b00000000000000000000000001001100 '
b00000000000001111000000000000000 (
b00000000000000000000000001001100 )
b00000000000000000000000001010000 *
b00000000000000000000000001010000 +
b00000000000001111000000000000000 :
b00000000000000111100000000000000 ;
b00000000000000111100000000000000 <
b00000000000000111100000000000000 B
b00000000000001111000000000000000 C
b00000000000000000000000001010000 F
b00000000000000000000000001010000 G
b00000000000000111100000000000000 H
1L
b00000000000000000000000001001100 M
1[
b00000000000001111000000000000000 _
b00000000000000111100000000000000 a
b00000000000000111100000000000000 c
b00000000000000111100000000000000 i
b00000000000000111100000000000000 j
b00000000000001111000000000000000 k
b00000000000001111000000000000000 o
1+#
b00000000000001111000000000000000 ,#
b00000000000000111100000000000000 -#
#210000000
0!
0%
0L
0[
0+#
