sim/myfadd.vcd
$date
  Sat Nov  1 19:20:53 2025
$end
$version
  GHDL v0
$end
$timescale
  1 fs
$end
$scope module standard $end
$upscope $end
$scope module std_logic_1164 $end
$upscope $end
$scope module numeric_std $end
$upscope $end
$scope module textio $end
$upscope $end
$scope module std_logic_arith $end
$upscope $end
$scope module std_logic_unsigned $end
$upscope $end
$scope module tb_myfadd $end
$var reg 32 ! x[31:0] $end
$var reg 32 " y[31:0] $end
$var reg 32 # r[31:0] $end
$var reg 1 $ clk $end
$var reg 1 % rst $end
$scope module test $end
$var reg 32 & x[31:0] $end
$var reg 32 ' y[31:0] $end
$var reg 32 ( r[31:0] $end
$var reg 31 ) expfracx[30:0] $end
$var reg 31 * expfracy[30:0] $end
$var reg 9 + expxmexpy[8:0] $end
$var reg 9 , expymexpx[8:0] $end
$var reg 1 - swap $end
$var reg 32 . newx[31:0] $end
$var reg 32 / newy[31:0] $end
$var reg 9 0 expdiff[8:0] $end
$var reg 8 1 expnewx[7:0] $end
$var reg 8 2 expnewy[7:0] $end
$var reg 1 3 signnewx $end
$var reg 1 4 signnewy $end
$var reg 1 5 effsub $end
$var reg 1 6 xexpfieldzero $end
$var reg 1 7 yexpfieldzero $end
$var reg 1 8 xexpfieldallones $end
$var reg 1 9 yexpfieldallones $end
$var reg 1 : xsigfieldzero $end
$var reg 1 ; ysigfieldzero $end
$var reg 1 < xisnan $end
$var reg 1 = yisnan $end
$var reg 1 > xisinfinity $end
$var reg 1 ? yisinfinity $end
$var reg 1 @ xiszero $end
$var reg 1 A yiszero $end
$var reg 1 B bothsubnormals $end
$var reg 1 C resultisnan $end
$var reg 24 D significandnewx[23:0] $end
$var reg 24 E significandnewy[23:0] $end
$var reg 1 F allshiftedout $end
$var reg 5 G rightshiftvalue[4:0] $end
$var reg 1 H shiftcorrection $end
$var reg 5 I finalrightshiftvalue[4:0] $end
$var reg 26 J significandy00[25:0] $end
$var reg 26 K shiftedsignificandy[25:0] $end
$var reg 1 L stickylow $end
$var reg 27 M summandy[26:0] $end
$var reg 27 N summandx[26:0] $end
$var reg 1 O carryin $end
$var reg 27 P significandz[26:0] $end
$var reg 1 Q z1 $end
$var reg 1 R z0 $end
$var reg 26 S lzczinput[25:0] $end
$var reg 5 T lzc[4:0] $end
$var reg 5 U leftshiftval[4:0] $end
$var reg 53 V normalizedsignificand[52:0] $end
$var reg 23 W significandpreround[22:0] $end
$var reg 1 X lsb $end
$var reg 1 Y roundbit $end
$var reg 1 Z stickybit $end
$var reg 8 [ deltaexp[7:0] $end
$var reg 1 \ fullcancellation $end
$var reg 8 ] exppreround[7:0] $end
$var reg 31 ^ expsigpreround[30:0] $end
$var reg 1 _ roundupbit $end
$var reg 31 ` expsigr[30:0] $end
$var reg 1 a resultiszero $end
$var reg 1 b resultisinf $end
$var reg 31 c constinf[30:0] $end
$var reg 31 d constnan[30:0] $end
$var reg 31 e expsigr2[30:0] $end
$var reg 1 f signr $end
$var reg 32 g computedr[31:0] $end
$scope module rightshiftercomponent $end
$var reg 26 h x[25:0] $end
$var reg 5 i s[4:0] $end
$var reg 26 j r[25:0] $end
$var reg 1 k sticky $end
$var reg 5 l ps[4:0] $end
$var reg 26 m xpadded[25:0] $end
$var reg 26 n level5[25:0] $end
$var reg 1 o stk4 $end
$var reg 26 p level4[25:0] $end
$var reg 1 q stk3 $end
$var reg 26 r level3[25:0] $end
$var reg 1 s stk2 $end
$var reg 26 t level2[25:0] $end
$var reg 1 u stk1 $end
$var reg 26 v level1[25:0] $end
$var reg 1 w stk0 $end
$var reg 26 x level0[25:0] $end
$var reg 1 y stk $end
$upscope $end
$scope module fracadder $end
$var reg 27 z x[26:0] $end
$var reg 27 { y[26:0] $end
$var reg 1 | cin $end
$var reg 27 } r[26:0] $end
$var reg 27 !" rtmp[26:0] $end
$upscope $end
$scope module ieeefpadd_8_23_comb_uid2leadingzerocounter $end
$var reg 26 "" i[25:0] $end
$var reg 5 #" o[4:0] $end
$var reg 31 $" level5[30:0] $end
$var reg 1 %" digit4 $end
$var reg 15 &" level4[14:0] $end
$var reg 1 '" digit3 $end
$var reg 7 (" level3[6:0] $end
$var reg 1 )" digit2 $end
$var reg 3 *" level2[2:0] $end
$var reg 2 +" lowbits[1:0] $end
$var reg 3 ," outhighbits[2:0] $end
$upscope $end
$scope module leftshiftercomponent $end
$var reg 27 -" x[26:0] $end
$var reg 5 ." s[4:0] $end
$var reg 53 /" r[52:0] $end
$var reg 5 0" ps[4:0] $end
$var reg 27 1" level0[26:0] $end
$var reg 28 2" level1[27:0] $end
$var reg 30 3" level2[29:0] $end
$var reg 34 4" level3[33:0] $end
$var reg 42 5" level4[41:0] $end
$var reg 58 6" level5[57:0] $end
$upscope $end
$scope module roundingadder $end
$var reg 31 7" x[30:0] $end
$var reg 31 8" y[30:0] $end
$var reg 1 9" cin $end
$var reg 31 :" r[30:0] $end
$var reg 31 ;" rtmp[30:0] $end
$upscope $end
$upscope $end
$upscope $end
$enddefinitions $end
#0
bUUUUUUUUUUUUUUUUUUUUUUUUUUUUUUUU !
bUUUUUUUUUUUUUUUUUUUUUUUUUUUUUUUU "
bUXXXXXXXXXXXXXXXXXXXXXXXXXXXXXXX #
0$
1%
bUUUUUUUUUUUUUUUUUUUUUUUUUUUUUUUU &
bUUUUUUUUUUUUUUUUUUUUUUUUUUUUUUUU '
bUXXXXXXXXXXXXXXXXXXXXXXXXXXXXXXX (
bUUUUUUUUUUUUUUUUUUUUUUUUUUUUUUU )
bUUUUUUUUUUUUUUUUUUUUUUUUUUUUUUU *
bXXXXXXXXX +
bXXXXXXXXX ,
1-
bUUUUUUUUUUUUUUUUUUUUUUUUUUUUUUUU .
bUUUUUUUUUUUUUUUUUUUUUUUUUUUUUUUU /
bXXXXXXXXX 0
bUUUUUUUU 1
bUUUUUUUU 2
U3
U4
U5
06
07
08
09
0:
0;
0<
0=
0>
0?
0@
0A
0B
0C
b1UUUUUUUUUUUUUUUUUUUUUUU D
b1UUUUUUUUUUUUUUUUUUUUUUU E
0F
bXXXXX G
0H
bXXXXX I
b1UUUUUUUUUUUUUUUUUUUUUUU00 J
b00000000000000000000000000 K
0L
bUUUUUUUUUUUUUUUUUUUUUUUUUUU M
b01UUUUUUUUUUUUUUUUUUUUUUU00 N
UO
bXXXXXXXXXXXXXXXXXXXXXXXXXXX P
XQ
XR
bXXXXXXXXXXXXXXXXXXXXXXXXXX S
b00000 T
b00001 U
b0000000000000000000000000XXXXXXXXXXXXXXXXXXXXXXXXXXX0 V
bXXXXXXXXXXXXXXXXXXXXXXX W
XX
XY
XZ
bUUUUUUUU [
0\
bXXXXXXXX ]
bXXXXXXXXXXXXXXXXXXXXXXXXXXXXXXX ^
0_
bXXXXXXXXXXXXXXXXXXXXXXXXXXXXXXX `
0a
0b
b1111111100000000000000000000000 c
b1111111111111111111111111111111 d
bXXXXXXXXXXXXXXXXXXXXXXXXXXXXXXX e
Uf
bUXXXXXXXXXXXXXXXXXXXXXXXXXXXXXXX g
b1UUUUUUUUUUUUUUUUUUUUUUU00 h
bXXXXX i
b00000000000000000000000000 j
0k
bXXXXX l
b1UUUUUUUUUUUUUUUUUUUUUUU00 m
b1UUUUUUUUUUUUUUUUUUUUUUU00 n
0o
b00000000000000001UUUUUUUUU p
0q
b0000000000000000000000001U r
0s
b00000000000000000000000000 t
0u
b00000000000000000000000000 v
0w
b00000000000000000000000000 x
0y
b01UUUUUUUUUUUUUUUUUUUUUUU00 z
bUUUUUUUUUUUUUUUUUUUUUUUUUUU {
U|
bXXXXXXXXXXXXXXXXXXXXXXXXXXX }
bXXXXXXXXXXXXXXXXXXXXXXXXXXX !"
bXXXXXXXXXXXXXXXXXXXXXXXXXX ""
b00000 #"
bXXXXXXXXXXXXXXXXXXXXXXXXXX11111 $"
0%"
bXXXXXXXXXXXXXXX &"
0'"
bXXXXXXX ("
0)"
bXXX *"
b00 +"
b000 ,"
bXXXXXXXXXXXXXXXXXXXXXXXXXXX -"
b00001 ."
b0000000000000000000000000XXXXXXXXXXXXXXXXXXXXXXXXXXX0 /"
b00001 0"
bXXXXXXXXXXXXXXXXXXXXXXXXXXX 1"
bXXXXXXXXXXXXXXXXXXXXXXXXXXX0 2"
b00XXXXXXXXXXXXXXXXXXXXXXXXXXX0 3"
b000000XXXXXXXXXXXXXXXXXXXXXXXXXXX0 4"
b00000000000000XXXXXXXXXXXXXXXXXXXXXXXXXXX0 5"
b000000000000000000000000000000XXXXXXXXXXXXXXXXXXXXXXXXXXX0 6"
bXXXXXXXXXXXXXXXXXXXXXXXXXXXXXXX 7"
b0000000000000000000000000000000 8"
09"
bXXXXXXXXXXXXXXXXXXXXXXXXXXXXXXX :"
bXXXXXXXXXXXXXXXXXXXXXXXXXXXXXXX ;"
#5000000
1$
#10000000
b10111111100000000000000000000000 !
b00111111101000000000000000000000 "
b00111110100000000000000000000000 #
0$
0%
b10111111100000000000000000000000 &
b00111111101000000000000000000000 '
b00111110100000000000000000000000 (
b0111111100000000000000000000000 )
b0111111101000000000000000000000 *
b000000000 +
b000000000 ,
b00111111101000000000000000000000 .
b10111111100000000000000000000000 /
b000000000 0
b01111111 1
b01111111 2
03
14
15
1;
b101000000000000000000000 D
b100000000000000000000000 E
b00000 G
b00000 I
b10000000000000000000000000 J
b10000000000000000000000000 K
b101111111111111111111111111 M
b010100000000000000000000000 N
1O
b000100000000000000000000000 P
0Q
0R
b00010000000000000000000000 S
b00011 T
b00011 U
b00000000000000000000000000100000000000000000000000000 V
b00000000000000000000000 W
0X
0Y
0Z
b00000010 [
b01111101 ]
b0111110100000000000000000000000 ^
b0111110100000000000000000000000 `
b0111110100000000000000000000000 e
0f
b00111110100000000000000000000000 g
b10000000000000000000000000 h
b00000 i
b10000000000000000000000000 j
b00000 l
b10000000000000000000000000 m
b10000000000000000000000000 n
b10000000000000000000000000 p
b10000000000000000000000000 r
b10000000000000000000000000 t
b10000000000000000000000000 v
b10000000000000000000000000 x
b010100000000000000000000000 z
b101111111111111111111111111 {
1|
b000100000000000000000000000 }
b000100000000000000000000000 !"
b00010000000000000000000000 ""
b00011 #"
b0001000000000000000000000011111 $"
b000100000000000 &"
b0001000 ("
b000 *"
b11 +"
b000100000000000000000000000 -"
b00011 ."
b00000000000000000000000000100000000000000000000000000 /"
b00011 0"
b000100000000000000000000000 1"
b0001000000000000000000000000 2"
b000100000000000000000000000000 3"
b0000000100000000000000000000000000 4"
b000000000000000100000000000000000000000000 5"
b0000000000000000000000000000000100000000000000000000000000 6"
b0111110100000000000000000000000 7"
b0111110100000000000000000000000 :"
b0111110100000000000000000000000 ;"
#12000000
#15000000
1$
#20000000
b00111111100000000000000000000000 !
b10111111101000000000000000000000 "
b10111110100000000000000000000000 #
0$
b00111111100000000000000000000000 &
b10111111101000000000000000000000 '
b10111110100000000000000000000000 (
b10111111101000000000000000000000 .
b00111111100000000000000000000000 /
13
04
1f
b10111110100000000000000000000000 g
#22000000
#25000000
1$
#30000000
b10111111101000000000000000000000 !
b00111111100000000000000000000000 "
b10111110100000000000000000000000 #
0$
b10111111101000000000000000000000 &
b00111111100000000000000000000000 '
b10111110100000000000000000000000 (
b0111111101000000000000000000000 )
b0111111100000000000000000000000 *
0-
b10111111101000000000000000000000 .
b00111111100000000000000000000000 /
13
04
0:
1;
b101000000000000000000000 D
b100000000000000000000000 E
b10000000000000000000000000 J
b10000000000000000000000000 K
b101111111111111111111111111 M
b010100000000000000000000000 N
b000100000000000000000000000 P
b00010000000000000000000000 S
b00011 T
b00011 U
b00000000000000000000000000100000000000000000000000000 V
b00000000000000000000000 W
b00000010 [
0\
b01111101 ]
b0111110100000000000000000000000 ^
b0111110100000000000000000000000 `
b0111110100000000000000000000000 e
1f
b10111110100000000000000000000000 g
b10000000000000000000000000 h
b10000000000000000000000000 j
b10000000000000000000000000 m
b10000000000000000000000000 n
b10000000000000000000000000 p
b10000000000000000000000000 r
b10000000000000000000000000 t
b10000000000000000000000000 v
b10000000000000000000000000 x
b010100000000000000000000000 z
b101111111111111111111111111 {
b000100000000000000000000000 }
b000100000000000000000000000 !"
b00010000000000000000000000 ""
b00011 #"
b0001000000000000000000000011111 $"
0%"
b000100000000000 &"
0'"
b0001000 ("
0)"
b000 *"
b11 +"
b000 ,"
b000100000000000000000000000 -"
b00011 ."
b00000000000000000000000000100000000000000000000000000 /"
b00011 0"
b000100000000000000000000000 1"
b0001000000000000000000000000 2"
b000100000000000000000000000000 3"
b0000000100000000000000000000000000 4"
b000000000000000100000000000000000000000000 5"
b0000000000000000000000000000000100000000000000000000000000 6"
b0111110100000000000000000000000 7"
b0111110100000000000000000000000 :"
b0111110100000000000000000000000 ;"
#32000000
#35000000
1$
#40000000
b00111111101000000000000000000000 !
b10111111100000000000000000000000 "
b00111110100000000000000000000000 #
0$
b00111111101000000000000000000000 &
b10111111100000000000000000000000 '
b00111110100000000000000000000000 (
b00111111101000000000000000000000 .
b10111111100000000000000000000000 /
03
14
0f
b00111110100000000000000000000000 g
#42000000
#45000000
1$
#50000000
b00000000000000000000000000000000 !
b00000000000000000000000000000000 "
b00000000000000000000000000000000 #
0$
b00000000000000000000000000000000 &
b00000000000000000000000000000000 '
b00000000000000000000000000000000 (
b0000000000000000000000000000000 )
b0000000000000000000000000000000 *
b00000000000000000000000000000000 .
b00000000000000000000000000000000 /
b00000000 1
b00000000 2
04
05
16
17
1:
1@
1A
1B
b000000000000000000000000 D
b000000000000000000000000 E
b00000000000000000000000000 J
b00000000000000000000000000 K
b000000000000000000000000000 M
b000000000000000000000000000 N
0O
b000000000000000000000000000 P
0Q
0R
b00000000000000000000000000 S
b11010 T
b00001 U
b00000000000000000000000000000000000000000000000000000 V
b00000000000000000000000 W
b00000000 [
1\
b00000000 ]
b0000000000000000000000000000000 ^
b0000000000000000000000000000000 `
1a
b0000000000000000000000000000000 e
b00000000000000000000000000000000 g
b00000000000000000000000000 h
b00000000000000000000000000 j
b00000000000000000000000000 m
b00000000000000000000000000 n
b00000000000000000000000000 p
b00000000000000000000000000 r
b00000000000000000000000000 t
b00000000000000000000000000 v
b00000000000000000000000000 x
b000000000000000000000000000 z
b000000000000000000000000000 {
0|
b000000000000000000000000000 }
b000000000000000000000000000 !"
b00000000000000000000000000 ""
b11010 #"
b0000000000000000000000000011111 $"
1%"
b000000000011111 &"
1'"
b0011111 ("
0)"
b001 *"
b10 +"
b110 ,"
b000000000000000000000000000 -"
b00001 ."
b00000000000000000000000000000000000000000000000000000 /"
b00001 0"
b000000000000000000000000000 1"
b0000000000000000000000000000 2"
b000000000000000000000000000000 3"
b0000000000000000000000000000000000 4"
b000000000000000000000000000000000000000000 5"
b0000000000000000000000000000000000000000000000000000000000 6"
b0000000000000000000000000000000 7"
b0000000000000000000000000000000 :"
b0000000000000000000000000000000 ;"
#52000000
#55000000
1$
#60000000
b00000000000000000000000000000001 "
b00000000000000000000000000000001 #
0$
b00000000000000000000000000000001 '
b00000000000000000000000000000001 (
b0000000000000000000000000000001 *
1-
b00000000000000000000000000000001 .
b00000000000000000000000000000000 /
0:
1;
0@
1A
b000000000000000000000001 D
b000000000000000000000000 E
b00000000000000000000000000 J
b00000000000000000000000000 K
b000000000000000000000000000 M
b000000000000000000000000100 N
b000000000000000000000000100 P
b00000000000000000000000010 S
b11000 T
b00000000000000000000000000000000000000000000000001000 V
b00000000000000000000001 W
1X
0\
b0000000000000000000000000000001 ^
b0000000000000000000000000000001 `
0a
b0000000000000000000000000000001 e
b00000000000000000000000000000001 g
b00000000000000000000000000 h
b00000000000000000000000000 j
b00000000000000000000000000 m
b00000000000000000000000000 n
b00000000000000000000000000 p
b00000000000000000000000000 r
b00000000000000000000000000 t
b00000000000000000000000000 v
b00000000000000000000000000 x
b000000000000000000000000100 z
b000000000000000000000000000 {
b000000000000000000000000100 }
b000000000000000000000000100 !"
b00000000000000000000000010 ""
b11000 #"
b0000000000000000000000001011111 $"
b000000001011111 &"
1'"
b1011111 ("
0)"
b101 *"
b00 +"
b110 ,"
b000000000000000000000000100 -"
b00000000000000000000000000000000000000000000000001000 /"
b000000000000000000000000100 1"
b0000000000000000000000001000 2"
b000000000000000000000000001000 3"
b0000000000000000000000000000001000 4"
b000000000000000000000000000000000000001000 5"
b0000000000000000000000000000000000000000000000000000001000 6"
b0000000000000000000000000000001 7"
b0000000000000000000000000000001 :"
b0000000000000000000000000000001 ;"
#62000000
#65000000
1$
#70000000
b00000000011111111111111111111111 "
b00000000011111111111111111111111 #
0$
b00000000011111111111111111111111 '
b00000000011111111111111111111111 (
b0000000011111111111111111111111 *
b00000000011111111111111111111111 .
b011111111111111111111111 D
b001111111111111111111111100 N
b001111111111111111111111100 P
b00111111111111111111111110 S
b00010 T
b00000000000000000000000000011111111111111111111111000 V
b11111111111111111111111 W
b0000000011111111111111111111111 ^
b0000000011111111111111111111111 `
b0000000011111111111111111111111 e
b00000000011111111111111111111111 g
b001111111111111111111111100 z
b001111111111111111111111100 }
b001111111111111111111111100 !"
b00111111111111111111111110 ""
b00010 #"
b0011111111111111111111111011111 $"
0%"
b001111111111111 &"
0'"
b0011111 ("
b001 *"
b10 +"
b000 ,"
b001111111111111111111111100 -"
b00000000000000000000000000011111111111111111111111000 /"
b001111111111111111111111100 1"
b0011111111111111111111111000 2"
b000011111111111111111111111000 3"
b0000000011111111111111111111111000 4"
b000000000000000011111111111111111111111000 5"
b0000000000000000000000000000000011111111111111111111111000 6"
b0000000011111111111111111111111 7"
b0000000011111111111111111111111 :"
b0000000011111111111111111111111 ;"
#72000000
#75000000
1$
#80000000
b00000000100000000000000000000000 "
b00000000100000000000000000000000 #
0$
b00000000100000000000000000000000 '
b00000000100000000000000000000000 (
b0000000100000000000000000000000 *
b111111111 +
b000000001 ,
b00000000100000000000000000000000 .
b000000001 0
b00000001 1
06
1:
0@
0B
b100000000000000000000000 D
b00001 G
1H
b00000 I
b010000000000000000000000000 N
b010000000000000000000000000 P
1R
b01000000000000000000000000 S
b00001 T
b00001 U
b00000000000000000000000000100000000000000000000000000 V
b00000000000000000000000 W
0X
b00000000 [
0\
b00000001 ]
b0000000100000000000000000000000 ^
b0000000100000000000000000000000 `
0a
b0000000100000000000000000000000 e
b00000000100000000000000000000000 g
b00000 i
b00000 l
b010000000000000000000000000 z
b010000000000000000000000000 }
b010000000000000000000000000 !"
b01000000000000000000000000 ""
b00001 #"
b0100000000000000000000000011111 $"
0%"
b010000000000000 &"
0'"
b0100000 ("
0)"
b010 *"
b01 +"
b000 ,"
b010000000000000000000000000 -"
b00001 ."
b00000000000000000000000000100000000000000000000000000 /"
b00001 0"
b010000000000000000000000000 1"
b0100000000000000000000000000 2"
b000100000000000000000000000000 3"
b0000000100000000000000000000000000 4"
b000000000000000100000000000000000000000000 5"
b0000000000000000000000000000000100000000000000000000000000 6"
b0000000100000000000000000000000 7"
b0000000100000000000000000000000 :"
b0000000100000000000000000000000 ;"
#82000000
#85000000
1$
#90000000
b01111111011111111111111111111111 "
b01111111011111111111111111111111 #
0$
b01111111011111111111111111111111 '
b01111111011111111111111111111111 (
b1111111011111111111111111111111 *
b100000010 +
b011111110 ,
b01111111011111111111111111111111 .
b011111110 0
b11111110 1
0:
b111111111111111111111111 D
1F
b11010 G
b11001 I
b011111111111111111111111100 N
b011111111111111111111111100 P
b01111111111111111111111110 S
b00000000000000000000000000111111111111111111111111000 V
b11111111111111111111111 W
1X
b11111110 ]
b1111111011111111111111111111111 ^
b1111111011111111111111111111111 `
b1111111011111111111111111111111 e
b01111111011111111111111111111111 g
b11001 i
b11001 l
b011111111111111111111111100 z
b011111111111111111111111100 }
b011111111111111111111111100 !"
b01111111111111111111111110 ""
b0111111111111111111111111011111 $"
b011111111111111 &"
b0111111 ("
b011 *"
b011111111111111111111111100 -"
b00000000000000000000000000111111111111111111111111000 /"
b011111111111111111111111100 1"
b0111111111111111111111111000 2"
b000111111111111111111111111000 3"
b0000000111111111111111111111111000 4"
b000000000000000111111111111111111111111000 5"
b0000000000000000000000000000000111111111111111111111111000 6"
b1111111011111111111111111111111 7"
b1111111011111111111111111111111 :"
b1111111011111111111111111111111 ;"
#92000000
#95000000
1$
#100000000
b01111111100000000000000000000000 "
b01111111100000000000000000000000 #
0$
b01111111100000000000000000000000 '
b01111111100000000000000000000000 (
b1111111100000000000000000000000 *
b100000001 +
b011111111 ,
b01111111100000000000000000000000 .
b011111111 0
b11111111 1
18
1:
1>
b100000000000000000000000 D
b010000000000000000000000000 N
b010000000000000000000000000 P
b01000000000000000000000000 S
b00000000000000000000000000100000000000000000000000000 V
b00000000000000000000000 W
0X
b11111111 ]
b1111111100000000000000000000000 ^
b1111111100000000000000000000000 `
1b
b1111111100000000000000000000000 e
b01111111100000000000000000000000 g
b010000000000000000000000000 z
b010000000000000000000000000 }
b010000000000000000000000000 !"
b01000000000000000000000000 ""
b0100000000000000000000000011111 $"
b010000000000000 &"
b0100000 ("
b010 *"
b010000000000000000000000000 -"
b00000000000000000000000000100000000000000000000000000 /"
b010000000000000000000000000 1"
b0100000000000000000000000000 2"
b000100000000000000000000000000 3"
b0000000100000000000000000000000000 4"
b000000000000000100000000000000000000000000 5"
b0000000000000000000000000000000100000000000000000000000000 6"
b1111111100000000000000000000000 7"
b1111111100000000000000000000000 :"
b1111111100000000000000000000000 ;"
#102000000
#105000000
1$
#110000000
b00111111100000000000000000000000 "
b00111111100000000000000000000000 #
0$
b00111111100000000000000000000000 '
b00111111100000000000000000000000 (
b0111111100000000000000000000000 *
b110000001 +
b001111111 ,
b00111111100000000000000000000000 .
b001111111 0
b01111111 1
08
0>
b01111111 ]
b0111111100000000000000000000000 ^
b0111111100000000000000000000000 `
0b
b0111111100000000000000000000000 e
b00111111100000000000000000000000 g
b0111111100000000000000000000000 7"
b0111111100000000000000000000000 :"
b0111111100000000000000000000000 ;"
#112000000
#115000000
1$
#120000000
b00111111110000000000000000000000 "
b00111111110000000000000000000000 #
0$
b00111111110000000000000000000000 '
b00111111110000000000000000000000 (
b0111111110000000000000000000000 *
b00111111110000000000000000000000 .
0:
b110000000000000000000000 D
b011000000000000000000000000 N
b011000000000000000000000000 P
b01100000000000000000000000 S
b00000000000000000000000000110000000000000000000000000 V
b10000000000000000000000 W
b0111111110000000000000000000000 ^
b0111111110000000000000000000000 `
b0111111110000000000000000000000 e
b00111111110000000000000000000000 g
b011000000000000000000000000 z
b011000000000000000000000000 }
b011000000000000000000000000 !"
b01100000000000000000000000 ""
b0110000000000000000000000011111 $"
b011000000000000 &"
b0110000 ("
b011 *"
b011000000000000000000000000 -"
b00000000000000000000000000110000000000000000000000000 /"
b011000000000000000000000000 1"
b0110000000000000000000000000 2"
b000110000000000000000000000000 3"
b0000000110000000000000000000000000 4"
b000000000000000110000000000000000000000000 5"
b0000000000000000000000000000000110000000000000000000000000 6"
b0111111110000000000000000000000 7"
b0111111110000000000000000000000 :"
b0111111110000000000000000000000 ;"
#122000000
#125000000
1$
#130000000
b10000000000000000000000000000000 "
b00000000000000000000000000000000 #
0$
b10000000000000000000000000000000 '
b00000000000000000000000000000000 (
b0000000000000000000000000000000 *
b000000000 +
b000000000 ,
0-
b00000000000000000000000000000000 .
b10000000000000000000000000000000 /
b000000000 0
b00000000 1
03
14
15
16
1:
1@
1B
b000000000000000000000000 D
0F
b00000 G
0H
b00000 I
b111111111111111111111111111 M
b000000000000000000000000000 N
1O
b000000000000000000000000000 P
0R
b00000000000000000000000000 S
b11010 T
b00001 U
b00000000000000000000000000000000000000000000000000000 V
b00000000000000000000000 W
b00000000 [
1\
b00000000 ]
b0000000000000000000000000000000 ^
b0000000000000000000000000000000 `
1a
b0000000000000000000000000000000 e
0f
b00000000000000000000000000000000 g
b00000 i
b00000 l
b000000000000000000000000000 z
b111111111111111111111111111 {
1|
b000000000000000000000000000 }
b000000000000000000000000000 !"
b00000000000000000000000000 ""
b11010 #"
b0000000000000000000000000011111 $"
1%"
b000000000011111 &"
1'"
b0011111 ("
0)"
b001 *"
b10 +"
b110 ,"
b000000000000000000000000000 -"
b00001 ."
b00000000000000000000000000000000000000000000000000000 /"
b00001 0"
b000000000000000000000000000 1"
b0000000000000000000000000000 2"
b000000000000000000000000000000 3"
b0000000000000000000000000000000000 4"
b000000000000000000000000000000000000000000 5"
b0000000000000000000000000000000000000000000000000000000000 6"
b0000000000000000000000000000000 7"
b0000000000000000000000000000000 :"
b0000000000000000000000000000000 ;"
#132000000
#135000000
1$
#140000000
b10000000000000000000000000000001 "
b10000000000000000000000000000001 #
0$
b10000000000000000000000000000001 '
b10000000000000000000000000000001 (
b0000000000000000000000000000001 *
1-
b10000000000000000000000000000001 .
b00000000000000000000000000000000 /
13
04
0:
1;
0@
1A
b000000000000000000000001 D
b000000000000000000000000 E
b00000000000000000000000000 J
b00000000000000000000000000 K
b111111111111111111111111111 M
b000000000000000000000000100 N
b000000000000000000000000100 P
b00000000000000000000000010 S
b11000 T
b00000000000000000000000000000000000000000000000001000 V
b00000000000000000000001 W
1X
0\
b0000000000000000000000000000001 ^
b0000000000000000000000000000001 `
0a
b0000000000000000000000000000001 e
1f
b10000000000000000000000000000001 g
b00000000000000000000000000 h
b00000000000000000000000000 j
b00000000000000000000000000 m
b00000000000000000000000000 n
b00000000000000000000000000 p
b00000000000000000000000000 r
b00000000000000000000000000 t
b00000000000000000000000000 v
b00000000000000000000000000 x
b000000000000000000000000100 z
b111111111111111111111111111 {
b000000000000000000000000100 }
b000000000000000000000000100 !"
b00000000000000000000000010 ""
b11000 #"
b0000000000000000000000001011111 $"
b000000001011111 &"
b1011111 ("
b101 *"
b00 +"
b000000000000000000000000100 -"
b00000000000000000000000000000000000000000000000001000 /"
b000000000000000000000000100 1"
b0000000000000000000000001000 2"
b000000000000000000000000001000 3"
b0000000000000000000000000000001000 4"
b000000000000000000000000000000000000001000 5"
b0000000000000000000000000000000000000000000000000000001000 6"
b0000000000000000000000000000001 7"
b0000000000000000000000000000001 :"
b0000000000000000000000000000001 ;"
#142000000
#145000000
1$
#150000000
b10000000011111111111111111111111 "
b10000000011111111111111111111111 #
0$
b10000000011111111111111111111111 '
b10000000011111111111111111111111 (
b0000000011111111111111111111111 *
b10000000011111111111111111111111 .
b011111111111111111111111 D
b001111111111111111111111100 N
b001111111111111111111111100 P
b00111111111111111111111110 S
b00010 T
b00000000000000000000000000011111111111111111111111000 V
b11111111111111111111111 W
b0000000011111111111111111111111 ^
b0000000011111111111111111111111 `
b0000000011111111111111111111111 e
b10000000011111111111111111111111 g
b001111111111111111111111100 z
b001111111111111111111111100 }
b001111111111111111111111100 !"
b00111111111111111111111110 ""
b00010 #"
b0011111111111111111111111011111 $"
0%"
b001111111111111 &"
0'"
b0011111 ("
b001 *"
b10 +"
b000 ,"
b001111111111111111111111100 -"
b00000000000000000000000000011111111111111111111111000 /"
b001111111111111111111111100 1"
b0011111111111111111111111000 2"
b000011111111111111111111111000 3"
b0000000011111111111111111111111000 4"
b000000000000000011111111111111111111111000 5"
b0000000000000000000000000000000011111111111111111111111000 6"
b0000000011111111111111111111111 7"
b0000000011111111111111111111111 :"
b0000000011111111111111111111111 ;"
#152000000
#155000000
1$
#160000000
b10000000100000000000000000000000 "
b10000000100000000000000000000000 #
0$
b10000000100000000000000000000000 '
b10000000100000000000000000000000 (
b0000000100000000000000000000000 *
b111111111 +
b000000001 ,
b10000000100000000000000000000000 .
b000000001 0
b00000001 1
06
1:
0@
0B
b100000000000000000000000 D
b00001 G
1H
b00000 I
b010000000000000000000000000 N
b010000000000000000000000000 P
1R
b01000000000000000000000000 S
b00001 T
b00001 U
b00000000000000000000000000100000000000000000000000000 V
b00000000000000000000000 W
0X
b00000000 [
0\
b00000001 ]
b0000000100000000000000000000000 ^
b0000000100000000000000000000000 `
0a
b0000000100000000000000000000000 e
1f
b10000000100000000000000000000000 g
b00000 i
b00000 l
b010000000000000000000000000 z
b010000000000000000000000000 }
b010000000000000000000000000 !"
b01000000000000000000000000 ""
b00001 #"
b0100000000000000000000000011111 $"
0%"
b010000000000000 &"
0'"
b0100000 ("
0)"
b010 *"
b01 +"
b000 ,"
b010000000000000000000000000 -"
b00001 ."
b00000000000000000000000000100000000000000000000000000 /"
b00001 0"
b010000000000000000000000000 1"
b0100000000000000000000000000 2"
b000100000000000000000000000000 3"
b0000000100000000000000000000000000 4"
b000000000000000100000000000000000000000000 5"
b0000000000000000000000000000000100000000000000000000000000 6"
b0000000100000000000000000000000 7"
b0000000100000000000000000000000 :"
b0000000100000000000000000000000 ;"
#162000000
#165000000
1$
#170000000
b11111111011111111111111111111111 "
b11111111011111111111111111111111 #
0$
b11111111011111111111111111111111 '
b11111111011111111111111111111111 (
b1111111011111111111111111111111 *
b100000010 +
b011111110 ,
b11111111011111111111111111111111 .
b011111110 0
b11111110 1
0:
b111111111111111111111111 D
1F
b11010 G
b11001 I
b011111111111111111111111100 N
b011111111111111111111111100 P
b01111111111111111111111110 S
b00000000000000000000000000111111111111111111111111000 V
b11111111111111111111111 W
1X
b11111110 ]
b1111111011111111111111111111111 ^
b1111111011111111111111111111111 `
b1111111011111111111111111111111 e
b11111111011111111111111111111111 g
b11001 i
b11001 l
b011111111111111111111111100 z
b011111111111111111111111100 }
b011111111111111111111111100 !"
b01111111111111111111111110 ""
b0111111111111111111111111011111 $"
b011111111111111 &"
b0111111 ("
b011 *"
b011111111111111111111111100 -"
b00000000000000000000000000111111111111111111111111000 /"
b011111111111111111111111100 1"
b0111111111111111111111111000 2"
b000111111111111111111111111000 3"
b0000000111111111111111111111111000 4"
b000000000000000111111111111111111111111000 5"
b0000000000000000000000000000000111111111111111111111111000 6"
b1111111011111111111111111111111 7"
b1111111011111111111111111111111 :"
b1111111011111111111111111111111 ;"
#172000000
#175000000
1$
